<?xml version="1.0" encoding="UTF-8"?>
<!-- Generator: Adobe Illustrator 25.0.0, SVG Export Plug-In . SVG Version: 6.00 Build 0)  -->
<svg version="1.1" id="Layer_1" xmlns="http://www.w3.org/2000/svg" xmlns:xlink="http://www.w3.org/1999/xlink" x="0px" y="0px" viewBox="0 0 1280 786.1" enable-background="new 0 0 1280 786.1" xml:space="preserve">
<g>
	<path fill="#84D1E6" d="M1222.2,0H57.8C25.9,0,0,25.9,0,57.8v670.5c0,31.9,25.9,57.8,57.8,57.8h1164.4c31.9,0,57.8-25.9,57.8-57.8   V57.8C1280,25.9,1254.1,0,1222.2,0"/>
	
		<rect x="837" y="267.7" transform="matrix(0.5503 -0.835 0.835 0.5503 66.0577 875.9621)" fill="#231F20" width="18.4" height="218"/>
	
		<rect x="837" y="267.7" transform="matrix(0.5503 -0.835 0.835 0.5503 66.0577 875.9621)" fill="#231F20" width="18.4" height="218"/>
	
		<rect x="299.3" y="363" transform="matrix(0.823 -0.5681 0.5681 0.823 -139.1502 297.8006)" fill="#231F20" width="218" height="18.4"/>
	
		<rect x="299.3" y="363" transform="matrix(0.823 -0.5681 0.5681 0.823 -139.1502 297.8006)" fill="#231F20" width="218" height="18.4"/>
</g>
<path fill="#231F20" d="M631.5,345.1c-36.9,0-61.8-25.8-61.8-63.6V142.4c0-38.6,24.9-64.4,61.8-64.4c37.8,0,63.1,25.8,63.1,64.4  v139.1C694.6,319.3,669.3,345.1,631.5,345.1z M631.5,365.2c51.1,0,85.9-33.9,85.9-85V142.8c0-50.7-34.8-85-85.9-85  c-50.7,0-84.6,34.4-84.6,85v137.4C546.9,331.3,580.8,365.2,631.5,365.2z"/>
<path fill="#231F20" d="M202.4,719.2c50.7,0,84.2-32.2,84.2-81.6v-3.9l-4.3-3.9l-14.2-0.9l-4.3,4.3v5.2c0,36.5-24.5,60.5-61.4,60.5  c-36.5,0-61-24-61-60.5V492c0-36.1,24.5-60.1,61-60.1c36.9,0,61.4,24,61.4,60.1v6l4.3,4.3l14.2-0.9l4.3-4.7v-3.9  c0-49-33.5-81.2-84.2-81.2c-50.2,0-83.7,32.2-83.7,81.6v143.8C118.7,686.5,152.2,719.2,202.4,719.2z"/>
<path fill="#231F20" d="M1061.4,716.6c50.7,0,84.2-32.2,84.2-81.6v-3.9l-4.3-3.9l-14.2-0.9l-4.3,4.3v5.2c0,36.5-24.5,60.5-61.4,60.5  c-36.5,0-61-24-61-60.5V489.4c0-36.1,24.5-60.1,61-60.1c36.9,0,61.4,24,61.4,60.1v6l4.3,4.3l14.2-0.9l4.3-4.7v-3.9  c0-49-33.5-81.2-84.2-81.2c-50.2,0-83.7,32.2-83.7,81.6v143.8C977.7,683.9,1011.2,716.6,1061.4,716.6z"/>
<g>
</g>
<g>
</g>
<g>
</g>
<g>
</g>
<g>
</g>
<g>
</g>
</svg>