<?xml version="1.0" encoding="UTF-8"?>
<!-- Generator: Adobe Illustrator 25.0.0, SVG Export Plug-In . SVG Version: 6.00 Build 0)  -->
<svg version="1.1" id="Layer_1" xmlns="http://www.w3.org/2000/svg" xmlns:xlink="http://www.w3.org/1999/xlink" x="0px" y="0px" viewBox="0 0 1280 334.6" enable-background="new 0 0 1280 334.6" xml:space="preserve">
<rect x="56.5" y="81.4" fill="#231F20" width="2.5" height="48.6"/>
<rect x="56.5" y="81.4" fill="#231F20" width="2.5" height="48.6"/>
<rect x="138.4" y="81.4" fill="#231F20" width="2.5" height="48.6"/>
<rect x="138.4" y="81.4" fill="#231F20" width="2.5" height="48.6"/>
<rect x="36.4" y="46.4" transform="matrix(0.496 -0.8683 0.8683 0.496 -42.4084 68.2919)" fill="#231F20" width="2.5" height="48.6"/>
<rect x="36.4" y="46.4" transform="matrix(0.496 -0.8683 0.8683 0.496 -42.4084 68.2919)" fill="#231F20" width="2.5" height="48.6"/>
<rect x="77.1" y="116.3" transform="matrix(0.496 -0.8683 0.8683 0.496 -82.6141 138.9119)" fill="#231F20" width="2.5" height="48.6"/>
<rect x="77.1" y="116.3" transform="matrix(0.497 -0.8677 0.8677 0.497 -82.612 138.7224)" fill="#231F20" width="2.5" height="48.6"/>
<rect x="159.4" y="116.3" transform="matrix(0.496 -0.8683 0.8683 0.496 -41.1392 210.372)" fill="#231F20" width="2.5" height="48.6"/>
<rect x="159.4" y="116.3" transform="matrix(0.497 -0.8677 0.8677 0.497 -41.2211 210.1345)" fill="#231F20" width="2.5" height="48.6"/>
<rect x="241.7" y="116.3" transform="matrix(0.496 -0.8683 0.8683 0.496 0.3358 281.8262)" fill="#231F20" width="2.5" height="48.6"/>
<rect x="241.7" y="116.3" transform="matrix(0.496 -0.8683 0.8683 0.496 0.3358 281.8262)" fill="#231F20" width="2.5" height="48.6"/>
<rect x="12.1" y="139.4" transform="matrix(0.869 -0.4948 0.4948 0.869 -64.8186 36.4315)" fill="#231F20" width="48.6" height="2.5"/>
<rect x="12.1" y="139.4" transform="matrix(0.869 -0.4948 0.4948 0.869 -64.8186 36.4315)" fill="#231F20" width="48.6" height="2.5"/>
<rect x="95.2" y="139.4" transform="matrix(0.869 -0.4948 0.4948 0.869 -53.9299 77.5579)" fill="#231F20" width="48.6" height="2.5"/>
<rect x="95.2" y="139.4" transform="matrix(0.869 -0.4948 0.4948 0.869 -53.9299 77.5579)" fill="#231F20" width="48.6" height="2.5"/>
<rect x="177.5" y="139.4" transform="matrix(0.869 -0.4948 0.4948 0.869 -43.1488 118.278)" fill="#231F20" width="48.6" height="2.5"/>
<rect x="177.5" y="139.4" transform="matrix(0.869 -0.4948 0.4948 0.869 -43.1488 118.278)" fill="#231F20" width="48.6" height="2.5"/>
<path fill="#73284E" d="M11.3,52.8v-1.4L8,51V35.8l-2-0.3h0c-0.4,0.3-0.8,0.5-1.3,0.8c-0.5,0.3-0.9,0.5-1.5,0.7  c-0.5,0.2-1,0.4-1.6,0.6C1.1,37.8,0.6,37.9,0,38l0.4,1.7c0.2,0,0.6,0,0.9-0.1c0.4,0,0.8-0.1,1.2-0.2s0.8-0.1,1.1-0.2  C4,39.1,4.3,39.1,4.5,39v12l-3.8,0.4v1.4H11.3z"/>
<path fill="#73284E" d="M67.8,89.4h14.9l0.8-4.1L81.7,85l-1.1,2l-9.1,0.6c1.3-0.7,2.6-1.5,3.8-2.3c1.2-0.8,2.3-1.7,3.2-2.6  c0.9-0.9,1.7-1.9,2.2-2.8c0.6-1,0.8-1.9,0.8-2.9c0-0.6-0.1-1.3-0.4-1.9c-0.3-0.6-0.7-1.1-1.2-1.6c-0.5-0.5-1.2-0.8-2.1-1.1  c-0.8-0.3-1.8-0.4-3-0.4c-0.9,0-1.7,0.1-2.5,0.3c-0.8,0.2-1.5,0.4-2.1,0.7c-0.7,0.3-1.2,0.6-1.7,1c-0.5,0.3-0.9,0.7-1.2,1l1.1,1.3  c0.2-0.2,0.5-0.4,0.9-0.7c0.3-0.2,0.7-0.5,1.2-0.7c0.5-0.2,1-0.4,1.5-0.5c0.6-0.1,1.2-0.2,1.9-0.2c0.6,0,1.1,0.1,1.6,0.2  c0.5,0.2,0.9,0.4,1.2,0.6c0.3,0.3,0.6,0.6,0.8,1c0.2,0.4,0.3,0.9,0.3,1.4c0,0.9-0.3,1.8-0.8,2.8c-0.6,1-1.3,1.9-2.3,2.9  c-1,1-2.1,1.9-3.3,2.8c-1.3,0.9-2.6,1.7-4,2.4L67.8,89.4z"/>
<path fill="#73284E" d="M48.6,163.6c0.4,0.1,0.8,0.1,1.3,0.2c0.5,0.1,1,0.1,1.4,0.1c1.6,0,3-0.2,4.3-0.5c1.3-0.3,2.4-0.8,3.3-1.4  c0.9-0.6,1.6-1.3,2.1-2.1c0.5-0.8,0.7-1.7,0.7-2.6c0-0.6-0.2-1.2-0.4-1.7c-0.3-0.5-0.7-1-1.3-1.4c-0.5-0.4-1.2-0.7-2-0.9  c-0.8-0.2-1.7-0.3-2.7-0.2c0.7-0.2,1.4-0.5,2.1-0.9c0.7-0.4,1.2-0.8,1.7-1.3c0.5-0.5,0.9-1,1.2-1.6c0.3-0.6,0.4-1.2,0.4-1.8  c0-0.7-0.2-1.4-0.5-1.9c-0.3-0.5-0.7-1-1.3-1.3c-0.5-0.3-1.2-0.6-1.9-0.8c-0.7-0.2-1.5-0.2-2.3-0.2c-0.7,0-1.4,0.1-2,0.2  c-0.6,0.1-1.2,0.3-1.8,0.5c-0.5,0.2-1,0.4-1.4,0.7c-0.4,0.2-0.7,0.5-1,0.7l0.8,1.2c0.6-0.4,1.2-0.7,2-0.9c0.7-0.3,1.6-0.4,2.5-0.4  c0.4,0,0.8,0.1,1.2,0.2c0.4,0.1,0.8,0.3,1.1,0.5c0.3,0.2,0.5,0.5,0.7,0.9c0.2,0.4,0.3,0.8,0.3,1.3c0,0.4-0.1,0.9-0.3,1.3  c-0.2,0.4-0.5,0.8-0.8,1.1c-0.3,0.4-0.8,0.7-1.2,1c-0.5,0.3-1,0.5-1.6,0.8c-0.3,0.1-0.7,0.2-1.1,0.3c-0.4,0.1-0.7,0.2-1.1,0.2  l0.6,1.5l1.8-0.4c0.9,0,1.6,0.2,2.2,0.4c0.6,0.2,1.1,0.4,1.5,0.8c0.4,0.3,0.6,0.7,0.8,1.1c0.2,0.4,0.2,0.9,0.2,1.5  c0,0.7-0.2,1.3-0.5,1.8c-0.3,0.6-0.8,1-1.5,1.5c-0.6,0.4-1.4,0.7-2.3,1c-0.9,0.2-1.9,0.4-3,0.4l-0.5,0l-0.6,0l-0.6-0.1l-0.5-0.1  V163.6z"/>
<path fill="#73284E" d="M90.3,177.3h9.4v4.7h2.9v-4.7h4.2v-2.4l-4.2,0.2v-4.8l-2.8,0.3l0,4.7l-7.2,0.4l1.2-1.6l8.1-13l-2.5-1.3h-0.8  c-0.7,1.3-1.4,2.7-2.2,4.2c-0.8,1.5-1.5,2.9-2.3,4.3c-0.8,1.4-1.6,2.8-2.3,4.1c-0.8,1.3-1.5,2.5-2.2,3.6L90.3,177.3z"/>
<path fill="#73284E" d="M134,162.7c0.3,0.1,0.7,0.1,1,0.1c0.4,0,0.7,0,1,0c1.6,0,3-0.2,4.3-0.7c1.3-0.4,2.4-1,3.3-1.7  c0.9-0.7,1.6-1.5,2.1-2.5s0.7-1.9,0.7-2.9c0-0.9-0.1-1.8-0.4-2.5c-0.3-0.7-0.7-1.3-1.2-1.8c-0.5-0.5-1.2-0.8-1.9-1.1  c-0.7-0.2-1.6-0.4-2.5-0.4c-0.6,0-1.3,0.1-2,0.2c-0.7,0.1-1.4,0.3-2.1,0.5l1.4-5.4h7.4l0.6-2.9h-2.1l-0.3,0.5h-7.8l-1.5,8.9l0.9,0.6  c0.3-0.1,0.6-0.2,0.9-0.3c0.3-0.1,0.7-0.1,1-0.2c0.3-0.1,0.7-0.1,1-0.1c0.3,0,0.6,0,0.9,0c0.6,0,1.2,0.1,1.7,0.2  c0.5,0.2,1,0.4,1.3,0.7c0.4,0.3,0.6,0.8,0.8,1.3c0.2,0.5,0.3,1.2,0.3,1.9c0,0.9-0.2,1.7-0.6,2.5c-0.4,0.7-0.9,1.4-1.5,1.9  c-0.6,0.5-1.4,0.9-2.3,1.2c-0.9,0.3-1.8,0.4-2.8,0.4l-0.8,0l-0.8,0L134,162.7z"/>
<path fill="#73284E" d="M180.8,173.4c0.5,0.2,0.8,0.4,1.2,0.8c0.3,0.4,0.6,0.9,0.8,1.5c0.2,0.6,0.3,1.4,0.3,2.2  c0,0.5-0.1,1.1-0.2,1.7c-0.1,0.6-0.4,1.1-0.7,1.6c-0.3,0.5-0.7,0.9-1.2,1.2c-0.5,0.3-1.1,0.5-1.8,0.5c-0.9,0-1.6-0.2-2.2-0.6  c-0.6-0.4-1-0.9-1.3-1.6c-0.3-0.7-0.5-1.4-0.6-2.3c-0.1-0.9-0.1-1.7-0.1-2.6l0-0.5l0.1-0.5l0.6-0.5c0.3-0.2,0.6-0.4,1-0.5  c0.4-0.2,0.8-0.3,1.3-0.4c0.5-0.1,1-0.2,1.6-0.2C179.9,173.1,180.4,173.2,180.8,173.4z M182.2,183.6c0.9-0.4,1.7-0.9,2.4-1.6  c0.6-0.6,1.1-1.4,1.5-2.2c0.3-0.8,0.5-1.7,0.5-2.6c0-0.9-0.1-1.7-0.4-2.4c-0.3-0.7-0.7-1.3-1.2-1.8c-0.5-0.5-1.2-0.9-2-1.2  c-0.8-0.3-1.7-0.4-2.7-0.4c-0.6,0-1.1,0-1.6,0.1c-0.5,0.1-0.9,0.2-1.3,0.3c-0.4,0.1-0.7,0.3-1.1,0.5c-0.3,0.2-0.6,0.3-0.8,0.5  c0.3-0.8,0.7-1.6,1.2-2.4c0.5-0.8,1.1-1.5,1.9-2.2c0.7-0.7,1.6-1.3,2.5-1.9c1-0.6,2-1,3.2-1.4l-0.7-1.2c-1,0.2-2,0.4-3,0.8  c-1,0.4-1.9,0.9-2.8,1.4c-0.9,0.6-1.7,1.2-2.5,2c-0.8,0.8-1.5,1.6-2.1,2.5c-0.6,0.9-1,1.9-1.4,2.9c-0.3,1-0.5,2.1-0.5,3.2  c0,1,0.2,2,0.5,2.9c0.3,0.9,0.8,1.7,1.5,2.4c0.6,0.7,1.4,1.2,2.4,1.7c1,0.4,2.1,0.6,3.3,0.6C180.2,184.2,181.3,184,182.2,183.6z"/>
<path fill="#73284E" d="M220.8,162.8l7.8-19.7l-0.6-0.7h-13.2l-0.6,4.9l1.9,0.3l1.1-3l8.5-0.1c-0.7,1.4-1.3,2.9-2,4.4  c-0.7,1.5-1.4,3-2.1,4.4c-0.7,1.5-1.4,3-2.1,4.4c-0.7,1.5-1.5,2.9-2.2,4.3L220.8,162.8z"/>
<path fill="#73284E" d="M268.1,181.9c-0.2,0.4-0.5,0.8-0.9,1c-0.4,0.3-0.8,0.5-1.3,0.7c-0.5,0.2-0.9,0.2-1.4,0.2  c-0.8,0-1.4-0.1-2-0.3c-0.6-0.2-1-0.5-1.4-0.9c-0.4-0.4-0.7-0.8-0.8-1.3c-0.2-0.5-0.3-1.1-0.3-1.7c0-0.4,0.1-0.8,0.2-1.2  c0.1-0.4,0.3-0.7,0.6-1c0.2-0.3,0.5-0.6,0.8-0.9c0.3-0.3,0.7-0.5,1-0.7c0.7,0.4,1.4,0.7,2.1,1s1.3,0.7,1.9,1c0.5,0.4,1,0.8,1.3,1.2  c0.3,0.4,0.5,0.9,0.5,1.5C268.5,181.1,268.4,181.5,268.1,181.9z M261,168.3c0.2-0.4,0.4-0.7,0.8-0.9c0.3-0.3,0.7-0.4,1.2-0.6  c0.4-0.1,0.9-0.2,1.4-0.2c0.6,0,1.1,0.1,1.5,0.3c0.5,0.2,0.8,0.4,1.2,0.7c0.3,0.3,0.6,0.7,0.7,1.2c0.2,0.5,0.3,1,0.3,1.6  c0,0.3-0.1,0.7-0.2,1c-0.1,0.3-0.3,0.7-0.4,1c-0.2,0.3-0.4,0.6-0.7,0.9c-0.3,0.3-0.6,0.5-1,0.7c-0.6-0.3-1.3-0.6-1.8-1  c-0.6-0.3-1.1-0.7-1.6-1c-0.5-0.4-0.8-0.7-1.1-1.1c-0.3-0.4-0.4-0.8-0.4-1.3C260.7,169.1,260.8,168.7,261,168.3z M257.6,182.5  c0.4,0.6,1,1.2,1.7,1.6c0.7,0.4,1.5,0.7,2.3,0.9s1.7,0.3,2.6,0.3c1,0,1.9-0.1,2.8-0.4c0.9-0.2,1.7-0.6,2.4-1.1  c0.7-0.5,1.3-1,1.7-1.7c0.4-0.7,0.6-1.4,0.6-2.2c0-0.6-0.1-1.2-0.4-1.7c-0.3-0.5-0.6-1-1-1.4c-0.4-0.4-0.9-0.8-1.5-1.2  c-0.6-0.4-1.1-0.7-1.8-1c0.6-0.3,1.1-0.7,1.6-1.1c0.5-0.4,0.8-0.8,1.1-1.2c0.3-0.4,0.5-0.9,0.7-1.3c0.2-0.5,0.2-0.9,0.2-1.4  c0-0.6-0.1-1.2-0.4-1.8c-0.3-0.5-0.7-1-1.3-1.3c-0.5-0.4-1.2-0.7-2-0.9c-0.8-0.2-1.6-0.3-2.6-0.3c-0.8,0-1.6,0.1-2.4,0.3  c-0.8,0.2-1.5,0.5-2.1,0.9c-0.6,0.4-1.1,0.9-1.5,1.5c-0.4,0.6-0.6,1.3-0.6,2.1c0,0.6,0.1,1.1,0.3,1.6c0.2,0.5,0.4,0.9,0.7,1.3  c0.3,0.4,0.7,0.8,1.1,1.1c0.4,0.3,0.9,0.6,1.3,0.9c-0.8,0.3-1.4,0.7-2,1.1c-0.6,0.4-1,0.8-1.4,1.2c-0.4,0.4-0.6,0.9-0.8,1.3  c-0.2,0.5-0.3,0.9-0.3,1.4C256.9,181.1,257.2,181.9,257.6,182.5z"/>
<rect x="547.4" y="46" fill="#231F20" width="2.5" height="48.6"/>
<rect x="547.4" y="46" fill="#231F20" width="2.5" height="48.6"/>
<rect x="546.6" y="184.7" fill="#231F20" width="2.5" height="48.6"/>
<rect x="546.6" y="184.7" fill="#231F20" width="2.5" height="48.6"/>
<rect x="505.4" y="115.1" fill="#231F20" width="2.5" height="48.6"/>
<rect x="505.4" y="115.1" fill="#231F20" width="2.5" height="48.6"/>
<rect x="588.5" y="114.3" fill="#231F20" width="2.5" height="48.6"/>
<rect x="588.5" y="114.3" fill="#231F20" width="2.5" height="48.6"/>
<rect x="568.4" y="80.1" transform="matrix(0.496 -0.8683 0.8683 0.496 196.3981 547.2244)" fill="#231F20" width="2.5" height="48.6"/>
<rect x="568.4" y="80.1" transform="matrix(0.496 -0.8683 0.8683 0.496 196.3989 547.2239)" fill="#231F20" width="2.5" height="48.6"/>
<rect x="525.2" y="149.7" transform="matrix(0.496 -0.8683 0.8683 0.496 114.278 544.7841)" fill="#231F20" width="2.5" height="48.6"/>
<rect x="525.2" y="149.7" transform="matrix(0.496 -0.8683 0.8683 0.496 114.278 544.7841)" fill="#231F20" width="2.5" height="48.6"/>
<rect x="503" y="103.6" transform="matrix(0.869 -0.4948 0.4948 0.869 17.2032 274.6344)" fill="#231F20" width="48.5" height="2.5"/>
<rect x="503" y="103.6" transform="matrix(0.869 -0.4948 0.4948 0.869 17.2032 274.6344)" fill="#231F20" width="48.5" height="2.5"/>
<rect x="545.3" y="173.1" transform="matrix(0.869 -0.4948 0.4948 0.869 -11.6521 304.7158)" fill="#231F20" width="48.5" height="2.5"/>
<rect x="545.3" y="173.1" transform="matrix(0.869 -0.4948 0.4948 0.869 -11.6524 304.7166)" fill="#231F20" width="48.6" height="2.5"/>
<path fill="#73284E" d="M576.6,86.5v-1.4l-3.3-0.4V69.5l-2-0.3h0c-0.4,0.3-0.8,0.5-1.3,0.8c-0.5,0.3-0.9,0.5-1.5,0.7  c-0.5,0.2-1,0.4-1.6,0.6c-0.5,0.2-1.1,0.3-1.6,0.4l0.4,1.7c0.2,0,0.6,0,0.9-0.1c0.4,0,0.8-0.1,1.2-0.2c0.4-0.1,0.8-0.1,1.1-0.2  c0.4-0.1,0.7-0.1,0.9-0.2v12l-3.8,0.4v1.4H576.6z"/>
<path fill="#73284E" d="M600.2,123.5h14.9l0.8-4.1l-1.8-0.3l-1.1,2l-9.1,0.6c1.3-0.7,2.6-1.5,3.8-2.3c1.2-0.8,2.3-1.7,3.2-2.6  c0.9-0.9,1.7-1.9,2.2-2.8c0.6-1,0.8-1.9,0.8-2.9c0-0.6-0.1-1.3-0.4-1.9c-0.3-0.6-0.7-1.1-1.2-1.6c-0.5-0.5-1.2-0.8-2.1-1.1  s-1.8-0.4-3-0.4c-0.9,0-1.7,0.1-2.5,0.3c-0.8,0.2-1.5,0.4-2.1,0.7c-0.7,0.3-1.2,0.6-1.7,1c-0.5,0.3-0.9,0.7-1.2,1l1.1,1.3  c0.2-0.2,0.5-0.4,0.9-0.7c0.3-0.2,0.7-0.5,1.2-0.7c0.5-0.2,1-0.4,1.5-0.5c0.6-0.1,1.2-0.2,1.9-0.2c0.6,0,1.1,0.1,1.6,0.2  c0.5,0.2,0.9,0.4,1.2,0.6c0.3,0.3,0.6,0.6,0.8,1c0.2,0.4,0.3,0.9,0.3,1.4c0,0.9-0.3,1.8-0.8,2.8c-0.6,1-1.3,1.9-2.3,2.9  c-1,1-2.1,1.9-3.3,2.8c-1.3,0.9-2.6,1.7-4,2.4L600.2,123.5z"/>
<path fill="#73284E" d="M582.3,197.7c0.4,0.1,0.8,0.1,1.3,0.2c0.5,0.1,1,0.1,1.4,0.1c1.6,0,3-0.2,4.3-0.5c1.3-0.3,2.4-0.8,3.3-1.4  c0.9-0.6,1.6-1.3,2.1-2.1c0.5-0.8,0.7-1.7,0.7-2.6c0-0.6-0.2-1.2-0.4-1.7c-0.3-0.5-0.7-1-1.3-1.4c-0.5-0.4-1.2-0.7-2-0.9  c-0.8-0.2-1.7-0.3-2.7-0.2c0.7-0.2,1.4-0.5,2.1-0.9c0.7-0.4,1.2-0.8,1.7-1.3c0.5-0.5,0.9-1,1.2-1.6c0.3-0.6,0.4-1.2,0.4-1.8  c0-0.7-0.2-1.4-0.5-1.9s-0.7-1-1.3-1.3c-0.5-0.3-1.2-0.6-1.9-0.8c-0.7-0.2-1.5-0.2-2.3-0.2c-0.7,0-1.4,0.1-2,0.2  c-0.6,0.1-1.2,0.3-1.8,0.5c-0.5,0.2-1,0.4-1.4,0.7c-0.4,0.2-0.7,0.5-1,0.7l0.8,1.2c0.6-0.4,1.2-0.7,2-0.9c0.7-0.3,1.6-0.4,2.5-0.4  c0.4,0,0.8,0.1,1.2,0.2c0.4,0.1,0.8,0.3,1.1,0.5c0.3,0.2,0.5,0.5,0.7,0.9c0.2,0.4,0.3,0.8,0.3,1.3c0,0.4-0.1,0.9-0.3,1.3  c-0.2,0.4-0.5,0.8-0.8,1.1c-0.3,0.4-0.8,0.7-1.2,1c-0.5,0.3-1,0.5-1.6,0.8c-0.3,0.1-0.7,0.2-1.1,0.3c-0.4,0.1-0.7,0.2-1.1,0.2  l0.6,1.5l1.8-0.4c0.9,0,1.6,0.2,2.2,0.4c0.6,0.2,1.1,0.4,1.5,0.8c0.4,0.3,0.6,0.7,0.8,1.1c0.2,0.4,0.2,0.9,0.2,1.5  c0,0.7-0.2,1.3-0.5,1.8s-0.8,1-1.5,1.5c-0.6,0.4-1.4,0.7-2.3,1c-0.9,0.2-1.9,0.4-3,0.4l-0.5,0l-0.6,0l-0.6-0.1l-0.5-0.1V197.7z"/>
<path fill="#73284E" d="M512.9,200.3h9.4v4.7h2.9v-4.7h4.2v-2.4l-4.2,0.2v-4.8l-2.8,0.3l0,4.7l-7.2,0.4l1.2-1.6l8.1-13l-2.5-1.3H521  c-0.7,1.3-1.4,2.7-2.2,4.2c-0.8,1.5-1.5,2.9-2.3,4.3c-0.8,1.4-1.6,2.8-2.3,4.1c-0.8,1.3-1.5,2.5-2.2,3.6L512.9,200.3z"/>
<path fill="#73284E" d="M480.8,171.4c0.3,0.1,0.7,0.1,1,0.1c0.4,0,0.7,0,1,0c1.6,0,3-0.2,4.3-0.7c1.3-0.4,2.4-1,3.3-1.7  c0.9-0.7,1.6-1.5,2.1-2.5c0.5-0.9,0.7-1.9,0.7-2.9c0-0.9-0.1-1.8-0.4-2.5c-0.3-0.7-0.7-1.3-1.2-1.8c-0.5-0.5-1.2-0.8-1.9-1.1  c-0.7-0.2-1.6-0.4-2.5-0.4c-0.6,0-1.3,0.1-2,0.2c-0.7,0.1-1.4,0.3-2.1,0.5l1.4-5.4h7.4l0.6-2.9h-2.1l-0.3,0.5h-7.8l-1.5,8.9l0.9,0.6  c0.3-0.1,0.6-0.2,0.9-0.3c0.3-0.1,0.7-0.1,1-0.2c0.3-0.1,0.7-0.1,1-0.1c0.3,0,0.6,0,0.9,0c0.6,0,1.2,0.1,1.7,0.2  c0.5,0.2,1,0.4,1.3,0.7c0.4,0.3,0.6,0.8,0.8,1.3c0.2,0.5,0.3,1.2,0.3,1.9c0,0.9-0.2,1.7-0.6,2.5c-0.4,0.7-0.9,1.4-1.5,1.9  c-0.6,0.5-1.4,0.9-2.3,1.2c-0.9,0.3-1.8,0.4-2.8,0.4l-0.8,0l-0.8,0L480.8,171.4z"/>
<path fill="#73284E" d="M502.2,94c0.5,0.2,0.8,0.4,1.2,0.8c0.3,0.4,0.6,0.9,0.8,1.5c0.2,0.6,0.3,1.4,0.3,2.2c0,0.5-0.1,1.1-0.2,1.7  c-0.1,0.6-0.4,1.1-0.7,1.6c-0.3,0.5-0.7,0.9-1.2,1.2c-0.5,0.3-1.1,0.5-1.8,0.5c-0.9,0-1.6-0.2-2.2-0.6c-0.6-0.4-1-0.9-1.3-1.6  c-0.3-0.7-0.5-1.4-0.6-2.3s-0.1-1.7-0.1-2.6l0-0.5l0.1-0.5l0.6-0.5c0.3-0.2,0.6-0.4,1-0.5c0.4-0.2,0.8-0.3,1.3-0.4  c0.5-0.1,1-0.2,1.6-0.2C501.3,93.7,501.7,93.8,502.2,94z M503.6,104.2c0.9-0.4,1.7-0.9,2.4-1.6c0.6-0.6,1.1-1.4,1.5-2.2  c0.3-0.8,0.5-1.7,0.5-2.6c0-0.9-0.1-1.7-0.4-2.4c-0.3-0.7-0.7-1.3-1.2-1.8c-0.5-0.5-1.2-0.9-2-1.2c-0.8-0.3-1.7-0.4-2.7-0.4  c-0.6,0-1.1,0-1.6,0.1c-0.5,0.1-0.9,0.2-1.3,0.3c-0.4,0.1-0.7,0.3-1.1,0.5c-0.3,0.2-0.6,0.3-0.8,0.5c0.3-0.8,0.7-1.6,1.2-2.4  c0.5-0.8,1.1-1.5,1.9-2.2c0.7-0.7,1.6-1.3,2.5-1.9c1-0.6,2-1,3.2-1.4l-0.7-1.2c-1,0.2-2,0.4-3,0.8c-1,0.4-1.9,0.9-2.8,1.4  c-0.9,0.6-1.7,1.2-2.5,2c-0.8,0.8-1.5,1.6-2.1,2.5c-0.6,0.9-1,1.9-1.4,2.9c-0.3,1-0.5,2.1-0.5,3.2c0,1,0.2,2,0.5,2.9  c0.3,0.9,0.8,1.7,1.5,2.4c0.6,0.7,1.4,1.2,2.4,1.7c1,0.4,2.1,0.6,3.3,0.6C501.6,104.8,502.6,104.6,503.6,104.2z"/>
<rect x="1001.2" y="87.1" fill="#231F20" width="2.5" height="48.6"/>
<rect x="1001.2" y="87.1" fill="#231F20" width="2.5" height="48.6"/>
<rect x="1042.4" y="158.3" fill="#231F20" width="2.5" height="48.6"/>
<rect x="1042.4" y="158.3" fill="#231F20" width="2.5" height="48.6"/>
<rect x="960.5" y="16.8" fill="#231F20" width="2.5" height="48.6"/>
<rect x="960.5" y="16.8" fill="#231F20" width="2.5" height="48.6"/>
<rect x="981.1" y="52.2" transform="matrix(0.496 -0.8683 0.8683 0.496 428.6615 891.451)" fill="#231F20" width="2.5" height="48.5"/>
<rect x="981.1" y="52.2" transform="matrix(0.496 -0.8683 0.8683 0.496 428.6615 891.451)" fill="#231F20" width="2.5" height="48.5"/>
<rect x="1021.8" y="122.1" transform="matrix(0.496 -0.8683 0.8683 0.496 388.4569 962.0695)" fill="#231F20" width="2.5" height="48.6"/>
<rect x="1021.8" y="122.1" transform="matrix(0.496 -0.8683 0.8683 0.496 388.4569 962.0695)" fill="#231F20" width="2.5" height="48.6"/>
<rect x="1104.1" y="122.1" transform="matrix(0.496 -0.8683 0.8683 0.496 429.9266 1033.5206)" fill="#231F20" width="2.5" height="48.6"/>
<rect x="1104.1" y="122.1" transform="matrix(0.496 -0.8683 0.8683 0.496 429.9266 1033.5206)" fill="#231F20" width="2.5" height="48.6"/>
<rect x="1063.4" y="52.2" transform="matrix(0.496 -0.8683 0.8683 0.496 470.1313 962.9022)" fill="#231F20" width="2.5" height="48.5"/>
<rect x="1063.4" y="52.2" transform="matrix(0.496 -0.8683 0.8683 0.496 470.1313 962.9022)" fill="#231F20" width="2.5" height="48.5"/>
<rect x="1063.8" y="192.9" transform="matrix(0.496 -0.8683 0.8683 0.496 348.1577 1034.1729)" fill="#231F20" width="2.5" height="48.5"/>
<rect x="1063.8" y="192.9" transform="matrix(0.496 -0.8683 0.8683 0.496 348.1577 1034.1729)" fill="#231F20" width="2.5" height="48.5"/>
<rect x="956.8" y="145.2" transform="matrix(0.869 -0.4948 0.4948 0.869 56.0977 504.6494)" fill="#231F20" width="48.5" height="2.5"/>
<rect x="956.8" y="145.2" transform="matrix(0.869 -0.4948 0.4948 0.869 56.0977 504.6494)" fill="#231F20" width="48.5" height="2.5"/>
<rect x="1039.9" y="145.2" transform="matrix(0.869 -0.4948 0.4948 0.869 66.986 545.7748)" fill="#231F20" width="48.5" height="2.5"/>
<rect x="1039.9" y="145.2" transform="matrix(0.869 -0.4948 0.4948 0.869 66.986 545.7748)" fill="#231F20" width="48.5" height="2.5"/>
<rect x="999.6" y="75.2" transform="matrix(0.869 -0.4948 0.4948 0.869 96.3156 516.6581)" fill="#231F20" width="48.6" height="2.5"/>
<rect x="999.6" y="75.2" transform="matrix(0.869 -0.4948 0.4948 0.869 96.3152 516.6582)" fill="#231F20" width="48.6" height="2.5"/>
<rect x="998.3" y="215.9" transform="matrix(0.869 -0.4948 0.4948 0.869 26.5231 534.4851)" fill="#231F20" width="48.5" height="2.5"/>
<rect x="998.3" y="215.9" transform="matrix(0.869 -0.4949 0.4949 0.869 26.5431 534.5466)" fill="#231F20" width="48.6" height="2.5"/>
<path fill="#73284E" d="M1101.7,253.6v-1.4l-3.3-0.4v-15.2l-2-0.3h0c-0.4,0.3-0.8,0.5-1.3,0.8c-0.5,0.3-1,0.5-1.5,0.7  c-0.5,0.2-1,0.4-1.6,0.6c-0.5,0.2-1.1,0.3-1.6,0.4l0.4,1.7c0.2,0,0.6,0,0.9-0.1c0.4,0,0.8-0.1,1.2-0.2c0.4-0.1,0.8-0.1,1.1-0.2  c0.4-0.1,0.7-0.1,0.9-0.2v12l-3.8,0.4v1.4H1101.7z"/>
<path fill="#73284E" d="M1036.4,236.3h14.9l0.8-4.1l-1.8-0.3l-1.1,2l-9.1,0.6c1.3-0.7,2.6-1.5,3.8-2.3c1.2-0.8,2.3-1.7,3.2-2.6  c0.9-0.9,1.7-1.9,2.2-2.8c0.6-1,0.8-1.9,0.8-2.9c0-0.6-0.1-1.3-0.4-1.9c-0.3-0.6-0.7-1.1-1.2-1.6c-0.5-0.5-1.2-0.8-2.1-1.1  c-0.8-0.3-1.8-0.4-3-0.4c-0.9,0-1.7,0.1-2.5,0.3c-0.8,0.2-1.5,0.4-2.1,0.7c-0.7,0.3-1.2,0.6-1.7,1c-0.5,0.3-0.9,0.7-1.2,1l1.1,1.3  c0.2-0.2,0.5-0.4,0.9-0.7c0.3-0.2,0.7-0.5,1.2-0.7c0.5-0.2,1-0.4,1.5-0.5c0.6-0.1,1.2-0.2,1.9-0.2c0.6,0,1.1,0.1,1.6,0.2  c0.5,0.2,0.9,0.4,1.2,0.6c0.3,0.3,0.6,0.6,0.8,1c0.2,0.4,0.3,0.9,0.3,1.4c0,0.9-0.3,1.8-0.8,2.8c-0.6,1-1.3,1.9-2.3,2.9  c-1,1-2.1,1.9-3.3,2.8c-1.3,0.9-2.6,1.7-4,2.4L1036.4,236.3z"/>
<path fill="#73284E" d="M1055.4,184.6c0.4,0.1,0.8,0.1,1.3,0.2c0.5,0.1,1,0.1,1.4,0.1c1.6,0,3-0.2,4.3-0.5c1.3-0.3,2.4-0.8,3.3-1.4  c0.9-0.6,1.6-1.3,2.1-2.1c0.5-0.8,0.7-1.7,0.7-2.6c0-0.6-0.2-1.2-0.4-1.7c-0.3-0.5-0.7-1-1.3-1.4c-0.5-0.4-1.2-0.7-2-0.9  c-0.8-0.2-1.7-0.3-2.7-0.2c0.7-0.2,1.4-0.5,2.1-0.9c0.7-0.4,1.2-0.8,1.7-1.3c0.5-0.5,0.9-1,1.2-1.6c0.3-0.6,0.4-1.2,0.4-1.8  c0-0.7-0.2-1.4-0.5-1.9c-0.3-0.5-0.7-1-1.3-1.3c-0.5-0.3-1.2-0.6-1.9-0.8c-0.7-0.2-1.5-0.2-2.3-0.2c-0.7,0-1.4,0.1-2,0.2  c-0.7,0.1-1.2,0.3-1.8,0.5c-0.5,0.2-1,0.4-1.4,0.7c-0.4,0.2-0.7,0.5-1,0.7l0.8,1.2c0.6-0.4,1.2-0.7,2-0.9c0.7-0.3,1.6-0.4,2.5-0.4  c0.4,0,0.8,0.1,1.2,0.2c0.4,0.1,0.8,0.3,1.1,0.5c0.3,0.2,0.5,0.5,0.7,0.9c0.2,0.4,0.3,0.8,0.3,1.3c0,0.4-0.1,0.9-0.3,1.3  c-0.2,0.4-0.5,0.8-0.8,1.1c-0.3,0.4-0.8,0.7-1.2,1c-0.5,0.3-1,0.5-1.6,0.8c-0.3,0.1-0.7,0.2-1.1,0.3c-0.4,0.1-0.7,0.2-1.1,0.2  l0.6,1.5l1.8-0.4c0.9,0,1.6,0.2,2.2,0.4c0.6,0.2,1.1,0.4,1.5,0.8c0.4,0.3,0.6,0.7,0.8,1.1c0.2,0.4,0.2,0.9,0.2,1.5  c0,0.7-0.2,1.3-0.5,1.8c-0.3,0.6-0.8,1-1.5,1.5c-0.6,0.4-1.4,0.7-2.3,1c-0.9,0.2-1.9,0.4-3,0.4l-0.5,0l-0.6,0l-0.6-0.1l-0.5-0.1  V184.6z"/>
<path fill="#73284E" d="M996.4,164.9h9.4v4.7h2.9v-4.7h4.2v-2.4l-4.2,0.2V158l-2.8,0.3l0,4.7l-7.2,0.4l1.2-1.6l8.1-13l-2.5-1.3h-0.8  c-0.7,1.3-1.4,2.7-2.2,4.2c-0.8,1.5-1.5,2.9-2.3,4.3c-0.8,1.4-1.6,2.8-2.3,4.1c-0.8,1.3-1.5,2.5-2.2,3.6L996.4,164.9z"/>
<path fill="#73284E" d="M981.6,112.1c0.3,0.1,0.7,0.1,1,0.1c0.4,0,0.7,0,1,0c1.6,0,3-0.2,4.3-0.7c1.3-0.4,2.4-1,3.3-1.7  c0.9-0.7,1.6-1.5,2.1-2.5c0.5-0.9,0.7-1.9,0.7-2.9c0-0.9-0.1-1.8-0.4-2.5c-0.3-0.7-0.7-1.3-1.2-1.8c-0.5-0.5-1.2-0.8-1.9-1.1  c-0.7-0.2-1.6-0.4-2.5-0.4c-0.6,0-1.3,0.1-2,0.2c-0.7,0.1-1.4,0.3-2.1,0.5l1.4-5.4h7.4l0.6-2.9h-2.1l-0.3,0.5H983l-1.5,8.9l0.9,0.6  c0.3-0.1,0.6-0.2,0.9-0.3c0.3-0.1,0.7-0.1,1-0.2c0.3-0.1,0.7-0.1,1-0.1c0.3,0,0.6,0,0.9,0c0.6,0,1.2,0.1,1.7,0.2  c0.5,0.2,1,0.4,1.3,0.7c0.4,0.3,0.6,0.8,0.8,1.3c0.2,0.5,0.3,1.2,0.3,1.9c0,0.9-0.2,1.7-0.6,2.5c-0.4,0.7-0.9,1.4-1.5,1.9  s-1.4,0.9-2.3,1.2c-0.9,0.3-1.8,0.4-2.8,0.4l-0.8,0l-0.8,0L981.6,112.1z"/>
<path fill="#73284E" d="M943.7,66.4c0.5,0.2,0.8,0.4,1.2,0.8c0.3,0.4,0.6,0.9,0.8,1.5c0.2,0.6,0.3,1.4,0.3,2.2  c0,0.5-0.1,1.1-0.2,1.7c-0.1,0.6-0.4,1.1-0.7,1.6c-0.3,0.5-0.7,0.9-1.2,1.2c-0.5,0.3-1.1,0.5-1.8,0.5c-0.9,0-1.6-0.2-2.2-0.6  c-0.6-0.4-1-0.9-1.3-1.6c-0.3-0.7-0.5-1.4-0.6-2.3c-0.1-0.9-0.1-1.7-0.1-2.6l0-0.5l0.1-0.5l0.6-0.5c0.3-0.2,0.6-0.4,1-0.5  c0.4-0.2,0.8-0.3,1.3-0.4c0.5-0.1,1-0.2,1.6-0.2C942.7,66.1,943.2,66.2,943.7,66.4z M945.1,76.6c0.9-0.4,1.7-0.9,2.4-1.6  c0.6-0.6,1.1-1.4,1.5-2.2c0.3-0.8,0.5-1.7,0.5-2.6c0-0.9-0.1-1.7-0.4-2.4c-0.3-0.7-0.7-1.3-1.2-1.8c-0.5-0.5-1.2-0.9-2-1.2  c-0.8-0.3-1.7-0.4-2.7-0.4c-0.6,0-1.1,0-1.6,0.1c-0.5,0.1-0.9,0.2-1.3,0.3c-0.4,0.1-0.7,0.3-1.1,0.5c-0.3,0.2-0.6,0.3-0.8,0.5  c0.3-0.8,0.7-1.6,1.2-2.4c0.5-0.8,1.1-1.5,1.9-2.2c0.7-0.7,1.6-1.3,2.5-1.9c1-0.6,2-1,3.2-1.4l-0.7-1.2c-1,0.2-2,0.4-3,0.8  c-1,0.4-1.9,0.9-2.8,1.4c-0.9,0.6-1.7,1.2-2.5,2c-0.8,0.8-1.5,1.6-2.1,2.5c-0.6,0.9-1,1.9-1.4,2.9c-0.3,1-0.5,2.1-0.5,3.2  c0,1,0.2,2,0.5,2.9c0.3,0.9,0.8,1.7,1.5,2.4c0.6,0.7,1.4,1.2,2.4,1.7c1,0.4,2.1,0.6,3.3,0.6C943.1,77.2,944.1,77,945.1,76.6z"/>
<g>
	<path fill="#73284E" d="M945.4,20.4l7.8-19.7L952.5,0h-13.2l-0.6,4.9l1.9,0.3l1.1-3l8.5-0.1c-0.7,1.4-1.3,2.9-2,4.4   c-0.7,1.5-1.4,3-2.1,4.4c-0.7,1.5-1.4,3-2.1,4.4c-0.7,1.5-1.5,2.9-2.2,4.3L945.4,20.4z"/>
</g>
<path fill="#231F20" d="M1264.6,325.3l-2,0.2v1.3h6.6v-1.3l-2.2-0.2v-11.6c0.7-0.5,1.5-1,2.4-1.4c0.9-0.4,1.8-0.6,2.6-0.6  c0.9,0,1.6,0.2,2.1,0.6c0.5,0.4,0.8,0.9,1,1.6c0.2,0.7,0.3,1.7,0.3,3v8.5l-2,0.2v1.3h6.7v-1.3l-2.2-0.2v-8.4c0-1.7-0.1-3-0.4-4  c-0.3-1-0.7-1.7-1.4-2.2c-0.7-0.5-1.7-0.7-2.9-0.7c-1,0-2.2,0.3-3.4,0.8c-1.2,0.5-2.2,1.1-2.9,1.8l0-0.7v-1.3l-0.6-0.5h-0.1  l-3.8,0.5v1.3l2.3,0.5V325.3z M1252,325.4c-1,0-1.8-0.3-2.4-0.8c-0.6-0.5-0.9-1.3-0.9-2.5c0-1.2,0.6-2.1,1.9-2.8  c1.2-0.7,3.1-1.1,5.5-1.1v5.3c-0.6,0.5-1.3,0.9-2.1,1.3C1253.2,325.2,1252.5,325.4,1252,325.4z M1246.1,322.4c0,1.5,0.5,2.7,1.4,3.5  c0.9,0.8,2.1,1.2,3.6,1.2c1.1,0,2-0.2,2.9-0.7c0.8-0.5,1.6-1,2.3-1.7v1.1c0,0.5,0.1,0.9,0.3,1c0.2,0.1,0.5,0.2,1,0.2  c0.8,0,1.7-0.1,2.8-0.4v-1.1h-1.8v-9.8c0-1.4-0.2-2.5-0.5-3.4c-0.3-0.8-0.9-1.4-1.7-1.8c-0.8-0.4-1.9-0.6-3.2-0.6  c-0.8,0-1.7,0.1-2.6,0.4c-0.9,0.3-1.7,0.6-2.4,1c-0.7,0.4-1.2,0.6-1.4,0.8l0.7,1.3c0.8-0.4,1.6-0.8,2.4-1.1c0.8-0.3,1.7-0.5,2.8-0.5  c0.9,0,1.7,0.1,2.2,0.4c0.5,0.3,0.9,0.7,1.1,1.3c0.2,0.6,0.3,1.4,0.3,2.4v0.9c-2.8,0.1-5.2,0.5-7.1,1.4  C1247.1,319.1,1246.1,320.5,1246.1,322.4z M1238.8,327.1c0.8,0,1.7-0.2,2.7-0.5c1.1-0.3,1.8-0.7,2.3-1l-0.4-1.1  c-0.4,0.2-0.9,0.3-1.6,0.5c-0.7,0.2-1.4,0.2-1.9,0.2c-0.6,0-1-0.1-1.3-0.2c-0.2-0.1-0.4-0.4-0.5-0.9c-0.1-0.5-0.1-1.3-0.1-2.4V312  h5.3v-1.8h-5.3V306h-1.4c-0.1,0.4-0.2,1-0.4,1.8c-0.2,0.8-0.4,1.3-0.5,1.6c-0.1,0.5-0.4,0.8-0.7,0.9c-0.2,0.1-0.7,0.3-1.7,0.5v1.2  h2.3v11.8c0,1.3,0.3,2.1,0.8,2.6C1237,326.9,1237.8,327.1,1238.8,327.1z M1223.3,311.6c1.4,0,2.6,0.6,3.5,1.7c0.9,1.1,1.4,2.8,1.4,5  c0,2.5-0.5,4.3-1.6,5.6c-1,1.3-2.4,1.9-4.1,1.9c-0.8,0-1.5-0.1-2.1-0.3c-0.6-0.2-1-0.4-1.2-0.7v-11.4c0.4-0.4,1-0.8,1.7-1.2  C1221.6,311.8,1222.4,311.6,1223.3,311.6z M1230.8,317.9c0-1.8-0.3-3.4-0.9-4.6c-0.6-1.2-1.4-2.1-2.4-2.7c-1-0.6-2.1-0.9-3.2-0.9  c-1.1,0-2.2,0.2-3.1,0.7c-0.9,0.5-1.7,1-2.3,1.7v-1.8l-0.5-0.5h-0.1l-3.8,0.5v1.3l2.3,0.5v20.2l-2.3,0.3v1.3h8v-1.3l-3.3-0.3v-3.2  l-0.1-2.5c0.4,0.1,0.9,0.3,1.5,0.3c0.6,0.1,1.2,0.1,1.8,0.1c1.7,0,3.1-0.4,4.4-1.2c1.3-0.8,2.3-1.9,3-3.3  C1230.5,321.2,1230.8,319.6,1230.8,317.9z M1201.3,316.9c0.2-3.7,1.7-5.6,4.4-5.6c1.3,0,2.2,0.4,2.8,1.2c0.6,0.8,0.9,1.8,0.9,3.1  c0,0.5,0,0.9-0.1,1.3H1201.3z M1205.9,327.1c1.1,0,2.2-0.2,3.3-0.6c1.1-0.4,1.9-0.9,2.5-1.5l-0.5-1.1c-0.5,0.4-1.2,0.8-2,1.1  c-0.9,0.3-1.7,0.4-2.6,0.4c-1.7,0-3-0.7-4-2c-0.9-1.3-1.4-3-1.4-5.1h10.6c0.1-0.5,0.2-1.4,0.2-2.6c-0.1-1.9-0.6-3.4-1.6-4.4  c-1-1-2.4-1.5-4.1-1.5c-1.5,0-2.8,0.4-3.9,1.1c-1.2,0.7-2.1,1.7-2.7,3.1c-0.7,1.3-1,2.8-1,4.5c0,2.6,0.6,4.7,1.9,6.3  C1201.8,326.3,1203.6,327.1,1205.9,327.1z M1180.8,325.3l-1.9,0.2v1.3h6.5v-1.3l-2.2-0.2v-11.6c0.7-0.5,1.5-1,2.4-1.4  c0.9-0.4,1.8-0.6,2.6-0.6c1,0,1.7,0.2,2.2,0.5c0.5,0.4,0.8,0.9,1,1.6c0.2,0.7,0.3,1.7,0.3,3v8.4l-2.1,0.2v1.3h6.7v-1.3l-2.2-0.2  v-8.4c0-1.7-0.1-3.1-0.4-4.1c-0.3-1-0.8-1.7-1.5-2.2c-0.7-0.5-1.7-0.7-2.9-0.7c-1.1,0-2.2,0.3-3.4,0.8c-1.2,0.5-2,1.1-2.7,1.7  l0.1-2.5v-7.1l-0.6-0.4h-0.1l-4.4,0.5v1.1l2.7,0.3V325.3z M1171.5,325.3l-2.6,0.2v1.3h7.8v-1.3l-2.8-0.2v-22.6l-0.6-0.4h0l-4.4,0.5  v1.1l2.5,0.3V325.3z M1154.1,334.2c1.1,0,2-0.2,2.8-0.7c0.7-0.5,1.4-1.2,1.9-2.2c0.5-0.9,1.2-2.3,1.8-4c0.2-0.6,0.8-2.2,1.7-4.7  c0.9-2.6,2-6.1,3.5-10.7l1.6-0.4v-1.2h-5.7v1.2l2.1,0.4l-2.8,9.1l-1.5,4.9l-1.6-4.9l-3.1-9.1l2.4-0.4v-1.2h-6.6v1.2l1.4,0.4  l5.7,14.9h1.3c-0.5,1.5-1,2.6-1.6,3.3c-0.5,0.8-1.1,1.3-1.6,1.5c-0.5,0.2-1.1,0.4-1.7,0.4c-0.8,0-1.3-0.1-1.5-0.2v2.2l0.6,0.1  L1154.1,334.2z M1144.8,327.1c0.8,0,1.7-0.2,2.7-0.5c1.1-0.3,1.8-0.7,2.3-1l-0.4-1.1c-0.4,0.2-0.9,0.3-1.6,0.5  c-0.7,0.2-1.4,0.2-1.9,0.2c-0.6,0-1-0.1-1.3-0.2c-0.2-0.1-0.4-0.4-0.5-0.9c-0.1-0.5-0.1-1.3-0.1-2.4V312h5.3v-1.8h-5.3V306h-1.4  c-0.1,0.4-0.2,1-0.4,1.8c-0.2,0.8-0.4,1.3-0.5,1.6c-0.1,0.5-0.4,0.8-0.7,0.9c-0.2,0.1-0.7,0.3-1.7,0.5v1.2h2.3v11.8  c0,1.3,0.3,2.1,0.8,2.6C1142.9,326.9,1143.7,327.1,1144.8,327.1z M1126,316.9c0.2-3.7,1.7-5.6,4.4-5.6c1.3,0,2.2,0.4,2.8,1.2  c0.6,0.8,0.9,1.8,0.9,3.1c0,0.5,0,0.9-0.1,1.3H1126z M1130.6,327.1c1.1,0,2.2-0.2,3.3-0.6c1.1-0.4,1.9-0.9,2.5-1.5l-0.5-1.1  c-0.5,0.4-1.2,0.8-2,1.1c-0.9,0.3-1.7,0.4-2.6,0.4c-1.7,0-3-0.7-4-2c-0.9-1.3-1.4-3-1.4-5.1h10.6c0.1-0.5,0.2-1.4,0.2-2.6  c-0.1-1.9-0.6-3.4-1.6-4.4c-1-1-2.4-1.5-4.1-1.5c-1.5,0-2.8,0.4-3.9,1.1c-1.2,0.7-2.1,1.7-2.7,3.1c-0.7,1.3-1,2.8-1,4.5  c0,2.6,0.6,4.7,1.9,6.3C1126.5,326.3,1128.3,327.1,1130.6,327.1z M1093.8,326.8h6.4v-1.3l-2.1-0.2v-11.6c0.7-0.5,1.5-1,2.4-1.4  c0.9-0.4,1.7-0.6,2.5-0.6c0.9,0,1.6,0.2,2.1,0.5c0.5,0.4,0.8,0.9,0.9,1.6c0.1,0.7,0.2,1.7,0.2,3v8.4l-2.1,0.2v1.3h6.8v-1.3l-2.3-0.2  v-8.4c0-1.5-0.1-2.7-0.3-3.6c0.6-0.4,1.3-0.8,2.1-1.1c0.8-0.3,1.6-0.5,2.3-0.5c1,0,1.7,0.2,2.3,0.6c0.5,0.4,0.9,0.9,1,1.7  c0.2,0.7,0.3,1.7,0.3,3v8.4l-2,0.2v1.3h6.7v-1.3l-2.3-0.2v-8.5c0-1.7-0.1-3-0.4-4c-0.3-1-0.8-1.7-1.4-2.2c-0.7-0.5-1.7-0.7-2.9-0.7  c-1,0-2.1,0.2-3.3,0.7c-1.2,0.5-2.1,1-2.7,1.5c-0.3-0.8-0.8-1.3-1.5-1.7c-0.6-0.4-1.5-0.5-2.6-0.5c-1,0-2.1,0.3-3.3,0.8  c-1.2,0.5-2.2,1.1-2.9,1.8l0-0.7v-1.3l-0.7-0.5l-3.8,0.5v1.3l2.3,0.5v13.1l-1.9,0.2V326.8z M1086.6,325.3l-2.6,0.2v1.3h7.6v-1.3  l-2.6-0.2v-14.9l-0.6-0.5h-0.1l-4.1,0.5v1.3l2.3,0.5V325.3z M1087.5,307.1L1087.5,307.1c0.6,0,1.1-0.2,1.4-0.5  c0.3-0.3,0.5-0.8,0.5-1.4c0-0.5-0.1-0.9-0.4-1.2c-0.3-0.3-0.7-0.5-1.3-0.5c-0.6,0-1,0.2-1.4,0.6c-0.3,0.4-0.5,0.8-0.5,1.4  C1085.9,306.5,1086.4,307.1,1087.5,307.1z M1073,325.2c-1.4,0-2.6-0.5-3.5-1.6c-0.9-1.1-1.4-2.7-1.4-5c0-2.5,0.5-4.3,1.6-5.6  c1-1.2,2.4-1.8,4.1-1.8c0.8,0,1.5,0.1,2.1,0.3c0.7,0.2,1.1,0.4,1.2,0.7v11c-0.4,0.5-1,0.9-1.7,1.4  C1074.7,325,1073.8,325.2,1073,325.2z M1072,327.1c1.1,0,2.1-0.2,3-0.7c0.9-0.5,1.6-1,2.3-1.7v1c0,0.5,0.1,0.9,0.3,1  c0.2,0.2,0.5,0.2,1,0.2c0.7,0,1.3-0.1,1.8-0.2c0.6-0.1,0.9-0.2,1-0.2v-1.2h-1.8v-22.7l-0.6-0.4h-0.1l-4.9,0.5v1.1l3.1,0.3v5.9  c-1-0.2-2.1-0.4-3.2-0.4c-1.7,0-3.2,0.4-4.5,1.2s-2.3,1.9-3,3.3c-0.7,1.4-1,2.9-1,4.6c0,1.8,0.3,3.3,0.9,4.5  c0.6,1.2,1.4,2.2,2.4,2.8C1069.7,326.8,1070.8,327.1,1072,327.1z M1060.6,316.3h-12v1.8h12V316.3z M1038,331.6h2.1v-4.8h4.4v-2.1  l-4.4,0.2v-6.1l-2.1,0.2v6l-8.4,0.4l1.1-1.8l8.4-16.1l-1.8-1h-0.7c-1.3,2.9-2.8,6.2-4.6,9.9c-1.8,3.6-3.3,6.7-4.6,9.2l0.6,1.2h9.9  V331.6z M1021.2,322.6h-0.1c-0.4,0-0.7,0.1-1,0.4c-0.3,0.3-0.4,0.6-0.4,1.1c0,0.4,0.1,0.7,0.2,1l0.6,0.7l0.5,0.6l0.2,0.7  c0,0.7-0.1,1.4-0.3,2.1c-0.2,0.7-0.5,1.3-0.7,1.9c-0.3,0.5-0.6,0.9-0.8,1.1v0.3l0.9,0.6h0c0.5-0.3,1-0.8,1.5-1.5  c0.5-0.7,0.9-1.5,1.2-2.5c0.3-1,0.5-2,0.5-3.1s-0.2-1.9-0.6-2.5C1022.3,322.9,1021.8,322.6,1021.2,322.6z M999.7,325.8l0.4,1h14.1  l0.7-4.4l-1.3-0.3l-1,2.6l-9.6,0.6c2.8-1.7,5.2-3.6,7.1-5.7c1.9-2.2,2.9-4.3,2.9-6.3c0-1-0.2-1.8-0.7-2.7c-0.4-0.8-1.1-1.5-2.1-2  c-0.9-0.5-2.1-0.8-3.4-0.8c-1.5,0-2.8,0.3-4,1c-1.2,0.6-2.2,1.4-3,2.2l0.8,1.1c0.7-0.7,1.5-1.3,2.4-1.7c0.9-0.5,1.9-0.7,3.1-0.7  c1.3,0,2.3,0.3,3,1c0.7,0.7,1,1.6,1,2.8c0,1.3-0.5,2.7-1.4,4.2c-1,1.5-2.2,3-3.8,4.4C1003.3,323.5,1001.6,324.7,999.7,325.8z   M994.7,316.3h-12v1.8h12V316.3z M973.2,325.3l-2.6,0.2v1.3h7.8v-1.3l-2.8-0.2v-22.6l-0.6-0.4h0l-4.4,0.5v1.1l2.5,0.3V325.3z   M955.7,334.2c1.1,0,2-0.2,2.8-0.7c0.7-0.5,1.4-1.2,1.9-2.2c0.5-0.9,1.2-2.3,1.8-4c0.2-0.6,0.8-2.2,1.7-4.7c0.9-2.6,2-6.1,3.5-10.7  l1.6-0.4v-1.2h-5.7v1.2l2.1,0.4l-2.8,9.1l-1.5,4.9l-1.6-4.9l-3.1-9.1l2.4-0.4v-1.2h-6.6v1.2l1.4,0.4l5.7,14.9h1.3  c-0.5,1.5-1,2.6-1.6,3.3c-0.5,0.8-1.1,1.3-1.6,1.5c-0.5,0.2-1.1,0.4-1.7,0.4c-0.8,0-1.3-0.1-1.5-0.2v2.2l0.6,0.1L955.7,334.2z   M946.4,327.1c0.8,0,1.7-0.2,2.7-0.5c1.1-0.3,1.8-0.7,2.3-1l-0.4-1.1c-0.4,0.2-0.9,0.3-1.6,0.5c-0.7,0.2-1.4,0.2-1.9,0.2  c-0.6,0-1-0.1-1.3-0.2c-0.2-0.1-0.4-0.4-0.5-0.9c-0.1-0.5-0.1-1.3-0.1-2.4V312h5.3v-1.8h-5.3V306h-1.4c-0.1,0.4-0.2,1-0.4,1.8  c-0.2,0.8-0.4,1.3-0.5,1.6c-0.1,0.5-0.4,0.8-0.7,0.9c-0.2,0.1-0.7,0.3-1.7,0.5v1.2h2.3v11.8c0,1.3,0.3,2.1,0.8,2.6  C944.6,326.9,945.3,327.1,946.4,327.1z M927.6,316.9c0.2-3.7,1.7-5.6,4.4-5.6c1.3,0,2.2,0.4,2.8,1.2c0.6,0.8,0.9,1.8,0.9,3.1  c0,0.5,0,0.9-0.1,1.3H927.6z M932.2,327.1c1.1,0,2.2-0.2,3.3-0.6c1.1-0.4,1.9-0.9,2.5-1.5l-0.5-1.1c-0.5,0.4-1.2,0.8-2,1.1  s-1.7,0.4-2.6,0.4c-1.7,0-3-0.7-4-2c-0.9-1.3-1.4-3-1.4-5.1h10.6c0.1-0.5,0.2-1.4,0.2-2.6c-0.1-1.9-0.6-3.4-1.6-4.4  c-1-1-2.4-1.5-4.1-1.5c-1.5,0-2.8,0.4-3.9,1.1c-1.2,0.7-2.1,1.7-2.7,3.1c-0.7,1.3-1,2.8-1,4.5c0,2.6,0.6,4.7,1.9,6.3  C928.1,326.3,929.9,327.1,932.2,327.1z M917.7,325.3l-2.6,0.2v1.3h7.6v-1.3l-2.6-0.2v-14.9l-0.6-0.5h-0.1l-4.1,0.5v1.3l2.3,0.5  V325.3z M918.7,307.1L918.7,307.1c0.6,0,1.1-0.2,1.4-0.5c0.3-0.3,0.5-0.8,0.5-1.4c0-0.5-0.1-0.9-0.4-1.2c-0.3-0.3-0.7-0.5-1.3-0.5  c-0.6,0-1,0.2-1.4,0.6c-0.3,0.4-0.5,0.8-0.5,1.4C917,306.5,917.6,307.1,918.7,307.1z M904.1,325.2c-1.4,0-2.6-0.5-3.5-1.6  c-0.9-1.1-1.4-2.7-1.4-5c0-2.5,0.5-4.3,1.6-5.6c1-1.2,2.4-1.8,4.1-1.8c0.8,0,1.5,0.1,2.1,0.3c0.7,0.2,1.1,0.4,1.2,0.7v11  c-0.4,0.5-0.9,0.9-1.7,1.4C905.8,325,905,325.2,904.1,325.2z M903.1,327.1c1.1,0,2.1-0.2,3-0.7c0.9-0.5,1.6-1,2.3-1.7v1  c0,0.5,0.1,0.9,0.3,1c0.2,0.2,0.5,0.2,1,0.2c0.7,0,1.3-0.1,1.8-0.2c0.6-0.1,0.9-0.2,1-0.2v-1.2h-1.8v-22.7l-0.6-0.4h-0.1l-4.9,0.5  v1.1l3.1,0.3v5.9c-1-0.2-2.1-0.4-3.2-0.4c-1.7,0-3.2,0.4-4.5,1.2s-2.3,1.9-3,3.3c-0.7,1.4-1,2.9-1,4.6c0,1.8,0.3,3.3,0.9,4.5  c0.6,1.2,1.4,2.2,2.4,2.8C900.9,326.8,902,327.1,903.1,327.1z M891.7,316.3h-12v1.8h12V316.3z M861.7,330.3v1.1  c0.5,0.1,1.2,0.2,2.1,0.2c2,0,3.8-0.4,5.4-1.2c1.6-0.8,2.8-1.9,3.6-3.2c0.9-1.3,1.3-2.7,1.3-4.1c0-2.1-0.5-3.7-1.6-4.8  c-1.1-1.1-2.6-1.6-4.4-1.6c-0.8,0-1.6,0.1-2.5,0.3c-0.8,0.2-1.5,0.4-2,0.7l1.4-7.4h7.8l0.5-2.7h-1.7l-0.3,0.6h-8l-1.5,10.6l0.7,0.5  c0.6-0.3,1.3-0.5,2.1-0.7c0.8-0.2,1.6-0.3,2.2-0.3c1.5,0,2.6,0.4,3.4,1.3c0.8,0.8,1.2,2.1,1.2,3.9c0,1.4-0.3,2.6-1,3.6  c-0.7,1.1-1.6,1.9-2.8,2.5c-1.2,0.6-2.5,0.9-4,0.9C862.9,330.3,862.3,330.3,861.7,330.3z M853.8,322.6h-0.1c-0.4,0-0.7,0.1-1,0.4  c-0.3,0.3-0.4,0.6-0.4,1.1c0,0.4,0.1,0.7,0.2,1l0.6,0.7l0.5,0.6l0.2,0.7c0,0.7-0.1,1.4-0.3,2.1c-0.2,0.7-0.5,1.3-0.7,1.9  c-0.3,0.5-0.6,0.9-0.8,1.1v0.3l0.9,0.6h0c0.5-0.3,1-0.8,1.5-1.5c0.5-0.7,0.9-1.5,1.2-2.5c0.3-1,0.5-2,0.5-3.1s-0.2-1.9-0.6-2.5  C855,322.9,854.5,322.6,853.8,322.6z M836.4,331.6c2.1,0,3.9-0.3,5.5-1c1.6-0.6,2.8-1.5,3.7-2.7c0.9-1.2,1.3-2.5,1.3-3.9  c0-0.9-0.2-1.7-0.7-2.5c-0.5-0.8-1.1-1.4-2-1.8c-0.9-0.4-1.9-0.7-3.1-0.7c-0.4,0-0.6,0-0.8,0c1-0.3,1.9-0.8,2.7-1.5  c0.8-0.6,1.5-1.4,2.1-2.3c0.5-0.9,0.8-1.7,0.8-2.7c0-1.6-0.5-2.8-1.6-3.6c-1.1-0.8-2.5-1.2-4.2-1.2c-1.3,0-2.5,0.3-3.6,0.8  c-1.2,0.5-2,1.1-2.6,1.6l0.7,1.1c0.6-0.5,1.4-0.9,2.3-1.2c0.9-0.3,1.7-0.5,2.6-0.5c1.1,0,2,0.3,2.7,0.8c0.7,0.5,1.1,1.4,1.1,2.6  c0,1.1-0.4,2.1-1.3,3c-0.8,0.9-1.9,1.7-3.2,2.2c-0.6,0.3-1.4,0.5-2.3,0.7l0.4,1.4l0.6-0.2c0.7-0.2,1.2-0.3,1.3-0.4  c1.8,0,3.2,0.4,4.1,1.2c0.9,0.8,1.3,1.9,1.3,3.3c0,1.1-0.3,2-1,2.9c-0.6,0.9-1.6,1.6-2.8,2.1c-1.2,0.5-2.7,0.8-4.4,0.8  c-0.9,0-1.6-0.1-2.1-0.2v1.4C834.7,331.5,835.5,331.6,836.4,331.6z"/>
<path fill="#231F20" d="M712.7,325.7l-2,0.2v1.3h6.6v-1.3l-2.2-0.2v-11.6c0.7-0.5,1.5-1,2.4-1.4c0.9-0.4,1.8-0.6,2.6-0.6  c0.9,0,1.6,0.2,2.1,0.6c0.5,0.4,0.8,0.9,1,1.6c0.2,0.7,0.3,1.7,0.3,3v8.5l-2,0.2v1.3h6.7v-1.3l-2.2-0.2v-8.4c0-1.7-0.1-3-0.4-4  c-0.3-1-0.7-1.7-1.4-2.2c-0.7-0.5-1.7-0.7-2.9-0.7c-1,0-2.2,0.3-3.4,0.8c-1.2,0.5-2.2,1.1-2.9,1.8l0-0.7v-1.3l-0.6-0.5h-0.1  l-3.8,0.5v1.3l2.3,0.5V325.7z M700.1,325.8c-1,0-1.8-0.3-2.4-0.8c-0.6-0.5-0.9-1.3-0.9-2.5c0-1.2,0.6-2.1,1.9-2.8  c1.2-0.7,3.1-1.1,5.5-1.1v5.3c-0.6,0.5-1.3,0.9-2.1,1.3C701.3,325.6,700.7,325.8,700.1,325.8z M694.2,322.9c0,1.5,0.5,2.7,1.4,3.5  c0.9,0.8,2.1,1.2,3.6,1.2c1.1,0,2-0.2,2.9-0.7c0.8-0.5,1.6-1,2.3-1.7v1.1c0,0.5,0.1,0.9,0.3,1c0.2,0.1,0.5,0.2,1,0.2  c0.8,0,1.7-0.1,2.8-0.4v-1.1h-1.8v-9.8c0-1.4-0.2-2.5-0.5-3.4c-0.3-0.8-0.9-1.4-1.7-1.8c-0.8-0.4-1.9-0.6-3.2-0.6  c-0.8,0-1.7,0.1-2.6,0.4c-0.9,0.3-1.7,0.6-2.4,1c-0.7,0.4-1.2,0.6-1.4,0.8l0.7,1.3c0.8-0.4,1.6-0.8,2.4-1.1c0.8-0.3,1.7-0.5,2.8-0.5  c0.9,0,1.7,0.1,2.2,0.4c0.5,0.3,0.9,0.7,1.1,1.3c0.2,0.6,0.3,1.4,0.3,2.4v0.9c-2.8,0.1-5.2,0.5-7.1,1.4  C695.2,319.5,694.2,320.9,694.2,322.9z M681.1,322.5h-1.6v3.8c0.5,0.3,1.4,0.6,2.4,0.8c1.1,0.3,2.1,0.4,2.9,0.4  c1.9,0,3.4-0.4,4.5-1.3c1.1-0.8,1.7-2,1.7-3.5c0-0.9-0.2-1.7-0.7-2.3c-0.5-0.6-1-1.1-1.7-1.5c-0.7-0.4-1.6-0.8-2.7-1.2l-0.6-0.2  c-0.8-0.3-1.4-0.6-1.8-0.9c-0.4-0.2-0.8-0.6-1.1-1s-0.4-0.9-0.4-1.6c0-0.7,0.3-1.3,0.9-1.7c0.6-0.4,1.4-0.6,2.3-0.6  c0.7,0,1.3,0.1,1.9,0.3c0.6,0.2,0.9,0.4,1.1,0.7l0.5,2.2h1.5v-3.5c-0.7-0.3-1.4-0.5-2-0.7c-0.7-0.2-1.5-0.3-2.6-0.3  c-1,0-2,0.2-2.9,0.5c-0.9,0.3-1.6,0.8-2.1,1.5c-0.5,0.6-0.8,1.4-0.8,2.2c0,1.3,0.4,2.4,1.1,3.2c0.7,0.8,1.9,1.5,3.5,2.1  c1.6,0.6,2.8,1.2,3.5,1.7c0.7,0.5,1,1.2,1,2c0,1.8-1.2,2.7-3.6,2.7c-0.8,0-1.5-0.1-2.2-0.4c-0.7-0.3-1.2-0.6-1.4-0.9L681.1,322.5z   M663.3,325.7l-2,0.2v1.3h6.7v-1.3l-2.3-0.2v-2.5l-0.1-1.5l3.3-3.3l4.7,7.3l-2.1,0.2v1.3h6.8v-1.3l-2-0.2l-5.9-8.7l4.8-4.7l2.3-0.4  v-1.2h-6.9v1.2l2.2,0.4l-7.4,7.6l0.1-1.9v-14.8l-0.6-0.4h0l-4.3,0.5v1.1l2.4,0.3V325.7z M648,317.3c0.2-3.7,1.7-5.6,4.4-5.6  c1.3,0,2.2,0.4,2.8,1.2c0.6,0.8,0.9,1.8,0.9,3.1c0,0.5,0,0.9-0.1,1.3H648z M652.6,327.5c1.1,0,2.2-0.2,3.3-0.6  c1.1-0.4,1.9-0.9,2.5-1.5l-0.5-1.1c-0.5,0.4-1.2,0.8-2,1.1c-0.9,0.3-1.7,0.4-2.6,0.4c-1.7,0-3-0.7-4-2c-0.9-1.3-1.4-3-1.4-5.1h10.6  c0.1-0.5,0.2-1.4,0.2-2.6c-0.1-1.9-0.6-3.4-1.6-4.4c-1-1-2.4-1.5-4.1-1.5c-1.5,0-2.8,0.4-3.9,1.1c-1.2,0.7-2.1,1.7-2.7,3.1  c-0.7,1.3-1,2.8-1,4.5c0,2.6,0.6,4.7,1.9,6.3C648.5,326.7,650.3,327.5,652.6,327.5z M627.5,325.7l-1.9,0.2v1.3h6.5v-1.3l-2.2-0.2  v-11.6c0.7-0.5,1.5-1,2.4-1.4c0.9-0.4,1.8-0.6,2.6-0.6c1,0,1.7,0.2,2.2,0.5c0.5,0.4,0.8,0.9,1,1.6c0.2,0.7,0.3,1.7,0.3,3v8.4  l-2.1,0.2v1.3h6.7v-1.3l-2.2-0.2v-8.4c0-1.7-0.1-3.1-0.4-4.1c-0.3-1-0.8-1.7-1.5-2.2c-0.7-0.5-1.7-0.7-2.9-0.7  c-1.1,0-2.2,0.3-3.4,0.8c-1.2,0.5-2,1.1-2.7,1.7l0.1-2.5v-7.1l-0.6-0.4h-0.1l-4.4,0.5v1.1l2.7,0.3V325.7z M615.4,326  c-1.6,0-2.8-0.7-3.6-2c-0.8-1.4-1.2-3.1-1.2-5.3c0-2.2,0.4-4,1.3-5.1c0.8-1.2,2-1.8,3.6-1.8c1.6,0,2.8,0.7,3.6,2.1  c0.8,1.4,1.2,3.1,1.2,5.3c0,2.2-0.4,4-1.3,5.1C618.1,325.4,616.9,326,615.4,326z M607.9,318.8c0,2.5,0.6,4.6,1.8,6.3  c1.2,1.6,3.1,2.4,5.6,2.4c1.3,0,2.5-0.3,3.7-1c1.2-0.7,2.1-1.7,2.9-3c0.7-1.3,1.1-2.8,1.1-4.6c0-2.5-0.6-4.6-1.8-6.3  c-1.2-1.6-3.1-2.4-5.6-2.4c-1.3,0-2.5,0.3-3.7,1c-1.2,0.7-2.1,1.7-2.9,3C608.2,315.6,607.9,317.1,607.9,318.8z M600.4,325.7  l-2.6,0.2v1.3h7.8v-1.3l-2.8-0.2v-22.6l-0.6-0.4h0l-4.4,0.5v1.1l2.5,0.3V325.7z M582.1,325.7l-2,0.2v1.3h6.7v-1.3l-2.3-0.2v-2.5  l-0.1-1.5l3.3-3.3l4.7,7.3l-2.1,0.2v1.3h6.8v-1.3l-2-0.2l-5.9-8.7l4.8-4.7l2.3-0.4v-1.2h-6.9v1.2l2.2,0.4l-7.4,7.6l0.1-1.9v-14.8  l-0.6-0.4h0l-4.3,0.5v1.1l2.4,0.3V325.7z M565.5,334.6c1.1,0,2-0.2,2.8-0.7c0.7-0.5,1.4-1.2,1.9-2.2c0.5-0.9,1.2-2.3,1.8-4  c0.2-0.6,0.8-2.2,1.7-4.7c0.9-2.6,2-6.1,3.5-10.7l1.6-0.4v-1.2H573v1.2l2.1,0.4l-2.8,9.1l-1.5,4.9l-1.6-4.9l-3.1-9.1l2.4-0.4v-1.2  h-6.6v1.2l1.4,0.4l5.7,14.9h1.3c-0.5,1.5-1,2.6-1.6,3.3c-0.5,0.8-1.1,1.3-1.6,1.5c-0.5,0.2-1.1,0.4-1.7,0.4c-0.8,0-1.3-0.1-1.5-0.2  v2.2l0.6,0.1L565.5,334.6z M550.3,322.5h-1.6v3.8c0.5,0.3,1.4,0.6,2.4,0.8c1.1,0.3,2.1,0.4,2.9,0.4c1.9,0,3.4-0.4,4.5-1.3  c1.1-0.8,1.7-2,1.7-3.5c0-0.9-0.2-1.7-0.7-2.3c-0.5-0.6-1-1.1-1.7-1.5c-0.7-0.4-1.6-0.8-2.7-1.2l-0.6-0.2c-0.8-0.3-1.4-0.6-1.8-0.9  c-0.4-0.2-0.8-0.6-1.1-1s-0.4-0.9-0.4-1.6c0-0.7,0.3-1.3,0.9-1.7c0.6-0.4,1.4-0.6,2.3-0.6c0.7,0,1.3,0.1,1.9,0.3  c0.6,0.2,0.9,0.4,1.1,0.7l0.5,2.2h1.5v-3.5c-0.7-0.3-1.4-0.5-2-0.7c-0.7-0.2-1.5-0.3-2.6-0.3c-1,0-2,0.2-2.9,0.5  c-0.9,0.3-1.6,0.8-2.1,1.5c-0.5,0.6-0.8,1.4-0.8,2.2c0,1.3,0.4,2.4,1.1,3.2c0.7,0.8,1.9,1.5,3.5,2.1c1.6,0.6,2.8,1.2,3.5,1.7  c0.7,0.5,1,1.2,1,2c0,1.8-1.2,2.7-3.6,2.7c-0.8,0-1.5-0.1-2.2-0.4c-0.7-0.3-1.2-0.6-1.4-0.9L550.3,322.5z M540.8,325.7l-2.6,0.2v1.3  h7.8v-1.3l-2.8-0.2v-22.6l-0.6-0.4h0l-4.4,0.5v1.1l2.5,0.3V325.7z M523.3,334.6c1.1,0,2-0.2,2.8-0.7c0.7-0.5,1.4-1.2,1.9-2.2  c0.5-0.9,1.2-2.3,1.8-4c0.2-0.6,0.8-2.2,1.7-4.7c0.9-2.6,2-6.1,3.5-10.7l1.6-0.4v-1.2h-5.7v1.2l2.1,0.4l-2.8,9.1l-1.5,4.9l-1.6-4.9  l-3.1-9.1l2.4-0.4v-1.2h-6.6v1.2l1.4,0.4l5.7,14.9h1.3c-0.5,1.5-1,2.6-1.6,3.3c-0.5,0.8-1.1,1.3-1.6,1.5c-0.5,0.2-1.1,0.4-1.7,0.4  c-0.8,0-1.3-0.1-1.5-0.2v2.2l0.6,0.1L523.3,334.6z M514,327.5c0.8,0,1.7-0.2,2.7-0.5c1.1-0.3,1.8-0.7,2.3-1l-0.4-1.1  c-0.4,0.2-0.9,0.3-1.6,0.5c-0.7,0.2-1.4,0.2-1.9,0.2c-0.6,0-1-0.1-1.3-0.2c-0.2-0.1-0.4-0.4-0.5-0.9c-0.1-0.5-0.1-1.3-0.1-2.4v-9.7  h5.3v-1.8h-5.3v-4.2h-1.4c-0.1,0.4-0.2,1-0.4,1.8c-0.2,0.8-0.4,1.3-0.5,1.6c-0.1,0.5-0.4,0.8-0.7,0.9c-0.2,0.1-0.7,0.3-1.7,0.5v1.2  h2.3v11.8c0,1.3,0.3,2.1,0.8,2.6C512.1,327.3,512.9,327.5,514,327.5z M495.2,317.3c0.2-3.7,1.7-5.6,4.4-5.6c1.3,0,2.2,0.4,2.8,1.2  c0.6,0.8,0.9,1.8,0.9,3.1c0,0.5,0,0.9-0.1,1.3H495.2z M499.8,327.5c1.1,0,2.2-0.2,3.3-0.6c1.1-0.4,1.9-0.9,2.5-1.5l-0.5-1.1  c-0.5,0.4-1.2,0.8-2,1.1c-0.9,0.3-1.7,0.4-2.6,0.4c-1.7,0-3-0.7-4-2c-0.9-1.3-1.4-3-1.4-5.1h10.6c0.1-0.5,0.2-1.4,0.2-2.6  c-0.1-1.9-0.6-3.4-1.6-4.4c-1-1-2.4-1.5-4.1-1.5c-1.5,0-2.8,0.4-3.9,1.1c-1.2,0.7-2.1,1.7-2.7,3.1c-0.7,1.3-1,2.8-1,4.5  c0,2.6,0.6,4.7,1.9,6.3C495.7,326.7,497.5,327.5,499.8,327.5z M463,327.2h6.4v-1.3l-2.1-0.2v-11.6c0.7-0.5,1.5-1,2.4-1.4  c0.9-0.4,1.7-0.6,2.5-0.6c0.9,0,1.6,0.2,2.1,0.5c0.5,0.4,0.8,0.9,0.9,1.6c0.1,0.7,0.2,1.7,0.2,3v8.4l-2.1,0.2v1.3h6.8v-1.3l-2.3-0.2  v-8.4c0-1.5-0.1-2.7-0.3-3.6c0.6-0.4,1.3-0.8,2.1-1.1c0.8-0.3,1.6-0.5,2.3-0.5c1,0,1.7,0.2,2.3,0.6c0.5,0.4,0.9,0.9,1,1.7  c0.2,0.7,0.3,1.7,0.3,3v8.4l-2,0.2v1.3h6.7v-1.3l-2.3-0.2v-8.5c0-1.7-0.1-3-0.4-4c-0.3-1-0.8-1.7-1.4-2.2c-0.7-0.5-1.7-0.7-2.9-0.7  c-1,0-2.1,0.2-3.3,0.7c-1.2,0.5-2.1,1-2.7,1.5c-0.3-0.8-0.8-1.3-1.5-1.7c-0.6-0.4-1.5-0.5-2.6-0.5c-1,0-2.1,0.3-3.3,0.8  c-1.2,0.5-2.2,1.1-2.9,1.8l0-0.7v-1.3l-0.7-0.5l-3.8,0.5v1.3l2.3,0.5v13.1l-1.9,0.2V327.2z M455.8,325.7l-2.6,0.2v1.3h7.6v-1.3  l-2.6-0.2v-14.9l-0.6-0.5h-0.1l-4.1,0.5v1.3l2.3,0.5V325.7z M456.7,307.5L456.7,307.5c0.6,0,1.1-0.2,1.4-0.5  c0.3-0.3,0.5-0.8,0.5-1.4c0-0.5-0.1-0.9-0.4-1.2c-0.3-0.3-0.7-0.5-1.3-0.5c-0.6,0-1,0.2-1.4,0.6c-0.3,0.4-0.5,0.8-0.5,1.4  C455.1,307,455.7,307.5,456.7,307.5z M442.2,325.7c-1.4,0-2.6-0.5-3.5-1.6c-0.9-1.1-1.4-2.7-1.4-5c0-2.5,0.5-4.3,1.6-5.6  c1-1.2,2.4-1.8,4.1-1.8c0.8,0,1.5,0.1,2.1,0.3c0.7,0.2,1.1,0.4,1.2,0.7v11c-0.4,0.5-0.9,0.9-1.7,1.4  C443.9,325.5,443.1,325.7,442.2,325.7z M441.2,327.5c1.1,0,2.1-0.2,3-0.7c0.9-0.5,1.6-1,2.3-1.7v1c0,0.5,0.1,0.9,0.3,1  c0.2,0.2,0.5,0.2,1,0.2c0.7,0,1.3-0.1,1.8-0.2c0.6-0.1,0.9-0.2,1-0.2v-1.2h-1.8v-22.7l-0.6-0.4h-0.1l-4.9,0.5v1.1l3.1,0.3v5.9  c-1-0.2-2.1-0.4-3.2-0.4c-1.7,0-3.2,0.4-4.5,1.2s-2.3,1.9-3,3.3c-0.7,1.4-1,2.9-1,4.6c0,1.8,0.3,3.3,0.9,4.5  c0.6,1.2,1.4,2.2,2.4,2.8C439,327.2,440.1,327.5,441.2,327.5z M429.8,316.7h-12v1.8h12V316.7z M407.3,332h2.1v-4.8h4.4v-2.1  l-4.4,0.2v-6.1l-2.1,0.2v6l-8.4,0.4l1.1-1.8l8.4-16.1l-1.8-1h-0.7c-1.3,2.9-2.8,6.2-4.6,9.9c-1.8,3.6-3.3,6.7-4.6,9.2l0.6,1.2h9.9  V332z M390.4,323.1h-0.1c-0.4,0-0.7,0.1-1,0.4c-0.3,0.3-0.4,0.6-0.4,1.1c0,0.4,0.1,0.7,0.2,1l0.6,0.7l0.5,0.6l0.2,0.7  c0,0.7-0.1,1.4-0.3,2.1c-0.2,0.7-0.5,1.3-0.7,1.9c-0.3,0.5-0.6,0.9-0.8,1.1v0.3l0.9,0.6h0c0.5-0.3,1-0.8,1.5-1.5  c0.5-0.7,0.9-1.5,1.2-2.5c0.3-1,0.5-2,0.5-3.1s-0.2-1.9-0.6-2.5C391.6,323.4,391.1,323.1,390.4,323.1z M378.2,325.7l-4,0.2v1.3h10.3  v-1.3l-3.9-0.2v-17.1l-1.4-0.3h0c-0.7,0.6-1.6,1.2-2.6,1.7c-1,0.5-2,0.9-3,1.1l0.3,1.4c0.6-0.1,1.4-0.2,2.3-0.5  c0.9-0.3,1.6-0.5,2-0.7V325.7z"/>
<path fill="#231F20" d="M252.4,325.7l-2,0.2v1.3h6.6v-1.3l-2.2-0.2v-11.6c0.7-0.5,1.5-1,2.4-1.4c0.9-0.4,1.8-0.6,2.6-0.6  c0.9,0,1.6,0.2,2.1,0.6c0.5,0.4,0.8,0.9,1,1.6c0.2,0.7,0.3,1.7,0.3,3v8.5l-2,0.2v1.3h6.7v-1.3l-2.2-0.2v-8.4c0-1.7-0.1-3-0.4-4  c-0.3-1-0.7-1.7-1.4-2.2c-0.7-0.5-1.7-0.7-2.9-0.7c-1,0-2.2,0.3-3.4,0.8c-1.2,0.5-2.2,1.1-2.9,1.8l0-0.7v-1.3l-0.6-0.5h-0.1  l-3.8,0.5v1.3l2.3,0.5V325.7z M239.8,325.8c-1,0-1.8-0.3-2.4-0.8c-0.6-0.5-0.9-1.3-0.9-2.5c0-1.2,0.6-2.1,1.9-2.8  c1.2-0.7,3.1-1.1,5.5-1.1v5.3c-0.6,0.5-1.3,0.9-2.1,1.3C241,325.6,240.3,325.8,239.8,325.8z M233.9,322.9c0,1.5,0.5,2.7,1.4,3.5  c0.9,0.8,2.1,1.2,3.6,1.2c1.1,0,2-0.2,2.9-0.7c0.8-0.5,1.6-1,2.3-1.7v1.1c0,0.5,0.1,0.9,0.3,1c0.2,0.1,0.5,0.2,1,0.2  c0.8,0,1.7-0.1,2.8-0.4v-1.1h-1.8v-9.8c0-1.4-0.2-2.5-0.5-3.4c-0.3-0.8-0.9-1.4-1.7-1.8c-0.8-0.4-1.9-0.6-3.2-0.6  c-0.8,0-1.7,0.1-2.6,0.4c-0.9,0.3-1.7,0.6-2.4,1c-0.7,0.4-1.2,0.6-1.4,0.8l0.7,1.3c0.8-0.4,1.6-0.8,2.4-1.1c0.8-0.3,1.7-0.5,2.8-0.5  c0.9,0,1.7,0.1,2.2,0.4c0.5,0.3,0.9,0.7,1.1,1.3c0.2,0.6,0.3,1.4,0.3,2.4v0.9c-2.8,0.1-5.2,0.5-7.1,1.4S233.9,320.9,233.9,322.9z   M226.6,327.5c0.8,0,1.7-0.2,2.7-0.5c1.1-0.3,1.8-0.7,2.3-1l-0.4-1.1c-0.4,0.2-0.9,0.3-1.6,0.5c-0.7,0.2-1.4,0.2-1.9,0.2  c-0.6,0-1-0.1-1.3-0.2c-0.2-0.1-0.4-0.4-0.5-0.9c-0.1-0.5-0.1-1.3-0.1-2.4v-9.7h5.3v-1.8h-5.3v-4.2h-1.4c-0.1,0.4-0.2,1-0.4,1.8  c-0.2,0.8-0.4,1.3-0.5,1.6c-0.1,0.5-0.4,0.8-0.7,0.9c-0.2,0.1-0.7,0.3-1.7,0.5v1.2h2.3v11.8c0,1.3,0.3,2.1,0.8,2.6  C224.8,327.3,225.6,327.5,226.6,327.5z M205.7,325.7l-2,0.2v1.3h6.7v-1.3l-2.3-0.2v-2.5l-0.1-1.5l3.3-3.3l4.7,7.3l-2.1,0.2v1.3h6.8  v-1.3l-2-0.2l-5.9-8.7l4.8-4.7l2.3-0.4v-1.2h-6.9v1.2l2.2,0.4l-7.4,7.6l0.1-1.9v-14.8l-0.6-0.4h0l-4.3,0.5v1.1l2.4,0.3V325.7z   M193.6,326c-1.6,0-2.8-0.7-3.6-2c-0.8-1.4-1.2-3.1-1.2-5.3c0-2.2,0.4-4,1.3-5.1c0.8-1.2,2-1.8,3.6-1.8c1.6,0,2.8,0.7,3.6,2.1  c0.8,1.4,1.2,3.1,1.2,5.3c0,2.2-0.4,4-1.3,5.1C196.3,325.4,195.1,326,193.6,326z M186.1,318.8c0,2.5,0.6,4.6,1.8,6.3  c1.2,1.6,3.1,2.4,5.6,2.4c1.3,0,2.5-0.3,3.7-1c1.2-0.7,2.1-1.7,2.9-3c0.7-1.3,1.1-2.8,1.1-4.6c0-2.5-0.6-4.6-1.8-6.3  c-1.2-1.6-3.1-2.4-5.6-2.4c-1.3,0-2.5,0.3-3.7,1c-1.2,0.7-2.1,1.7-2.9,3C186.4,315.6,186.1,317.1,186.1,318.8z M178.5,325.7  l-2.6,0.2v1.3h7.8v-1.3l-2.8-0.2v-22.6l-0.6-0.4h0l-4.4,0.5v1.1l2.5,0.3V325.7z M161.1,334.6c1.1,0,2-0.2,2.8-0.7  c0.7-0.5,1.4-1.2,1.9-2.2c0.5-0.9,1.2-2.3,1.8-4c0.2-0.6,0.8-2.2,1.7-4.7c0.9-2.6,2-6.1,3.5-10.7l1.6-0.4v-1.2h-5.7v1.2l2.1,0.4  l-2.8,9.1l-1.5,4.9l-1.6-4.9l-3.1-9.1l2.4-0.4v-1.2h-6.6v1.2l1.4,0.4l5.7,14.9h1.3c-0.5,1.5-1,2.6-1.6,3.3c-0.5,0.8-1.1,1.3-1.6,1.5  c-0.5,0.2-1.1,0.4-1.7,0.4c-0.8,0-1.3-0.1-1.5-0.2v2.2l0.6,0.1L161.1,334.6z M151.8,327.5c0.8,0,1.7-0.2,2.7-0.5  c1.1-0.3,1.8-0.7,2.3-1l-0.4-1.1c-0.4,0.2-0.9,0.3-1.6,0.5c-0.7,0.2-1.4,0.2-1.9,0.2c-0.6,0-1-0.1-1.3-0.2c-0.2-0.1-0.4-0.4-0.5-0.9  c-0.1-0.5-0.1-1.3-0.1-2.4v-9.7h5.3v-1.8H151v-4.2h-1.4c-0.1,0.4-0.2,1-0.4,1.8c-0.2,0.8-0.4,1.3-0.5,1.6c-0.1,0.5-0.4,0.8-0.7,0.9  c-0.2,0.1-0.7,0.3-1.7,0.5v1.2h2.3v11.8c0,1.3,0.3,2.1,0.8,2.6C149.9,327.3,150.7,327.5,151.8,327.5z M133,317.3  c0.2-3.7,1.7-5.6,4.4-5.6c1.3,0,2.2,0.4,2.8,1.2c0.6,0.8,0.9,1.8,0.9,3.1c0,0.5,0,0.9-0.1,1.3H133z M137.6,327.5  c1.1,0,2.2-0.2,3.3-0.6c1.1-0.4,1.9-0.9,2.5-1.5l-0.5-1.1c-0.5,0.4-1.2,0.8-2,1.1c-0.9,0.3-1.7,0.4-2.6,0.4c-1.7,0-3-0.7-4-2  c-0.9-1.3-1.4-3-1.4-5.1h10.6c0.1-0.5,0.2-1.4,0.2-2.6c-0.1-1.9-0.6-3.4-1.6-4.4c-1-1-2.4-1.5-4.1-1.5c-1.5,0-2.8,0.4-3.9,1.1  c-1.2,0.7-2.1,1.7-2.7,3.1c-0.7,1.3-1,2.8-1,4.5c0,2.6,0.6,4.7,1.9,6.3C133.5,326.7,135.3,327.5,137.6,327.5z M100.8,327.2h6.4v-1.3  l-2.1-0.2v-11.6c0.7-0.5,1.5-1,2.4-1.4c0.9-0.4,1.7-0.6,2.5-0.6c0.9,0,1.6,0.2,2.1,0.5s0.8,0.9,0.9,1.6c0.1,0.7,0.2,1.7,0.2,3v8.4  l-2.1,0.2v1.3h6.8v-1.3l-2.3-0.2v-8.4c0-1.5-0.1-2.7-0.3-3.6c0.6-0.4,1.3-0.8,2.1-1.1c0.8-0.3,1.6-0.5,2.3-0.5c1,0,1.7,0.2,2.3,0.6  c0.5,0.4,0.9,0.9,1,1.7c0.2,0.7,0.3,1.7,0.3,3v8.4l-2,0.2v1.3h6.7v-1.3l-2.3-0.2v-8.5c0-1.7-0.1-3-0.4-4c-0.3-1-0.8-1.7-1.4-2.2  c-0.7-0.5-1.7-0.7-2.9-0.7c-1,0-2.1,0.2-3.3,0.7c-1.2,0.5-2.1,1-2.7,1.5c-0.3-0.8-0.8-1.3-1.5-1.7c-0.6-0.4-1.5-0.5-2.6-0.5  c-1,0-2.1,0.3-3.3,0.8c-1.2,0.5-2.2,1.1-2.9,1.8l0-0.7v-1.3l-0.7-0.5l-3.8,0.5v1.3l2.3,0.5v13.1l-1.9,0.2V327.2z M93.6,325.7  l-2.6,0.2v1.3h7.6v-1.3l-2.6-0.2v-14.9l-0.6-0.5h-0.1l-4.1,0.5v1.3l2.3,0.5V325.7z M94.5,307.5L94.5,307.5c0.6,0,1.1-0.2,1.4-0.5  c0.3-0.3,0.5-0.8,0.5-1.4c0-0.5-0.1-0.9-0.4-1.2c-0.3-0.3-0.7-0.5-1.3-0.5c-0.6,0-1,0.2-1.4,0.6c-0.3,0.4-0.5,0.8-0.5,1.4  C92.9,307,93.5,307.5,94.5,307.5z M80,325.7c-1.4,0-2.6-0.5-3.5-1.6c-0.9-1.1-1.4-2.7-1.4-5c0-2.5,0.5-4.3,1.6-5.6  c1-1.2,2.4-1.8,4.1-1.8c0.8,0,1.5,0.1,2.1,0.3c0.7,0.2,1.1,0.4,1.2,0.7v11c-0.4,0.5-0.9,0.9-1.7,1.4C81.7,325.5,80.9,325.7,80,325.7  z M79,327.5c1.1,0,2.1-0.2,3-0.7c0.9-0.5,1.6-1,2.3-1.7v1c0,0.5,0.1,0.9,0.3,1c0.2,0.2,0.5,0.2,1,0.2c0.7,0,1.3-0.1,1.8-0.2  c0.6-0.1,0.9-0.2,1-0.2v-1.2h-1.8v-22.7l-0.6-0.4h-0.1l-4.9,0.5v1.1l3.1,0.3v5.9c-1-0.2-2.1-0.4-3.2-0.4c-1.7,0-3.2,0.4-4.5,1.2  s-2.3,1.9-3,3.3c-0.7,1.4-1,2.9-1,4.6c0,1.8,0.3,3.3,0.9,4.5c0.6,1.2,1.4,2.2,2.4,2.8C76.8,327.2,77.8,327.5,79,327.5z M67.6,316.7  h-12v1.8h12V316.7z M37.6,330.7v1.1c0.5,0.1,1.2,0.2,2.1,0.2c2,0,3.8-0.4,5.4-1.2c1.6-0.8,2.8-1.9,3.6-3.2c0.9-1.3,1.3-2.7,1.3-4.1  c0-2.1-0.5-3.7-1.6-4.8c-1.1-1.1-2.6-1.6-4.4-1.6c-0.8,0-1.6,0.1-2.5,0.3c-0.8,0.2-1.5,0.4-2,0.7l1.4-7.4h7.8l0.5-2.7h-1.7l-0.3,0.6  h-8l-1.5,10.6l0.7,0.5c0.6-0.3,1.3-0.5,2.1-0.7c0.8-0.2,1.6-0.3,2.2-0.3c1.5,0,2.6,0.4,3.4,1.3c0.8,0.8,1.2,2.1,1.2,3.9  c0,1.4-0.3,2.6-1,3.6c-0.7,1.1-1.6,1.9-2.8,2.5c-1.2,0.6-2.5,0.9-4,0.9C38.8,330.8,38.2,330.7,37.6,330.7z M29.7,323.1h-0.1  c-0.4,0-0.7,0.1-1,0.4c-0.3,0.3-0.4,0.6-0.4,1.1c0,0.4,0.1,0.7,0.2,1l0.6,0.7l0.5,0.6l0.2,0.7c0,0.7-0.1,1.4-0.3,2.1  c-0.2,0.7-0.5,1.3-0.7,1.9c-0.3,0.5-0.6,0.9-0.8,1.1v0.3l0.9,0.6h0c0.5-0.3,1-0.8,1.5-1.5c0.5-0.7,0.9-1.5,1.2-2.5  c0.3-1,0.5-2,0.5-3.1s-0.2-1.9-0.6-2.5C30.9,323.4,30.3,323.1,29.7,323.1z M12.3,332c2.1,0,3.9-0.3,5.5-1c1.6-0.6,2.8-1.5,3.7-2.7  c0.9-1.2,1.3-2.5,1.3-3.9c0-0.9-0.2-1.7-0.7-2.5c-0.5-0.8-1.1-1.4-2-1.8c-0.9-0.4-1.9-0.7-3.1-0.7c-0.4,0-0.6,0-0.8,0  c1-0.3,1.9-0.8,2.7-1.5c0.8-0.6,1.5-1.4,2.1-2.3c0.5-0.9,0.8-1.7,0.8-2.7c0-1.6-0.5-2.8-1.6-3.6c-1.1-0.8-2.5-1.2-4.2-1.2  c-1.3,0-2.5,0.3-3.6,0.8c-1.2,0.5-2,1.1-2.6,1.6l0.7,1.1c0.6-0.5,1.4-0.9,2.3-1.2c0.9-0.3,1.7-0.5,2.6-0.5c1.1,0,2,0.3,2.7,0.8  c0.7,0.5,1.1,1.4,1.1,2.6c0,1.1-0.4,2.1-1.3,3c-0.8,0.9-1.9,1.7-3.2,2.2c-0.6,0.3-1.4,0.5-2.3,0.7l0.4,1.4l0.6-0.2  c0.7-0.2,1.2-0.3,1.3-0.4c1.8,0,3.2,0.4,4.1,1.2c0.9,0.8,1.3,1.9,1.3,3.3c0,1.1-0.3,2-1,2.9c-0.6,0.9-1.6,1.6-2.8,2.1  c-1.2,0.5-2.7,0.8-4.4,0.8c-0.9,0-1.6-0.1-2.1-0.2v1.4C10.6,331.9,11.4,332,12.3,332z"/>
<g>
</g>
<g>
</g>
<g>
</g>
<g>
</g>
<g>
</g>
<g>
</g>
</svg>