<?xml version="1.0" encoding="UTF-8"?>
<!-- Generator: Adobe Illustrator 25.0.0, SVG Export Plug-In . SVG Version: 6.00 Build 0)  -->
<svg version="1.1" id="Layer_1" xmlns="http://www.w3.org/2000/svg" xmlns:xlink="http://www.w3.org/1999/xlink" x="0px" y="0px" viewBox="0 0 1280 547.7" enable-background="new 0 0 1280 547.7" xml:space="preserve">
<path fill="#231F20" d="M1223.3,395.8V442l-0.6,0.6h-39.9l-0.6-0.6v-46.1l-1.5-1.5h-4.9l-1.5,1.5v100.5l1.5,1.5h4.9l1.5-1.5v-46.3  l0.6-0.6h39.9l0.6,0.6v46.3l1.5,1.5h4.9l1.5-1.5V395.8l-1.5-1.5h-4.9L1223.3,395.8z M1122,499c17.4,0,29-11.1,29-28.1v-1.3l-1.5-1.3  l-4.9-0.3l-1.5,1.5v1.8c0,12.6-8.4,20.8-21.1,20.8c-12.6,0-21-8.3-21-20.8v-50.4c0-12.4,8.4-20.7,21-20.7c12.7,0,21.1,8.3,21.1,20.7  v2.1l1.5,1.5l4.9-0.3l1.5-1.6v-1.3c0-16.9-11.5-27.9-29-27.9c-17.3,0-28.8,11.1-28.8,28.1v49.5C1093.1,487.8,1104.7,499,1122,499z"/>
<path fill="#231F20" d="M1278.3,518.1c-1.9-5.1-5.8-7.9-11.3-7.9l-0.2-0.4l12.6-17.2l0.3-1.1v-3.9l-0.9-0.9h-28.6l-0.9,0.9v3.6  l0.9,0.9h21.5l0.2,0.4l-13.4,17.9l0.1,1.2l2.2,2.4l1.2,0.3l2.5-0.6c4,0,6.7,2.2,8.2,6.1c0.9,2.2,1.3,5.1,1.3,8.5  c0,2.8-0.3,5.3-0.9,7.3c-1.4,4.4-4.3,6.7-8.6,6.7c-4.7,0-7.8-2.9-8.9-7.7c-0.3-1.4-0.5-3.4-0.6-5.1l-0.9-0.9h-4.4l-0.9,0.9  c0.1,2.2,0.3,4.5,0.8,6.6c1.6,7.1,7.1,11.6,14.8,11.6c7,0,11.8-3.4,14.1-9.7c0.9-2.6,1.5-5.8,1.5-9.4  C1280,524.5,1279.4,520.8,1278.3,518.1z"/>
<polygon fill="#231F20" points="48.9,62.1 48.9,108.3 48.3,108.8 8.4,108.8 7.8,108.3 7.8,62.1 6.4,60.7 1.5,60.7 0,62.1 0,162.7   1.5,164.1 6.4,164.1 7.8,162.7 7.8,116.4 8.4,115.8 48.3,115.8 48.9,116.4 48.9,162.7 50.4,164.1 55.3,164.1 56.8,162.7 56.8,62.1   55.3,60.7 50.4,60.7 "/>
<path fill="#231F20" d="M103.9,184.4c-1.9-5.1-5.8-7.9-11.3-7.9l-0.2-0.4l12.6-17.2l0.3-1.1v-3.9l-0.9-0.9H75.9l-0.9,0.9v3.6  l0.9,0.9h21.5l0.2,0.4l-13.4,17.9l0.1,1.2l2.2,2.4l1.2,0.3l2.5-0.6c4,0,6.7,2.2,8.2,6.1c0.9,2.2,1.3,5.1,1.3,8.5  c0,2.8-0.3,5.3-0.9,7.3c-1.4,4.4-4.3,6.7-8.6,6.7c-4.7,0-7.8-2.9-8.9-7.7c-0.3-1.4-0.5-3.4-0.6-5.1l-0.9-0.9h-4.4l-0.9,0.9  c0.1,2.2,0.3,4.5,0.8,6.6c1.6,7.1,7.1,11.6,14.8,11.6c7,0,11.8-3.4,14.1-9.7c0.9-2.6,1.5-5.8,1.5-9.4  C105.6,190.8,105,187.1,103.9,184.4z"/>
<path fill="#231F20" d="M150.3,165.3c17.4,0,29-11.1,29-28.1v-1.3l-1.5-1.3l-4.9-0.3l-1.5,1.5v1.8c0,12.6-8.4,20.8-21.1,20.8  c-12.6,0-21-8.3-21-20.8V87.1c0-12.4,8.4-20.7,21-20.7c12.7,0,21.1,8.3,21.1,20.7v2.1l1.5,1.5l4.9-0.3l1.5-1.6v-1.3  c0-16.9-11.5-27.9-29-27.9c-17.3,0-28.8,11.1-28.8,28.1v49.5C121.4,154.1,133,165.3,150.3,165.3z"/>
<rect x="536.8" y="114.9" fill="#231F20" width="10.6" height="226.5"/>
<rect x="536.8" y="114.9" fill="#231F20" width="10.6" height="226.5"/>
<rect x="924.9" y="116.4" fill="#231F20" width="10.6" height="226.5"/>
<rect x="924.9" y="116.4" fill="#231F20" width="10.6" height="226.5"/>
<rect x="579.1" y="126.9" fill="#231F20" width="10.6" height="197.8"/>
<rect x="579.1" y="126.9" fill="#231F20" width="10.6" height="197.8"/>
<rect x="526.2" y="56.7" transform="matrix(0.8623 -0.5064 0.5064 0.8623 56.2513 330.8808)" fill="#231F20" width="220.6" height="10.6"/>
<rect x="526.2" y="56.7" transform="matrix(0.8623 -0.5064 0.5064 0.8623 56.2513 330.8808)" fill="#231F20" width="220.6" height="10.6"/>
<rect x="719.2" y="390.4" transform="matrix(0.865 -0.5018 0.5018 0.865 -86.0264 471.7247)" fill="#231F20" width="228.7" height="10.6"/>
<rect x="719.2" y="390.4" transform="matrix(0.865 -0.5018 0.5018 0.865 -86.0264 471.7247)" fill="#231F20" width="228.7" height="10.6"/>
<polygon fill="#231F20" points="729.7,1.5 724.6,10.8 929.9,124 935,114.8 "/>
<polygon fill="#231F20" points="729.7,1.5 724.6,10.8 929.9,124 935,114.8 "/>
<rect x="637.3" y="279.2" transform="matrix(0.4835 -0.8753 0.8753 0.4835 -15.1687 767.2201)" fill="#231F20" width="10.6" height="234.5"/>
<rect x="637.3" y="279.2" transform="matrix(0.4835 -0.8753 0.8753 0.4835 -15.1687 767.2201)" fill="#231F20" width="10.6" height="234.5"/>
<polygon fill="#231F20" points="935,335.2 929.9,344.5 1068.8,421.5 1073.9,412.2 "/>
<polygon fill="#231F20" points="935,335.2 929.9,344.5 1068.8,421.5 1073.9,412.2 "/>
<rect x="440.2" y="-49.7" transform="matrix(0.5131 -0.8584 0.8584 0.5131 163.6949 412.5915)" fill="#231F20" width="10.6" height="223.5"/>
<rect x="440.2" y="-49.7" transform="matrix(0.5131 -0.8584 0.8584 0.5131 163.6949 412.5915)" fill="#231F20" width="10.6" height="223.5"/>
<rect x="195.8" y="40.1" transform="matrix(0.8779 -0.4789 0.4789 0.8779 12.5582 140.06)" fill="#231F20" width="170.3" height="10.6"/>
<rect x="195.8" y="40.1" transform="matrix(0.8779 -0.4789 0.4789 0.8779 12.5582 140.06)" fill="#231F20" width="170.3" height="10.6"/>
<g>
</g>
<g>
</g>
<g>
</g>
<g>
</g>
<g>
</g>
<g>
</g>
</svg>