<?xml version="1.0" encoding="UTF-8"?>
<!-- Generator: Adobe Illustrator 25.0.0, SVG Export Plug-In . SVG Version: 6.00 Build 0)  -->
<svg version="1.1" id="Layer_1" xmlns="http://www.w3.org/2000/svg" xmlns:xlink="http://www.w3.org/1999/xlink" x="0px" y="0px" viewBox="0 0 916.9 1000" enable-background="new 0 0 916.9 1000" xml:space="preserve">
<rect y="251" fill="#231F20" width="28.9" height="501.8"/>
<rect y="251" fill="#25221E" width="28.9" height="501.8"/>
<rect x="888" y="251" fill="#231F20" width="28.9" height="501.8"/>
<rect x="888" y="251" fill="#25221E" width="28.9" height="501.8"/>
<polygon fill-rule="evenodd" clip-rule="evenodd" fill="#231F20" points="447.9,0 0.3,245.5 14.2,270.8 461.8,25.4 "/>
<polygon fill="#25221E" points="447.9,0.1 0.3,245.5 14.2,270.9 461.8,25.4 "/>
<polygon fill-rule="evenodd" clip-rule="evenodd" fill="#231F20" points="899.1,729.2 451.5,974.7 465.4,1000 913,754.5 "/>
<polygon fill="#25221E" points="899.1,729.2 451.5,974.7 465.4,1000 913,754.5 "/>
<rect x="660.6" y="-127.4" transform="matrix(0.4742 -0.8804 0.8804 0.4742 232.4998 667.4321)" fill-rule="evenodd" clip-rule="evenodd" fill="#231F20" width="28.9" height="533"/>
<polygon fill="#25221E" points="447.2,0 433.6,25.4 902.8,278.1 916.5,252.7 "/>
<polygon fill-rule="evenodd" clip-rule="evenodd" fill="#231F20" points="13.9,736.3 0.6,761.9 455.4,996.6 468.7,970.9 "/>
<polygon fill="#25221E" points="13.9,736.3 0.6,761.9 455.4,996.6 468.7,970.9 "/>
<g>
</g>
<g>
</g>
<g>
</g>
<g>
</g>
<g>
</g>
<g>
</g>
</svg>