<?xml version="1.0" encoding="UTF-8"?>
<!-- Generator: Adobe Illustrator 25.0.0, SVG Export Plug-In . SVG Version: 6.00 Build 0)  -->
<svg version="1.1" id="Layer_1" xmlns="http://www.w3.org/2000/svg" xmlns:xlink="http://www.w3.org/1999/xlink" x="0px" y="0px" viewBox="0 0 1280 373.7" enable-background="new 0 0 1280 373.7" xml:space="preserve">
<path fill="#231F20" d="M133.1,218.4l0.1,47.2l-0.6,0.6l-40.8,0.1l-0.6-0.6l-0.1-47.2l-1.5-1.5l-5,0l-1.5,1.5l0.1,102.8l1.5,1.5l5,0  l1.5-1.5l-0.1-47.3l0.6-0.6l40.8-0.1l0.6,0.6l0.1,47.3l1.5,1.5l5,0l1.5-1.5l-0.1-102.8l-1.5-1.5l-5,0L133.1,218.4z M29.6,324  c17.8,0,29.6-11.4,29.6-28.8l0-1.4l-1.5-1.4l-5-0.3l-1.5,1.5l0,1.8c0,12.8-8.6,21.3-21.6,21.3c-12.8,0-21.5-8.4-21.5-21.3L8,244.1  c0-12.7,8.6-21.2,21.4-21.2c13,0,21.6,8.4,21.6,21.1l0,2.1l1.5,1.5l5-0.3l1.5-1.7l0-1.4c0-17.2-11.8-28.5-29.7-28.5  C11.7,215.8,0,227.2,0,244.5l0.1,50.6C0.1,312.6,11.9,324,29.6,324z"/>
<path fill="#231F20" d="M188.8,343.8c-1.9-5.3-6-8.5-11.9-8.6l-0.3-0.4l13.2-18.7l0.4-1.1v-2.6l-0.9-0.9h-28.3l-0.9,0.9v2.4l0.9,0.9  h23l0.3,0.4l-14.2,19.7l0.1,1.2l1.4,1.5l1.2,0.3l2.3-0.4c4.6,0,7.8,2.3,9.3,6.7c0.9,2.5,1.3,5.6,1.3,9.2c0,3-0.3,5.6-1,7.8  c-1.4,4.8-4.8,7.5-9.7,7.5c-5.4,0-9-3.3-10-8.6c-0.4-1.5-0.5-3.5-0.6-5.4l-0.9-0.9h-2.9l-0.9,0.9c0.1,2.1,0.3,4.5,0.8,6.7  c1.6,7,6.9,11.5,14.5,11.5c7.2,0,12.1-3.6,14.1-10.3c0.8-2.6,1.1-5.5,1.1-8.9C190.4,350.3,189.9,346.6,188.8,343.8z"/>
<path fill="#231F20" d="M692.2,217.8l0.1,47.2l-0.6,0.6l-40.8,0.1l-0.6-0.6l-0.1-47.2l-1.5-1.5l-5,0l-1.5,1.5l0.1,102.8l1.5,1.5l5,0  l1.5-1.5l-0.1-47.3l0.6-0.6l40.8-0.1l0.6,0.6l0.1,47.3l1.5,1.5l5,0l1.5-1.5l-0.1-102.8l-1.5-1.5l-5,0L692.2,217.8z M588.6,323.4  c17.8,0,29.6-11.4,29.6-28.8l0-1.4l-1.5-1.4l-5-0.3l-1.5,1.5l0,1.8c0,12.8-8.6,21.3-21.6,21.3c-12.8,0-21.5-8.4-21.5-21.3l-0.1-51.5  c0-12.7,8.6-21.2,21.4-21.2c13,0,21.6,8.4,21.6,21.1l0,2.1l1.5,1.5l5-0.3l1.5-1.7l0-1.4c0-17.2-11.8-28.5-29.7-28.5  c-17.7,0-29.5,11.4-29.4,28.8l0.1,50.6C559.2,312,571,323.5,588.6,323.4z M433.1,218.1l0.1,47.2l-0.6,0.6l-40.8,0.1l-0.6-0.6  l-0.1-47.2l-1.5-1.5l-5,0l-1.5,1.5l0.1,102.8l1.5,1.5l5,0l1.5-1.5l-0.1-47.3l0.6-0.6l40.8-0.1l0.6,0.6l0.1,47.3l1.5,1.5l5,0l1.5-1.5  l-0.1-102.8l-1.5-1.5l-5,0L433.1,218.1z M329.6,323.7c17.8,0,29.6-11.4,29.6-28.8l0-1.4l-1.5-1.4l-5-0.3l-1.5,1.5l0,1.8  c0,12.8-8.6,21.3-21.6,21.3c-12.8,0-21.5-8.4-21.5-21.3l-0.1-51.5c0-12.7,8.6-21.2,21.4-21.2c13,0,21.6,8.4,21.6,21.1l0,2.1l1.5,1.5  l5-0.3l1.5-1.7l0-1.4c0-17.2-11.8-28.5-29.7-28.5c-17.7,0-29.5,11.4-29.4,28.8l0.1,50.6C300.1,312.3,311.9,323.7,329.6,323.7z"/>
<path fill="#231F20" d="M720.3,372.5h30.1l0.9-0.9v-2.4l-0.9-0.9h-24.7l-0.3-0.4c5.5-7.9,11.1-15.9,16.4-23.9  c4.8-7.2,7.4-13.4,7.4-18.8c0-9-6-15.2-15.1-15.2c-8.7,0-14.7,5.9-14.9,14.8v3.3l0.9,0.9h3l0.9-0.9v-3c-0.1-6.6,4-11,10-11  c6.3,0,10.4,4.4,10.4,11c0,4.5-2.5,10.2-7,17c-5.7,8.5-11.6,17-17.7,25.6l-0.4,1.1v2.6L720.3,372.5z"/>
<path fill="#231F20" d="M961.3,217.6l0.1,47.2l-0.6,0.6l-40.8,0.1l-0.6-0.6l-0.1-47.2l-1.5-1.5l-5,0l-1.5,1.5l0.1,102.8l1.5,1.5l5,0  l1.5-1.5l-0.1-47.3l0.6-0.6l40.8-0.1l0.6,0.6l0.1,47.3l1.5,1.5l5,0l1.5-1.5l-0.1-102.8l-1.5-1.5l-5,0L961.3,217.6z M857.8,323.2  c17.8,0,29.6-11.4,29.6-28.8l0-1.4l-1.5-1.4l-5-0.3l-1.5,1.5l0,1.8c0,12.8-8.6,21.3-21.6,21.3c-12.8,0-21.5-8.4-21.5-21.3l-0.1-51.5  c0-12.7,8.6-21.2,21.4-21.2c13,0,21.6,8.4,21.6,21.1l0,2.1l1.5,1.5l5-0.3l1.5-1.7l0-1.4c0-17.2-11.8-28.5-29.7-28.5  c-17.7,0-29.5,11.4-29.4,28.8l0.1,50.6C828.3,311.7,840.1,323.2,857.8,323.2z"/>
<path fill="#231F20" d="M989.5,372.2h30.1l0.9-0.9v-2.4l-0.9-0.9h-24.7l-0.3-0.4c5.5-7.9,11.1-15.9,16.4-23.9  c4.8-7.2,7.4-13.4,7.4-18.8c0-9-6-15.2-15.1-15.2c-8.7,0-14.7,5.9-14.9,14.8v3.3l0.9,0.9h3l0.9-0.9v-3c-0.1-6.6,4-11,10-11  c6.3,0,10.4,4.4,10.4,11c0,4.5-2.5,10.2-7,17c-5.7,8.5-11.6,17-17.7,25.6l-0.4,1.1v2.6L989.5,372.2z"/>
<path fill="#231F20" d="M1222.7,217.3l0.1,47.2l-0.6,0.6l-40.8,0.1l-0.6-0.6l-0.1-47.2l-1.5-1.5l-5,0l-1.5,1.5l0.1,102.8l1.5,1.5  l5,0l1.5-1.5l-0.1-47.3l0.6-0.6l40.8-0.1l0.6,0.6l0.1,47.3l1.5,1.5l5,0l1.5-1.5l-0.1-102.8l-1.5-1.5l-5,0L1222.7,217.3z   M1119.2,322.9c17.8,0,29.6-11.4,29.6-28.8l0-1.4l-1.5-1.4l-5-0.3l-1.5,1.5l0,1.8c0,12.8-8.6,21.3-21.6,21.3  c-12.8,0-21.5-8.4-21.5-21.3l-0.1-51.5c0-12.7,8.6-21.2,21.4-21.2c13,0,21.6,8.4,21.6,21.1l0,2.1l1.5,1.5l5-0.3l1.5-1.7l0-1.4  c0-17.2-11.8-28.5-29.7-28.5c-17.7,0-29.5,11.4-29.4,28.8l0.1,50.6C1089.7,311.5,1101.5,323,1119.2,322.9z"/>
<path fill="#231F20" d="M1278.4,342.7c-1.9-5.3-6-8.5-11.9-8.6l-0.3-0.4l13.2-18.7l0.4-1.1v-2.6l-0.9-0.9h-28.3l-0.9,0.9v2.4  l0.9,0.9h23l0.3,0.4l-14.2,19.7l0.1,1.2l1.4,1.5l1.2,0.3l2.3-0.4c4.6,0,7.8,2.3,9.3,6.7c0.9,2.5,1.3,5.6,1.3,9.2c0,3-0.3,5.6-1,7.8  c-1.4,4.8-4.8,7.5-9.7,7.5c-5.4,0-9-3.3-10-8.6c-0.4-1.5-0.5-3.5-0.6-5.4l-0.9-0.9h-2.9l-0.9,0.9c0.1,2.1,0.3,4.5,0.8,6.7  c1.6,7,6.9,11.5,14.5,11.5c7.2,0,12.1-3.6,14.1-10.3c0.8-2.6,1.1-5.5,1.1-8.9C1280,349.2,1279.5,345.5,1278.4,342.7z"/>
<rect x="323.1" y="131.8" fill="#231F20" width="8.3" height="66.2"/>
<rect x="201.1" y="266.2" fill="#231F20" width="66.1" height="8.3"/>
<rect x="468.3" y="273.4" fill="#231F20" width="66.1" height="8.3"/>
<rect x="731.4" y="271.4" fill="#231F20" width="66.2" height="8.3"/>
<rect x="991.9" y="271.4" fill="#231F20" width="66.2" height="8.3"/>
<rect x="479.1" y="54.3" fill="#231F20" width="66.1" height="8.3"/>
<g>
	<path fill="#231F20" d="M419.9,2.9l0.1,47.2l-0.6,0.6l-40.8,0.1l-0.6-0.6L377.9,3l-1.5-1.5l-5,0L369.9,3l0.1,102.8l1.5,1.5l5,0   l1.5-1.5L378,58.4l0.6-0.6l40.8-0.1l0.6,0.6l0.1,47.3l1.5,1.5l5,0l1.5-1.5L427.9,2.9l-1.5-1.5l-5,0L419.9,2.9z M316.4,108.5   c17.8,0,29.6-11.4,29.6-28.8l0-1.4l-1.5-1.4l-5-0.3l-1.5,1.5l0,1.8c0,12.8-8.6,21.3-21.6,21.3c-12.8,0-21.5-8.4-21.5-21.3   l-0.1-51.5c0-12.7,8.6-21.2,21.4-21.2c13,0,21.6,8.4,21.6,21.1l0,2.1l1.5,1.5l5-0.3l1.5-1.7l0-1.4c0-17.2-11.8-28.5-29.7-28.5   c-17.7,0-29.5,11.4-29.4,28.8l0.1,50.6C286.9,97.1,298.7,108.5,316.4,108.5z"/>
</g>
<path fill="#231F20" d="M448,157.5h30.1l0.9-0.9v-2.4l-0.9-0.9h-24.7l-0.3-0.4c5.5-7.9,11.1-15.9,16.4-23.9  c4.8-7.2,7.4-13.4,7.4-18.8c0-9-6-15.2-15.1-15.2c-8.7,0-14.7,5.9-14.9,14.8v3.3l0.9,0.9h3l0.9-0.9v-3c-0.1-6.6,4-11,10-11  c6.3,0,10.4,4.4,10.4,11c0,4.5-2.5,10.2-7,17c-5.7,8.5-11.6,17-17.7,25.6l-0.4,1.1v2.6L448,157.5z"/>
<g>
	<path fill="#231F20" d="M720,2.6l0.1,47.2l-0.6,0.6l-40.8,0.1l-0.6-0.6L678,2.7l-1.5-1.5l-5,0L670,2.7l0.1,102.8l1.5,1.5l5,0   l1.5-1.5l-0.1-47.3l0.6-0.6l40.8-0.1l0.6,0.6l0.1,47.3l1.5,1.5l5,0l1.5-1.5L728.1,2.6l-1.5-1.5l-5,0L720,2.6z M616.5,108.2   c17.8,0,29.6-11.4,29.6-28.8l0-1.4l-1.5-1.4l-5-0.3l-1.5,1.5l0,1.8c0,12.8-8.6,21.3-21.6,21.3c-12.8,0-21.5-8.4-21.5-21.3   l-0.1-51.5c0-12.7,8.6-21.2,21.4-21.2c13,0,21.6,8.4,21.6,21.1l0,2.1l1.5,1.5l5-0.3l1.5-1.7l0-1.4C646,11.3,634.2,0,616.3,0   c-17.7,0-29.5,11.4-29.4,28.8l0.1,50.6C587,96.8,598.8,108.2,616.5,108.2z"/>
</g>
<path fill="#231F20" d="M775.7,128c-1.9-5.3-6-8.5-11.9-8.6l-0.3-0.4l13.2-18.7l0.4-1.1v-2.6l-0.9-0.9H748l-0.9,0.9v2.4l0.9,0.9h23  l0.3,0.4l-14.2,19.7l0.1,1.2l1.4,1.5l1.2,0.3l2.3-0.4c4.6,0,7.8,2.3,9.3,6.7c0.9,2.5,1.3,5.6,1.3,9.2c0,3-0.3,5.6-1,7.8  c-1.4,4.8-4.8,7.5-9.7,7.5c-5.4,0-9-3.3-10-8.6c-0.4-1.5-0.5-3.5-0.6-5.4l-0.9-0.9h-2.9l-0.9,0.9c0.1,2.1,0.3,4.5,0.8,6.7  c1.6,7,6.9,11.5,14.5,11.5c7.2,0,12.1-3.6,14.1-10.3c0.8-2.6,1.1-5.5,1.1-8.9C777.3,134.5,776.8,130.8,775.7,128z"/>
<g>
</g>
<g>
</g>
<g>
</g>
<g>
</g>
<g>
</g>
<g>
</g>
</svg>