<?xml version="1.0" encoding="UTF-8"?>
<!-- Generator: Adobe Illustrator 25.0.0, SVG Export Plug-In . SVG Version: 6.00 Build 0)  -->
<svg version="1.1" id="Layer_1" xmlns="http://www.w3.org/2000/svg" xmlns:xlink="http://www.w3.org/1999/xlink" x="0px" y="0px" viewBox="0 0 1280 711" enable-background="new 0 0 1280 711" xml:space="preserve">
<polygon fill="#231F20" points="2.4,0.1 3.6,480.9 33.2,480.8 32,0 "/>
<polygon fill-rule="evenodd" clip-rule="evenodd" fill="#231F20" points="14.5,453.2 0,479 411.1,711 425.6,685.2 "/>
<polygon fill-rule="evenodd" clip-rule="evenodd" fill="#231F20" points="828.1,425.5 399.7,681.8 414.9,707.2 843.3,450.9 "/>
<rect x="1028.3" y="303.8" transform="matrix(0.4893 -0.8721 0.8721 0.4893 38.043 1199.3317)" fill-rule="evenodd" clip-rule="evenodd" fill="#231F20" width="29.6" height="526.7"/>
<polygon fill-rule="evenodd" clip-rule="evenodd" fill="#231F20" points="103.3,393.9 88.5,419.6 421.9,611.1 436.6,585.5 "/>
<g>
</g>
<g>
</g>
<g>
</g>
<g>
</g>
<g>
</g>
<g>
</g>
</svg>