<?xml version="1.0" encoding="UTF-8"?>
<!-- Generator: Adobe Illustrator 25.0.0, SVG Export Plug-In . SVG Version: 6.00 Build 0)  -->
<svg version="1.1" id="Layer_1" xmlns="http://www.w3.org/2000/svg" xmlns:xlink="http://www.w3.org/1999/xlink" x="0px" y="0px" viewBox="0 0 1280 473.5" enable-background="new 0 0 1280 473.5" xml:space="preserve">
<path fill="#231F20" d="M170.9,275l0.1,60.5l-0.8,0.8l-52.4,0.1l-0.8-0.8l-0.1-60.5l-1.9-1.9l-6.4,0l-1.9,1.9l0.2,132l1.9,1.9l6.4,0  l1.9-1.9l-0.1-60.7l0.8-0.8l52.4-0.1l0.8,0.8l0.1,60.7l1.9,1.9l6.4,0l1.9-1.9l-0.2-132l-1.9-1.9l-6.4,0L170.9,275z M38,410.6  c22.9,0,38-14.6,38-36.9l0-1.7l-1.9-1.7l-6.4-0.4l-1.9,1.9l0,2.3c0,16.5-11,27.4-27.7,27.4c-16.5,0-27.6-10.8-27.6-27.3L10.3,308  c0-16.3,11-27.2,27.5-27.2c16.7,0,27.8,10.8,27.8,27.1l0,2.7l1.9,1.9l6.4-0.4l1.9-2.1l0-1.7c0-22.1-15.2-36.7-38.1-36.6  C15.1,271.7,0,286.3,0,308.6l0.1,65C0.1,395.9,15.3,410.6,38,410.6z"/>
<path fill="#231F20" d="M246.9,473.5l1.1-1.1v-4.7l-1.1-1.1h-30.7l-0.3-0.6c7-9.7,14-19.3,20.6-28.9c6.1-8.9,9.3-16.6,9.3-23.5  c0-11.8-7.9-20-20.1-20c-11.8,0-19.9,7.7-20.2,19.3v4.5l1.1,1.1h5.9l1.1-1.1v-3.8c-0.1-7.8,4.6-13,11.9-13c7.3,0,12.3,5.2,12.3,13  c0,5.5-3.3,12.5-8.9,20.8c-7.2,10.3-14.8,20.9-22.7,31.6l-0.5,1.5v5l1.1,1.1"/>
<path fill="#231F20" d="M810.1,269.5l0.1,60.5l-0.8,0.8l-52.4,0.1l-0.8-0.8l-0.1-60.5l-1.9-1.9l-6.4,0l-1.9,1.9l0.2,132l1.9,1.9  l6.4,0l1.9-1.9l-0.1-60.7l0.8-0.8l52.4-0.1l0.8,0.8l0.1,60.7l1.9,1.9l6.4,0l1.9-1.9l-0.2-132l-1.9-1.9l-6.4,0L810.1,269.5z   M677.2,405.1c22.9,0,38-14.6,38-36.9l0-1.7l-1.9-1.7l-6.4-0.4l-1.9,1.9l0,2.3c0,16.5-11,27.4-27.7,27.4  c-16.5,0-27.6-10.8-27.6-27.3l-0.1-66.2c0-16.3,11-27.2,27.5-27.2c16.7,0,27.8,10.8,27.8,27.1l0,2.7l1.9,1.9l6.4-0.4l1.9-2.1l0-1.7  c0-22.1-15.2-36.7-38.1-36.6c-22.7,0-37.8,14.6-37.8,36.9l0.1,65C639.3,390.4,654.5,405.1,677.2,405.1z"/>
<path fill="#231F20" d="M394.1,405.2c22.9,0,38-14.6,38-36.9l0-1.7l-1.9-1.7l-6.4-0.4l-1.9,1.9l0,2.3c0,16.5-11,27.4-27.7,27.4  c-16.5,0-27.6-10.8-27.6-27.3l-0.1-66.2c0-16.3,11-27.2,27.5-27.2c16.7,0,27.8,10.8,27.8,27.1l0,2.7l1.9,1.9l6.4-0.4l1.9-2.1l0-1.7  c0-22.1-15.2-36.7-38.1-36.6c-22.7,0-37.8,14.6-37.8,36.9l0.1,65C356.2,390.5,371.4,405.2,394.1,405.2z"/>
<path fill="#231F20" d="M521.5,3.4l0.1,60.5l-0.8,0.8l-52.4,0.1l-0.8-0.8l-0.1-60.5l-1.9-1.9l-6.4,0l-1.9,1.9l0.2,132l1.9,1.9l6.4,0  l1.9-1.9l-0.1-60.7l0.8-0.8l52.4-0.1l0.8,0.8l0.1,60.7l1.9,1.9l6.4,0l1.9-1.9l-0.2-132l-1.9-1.9l-6.4,0L521.5,3.4z M388.6,139  c22.9,0,38-14.6,38-36.9l0-1.7l-1.9-1.7l-6.4-0.4l-1.9,1.9l0,2.3c0,16.5-11,27.4-27.7,27.4c-16.5,0-27.6-10.8-27.6-27.3l-0.1-66.2  c0-16.3,11-27.2,27.5-27.2c16.7,0,27.8,10.8,27.8,27.1l0,2.7l1.9,1.9l6.4-0.4l1.9-2.1l0-1.7c0-22.1-15.2-36.7-38.1-36.6  c-22.7,0-37.8,14.6-37.8,36.9l0.1,65C350.7,124.3,365.9,139,388.6,139z"/>
<path fill="#231F20" d="M593.9,163.9c-2.5-6.7-7.6-10.4-14.8-10.4l-0.2-0.6l16.5-22.5l0.5-1.5v-5.1l-1.1-1.1h-37.5l-1.1,1.1v4.7  l1.1,1.1h28.1l0.2,0.6L568,153.9l0.1,1.6l2.8,3.2l1.6,0.3l3.3-0.8c5.2,0,8.8,2.8,10.7,8c1.1,2.9,1.7,6.7,1.7,11.2  c0,3.7-0.5,7-1.1,9.6c-1.8,5.8-5.6,8.8-11.3,8.8c-6.2,0-10.3-3.8-11.6-10.1c-0.5-1.8-0.7-4.4-0.8-6.7l-1.1-1.1h-5.8l-1.1,1.1  c0.1,2.8,0.3,5.9,1,8.6c2.1,9.3,9.3,15.1,19.4,15.1c9.2,0,15.5-4.4,18.4-12.7c1.2-3.4,1.9-7.6,1.9-12.3  C596.1,172.3,595.3,167.5,593.9,163.9z"/>
<path fill="#231F20" d="M1201.7,3.3l0.1,60.5l-0.8,0.8l-52.4,0.1l-0.8-0.8l-0.1-60.5l-1.9-1.9l-6.4,0l-1.9,1.9l0.2,132l1.9,1.9  l6.4,0l1.9-1.9l-0.1-60.7l0.8-0.8l52.4-0.1l0.8,0.8l0.1,60.7l1.9,1.9l6.4,0l1.9-1.9l-0.2-132l-1.9-1.9l-6.4,0L1201.7,3.3z   M1068.8,138.9c22.9,0,38-14.6,38-36.9l0-1.7l-1.9-1.7l-6.4-0.4l-1.9,1.9l0,2.3c0,16.5-11,27.4-27.7,27.4  c-16.5,0-27.6-10.8-27.6-27.3l-0.1-66.2c0-16.3,11-27.2,27.5-27.2c16.7,0,27.8,10.8,27.8,27.1l0,2.7l1.9,1.9l6.4-0.4l1.9-2.1l0-1.7  c0-22.1-15.2-36.7-38.1-36.6c-22.7,0-37.8,14.6-37.8,36.9l0.1,65C1030.9,124.3,1046.1,139,1068.8,138.9z"/>
<path fill="#231F20" d="M1274.1,163.9c-2.5-6.7-7.6-10.4-14.8-10.4l-0.2-0.6l16.5-22.5l0.5-1.5v-5.1l-1.1-1.1h-37.5l-1.1,1.1v4.7  l1.1,1.1h28.1l0.2,0.6l-17.5,23.5l0.1,1.6l2.8,3.2l1.6,0.3l3.3-0.8c5.2,0,8.8,2.8,10.7,8c1.1,2.9,1.7,6.7,1.7,11.2  c0,3.7-0.5,7-1.1,9.6c-1.8,5.8-5.6,8.8-11.3,8.8c-6.2,0-10.3-3.8-11.6-10.1c-0.5-1.8-0.7-4.4-0.8-6.7l-1.1-1.1h-5.8l-1.1,1.1  c0.1,2.8,0.3,5.9,1,8.6c2.1,9.3,9.3,15.1,19.4,15.1c9.2,0,15.5-4.4,18.4-12.7c1.2-3.4,1.9-7.6,1.9-12.3  C1276.3,172.3,1275.5,167.5,1274.1,163.9z"/>
<path fill="#231F20" d="M1205.4,271.3l0.1,60.5l-0.8,0.8l-52.4,0.1l-0.8-0.8l-0.1-60.5l-1.9-1.9l-6.4,0l-1.9,1.9l0.2,132l1.9,1.9  l6.4,0l1.9-1.9l-0.1-60.7l0.8-0.8l52.4-0.1l0.8,0.8l0.1,60.7l1.9,1.9l6.4,0l1.9-1.9l-0.2-132l-1.9-1.9l-6.4,0L1205.4,271.3z   M1072.5,406.9c22.9,0,38-14.6,38-36.9l0-1.7l-1.9-1.7l-6.4-0.4l-1.9,1.9l0,2.3c0,16.5-11,27.4-27.7,27.4  c-16.5,0-27.6-10.8-27.6-27.3l-0.1-66.2c0-16.3,11-27.2,27.5-27.2c16.7,0,27.8,10.8,27.8,27.1l0,2.7l1.9,1.9l6.4-0.4l1.9-2.1l0-1.7  c0-22.1-15.2-36.7-38.1-36.6c-22.7,0-37.8,14.6-37.8,36.9l0.1,65C1034.6,392.2,1049.8,407,1072.5,406.9z"/>
<g>
	<path fill="#231F20" d="M1277.7,431.9c-2.5-6.7-7.6-10.4-14.8-10.4l-0.2-0.6l16.5-22.5l0.5-1.5v-5.1l-1.1-1.1H1241l-1.1,1.1v4.7   l1.1,1.1h28.1l0.2,0.6l-17.5,23.5l0.1,1.6l2.8,3.2l1.6,0.3l3.3-0.8c5.2,0,8.8,2.8,10.7,8c1.1,2.9,1.7,6.7,1.7,11.2   c0,3.7-0.5,7-1.1,9.6c-1.8,5.8-5.6,8.8-11.3,8.8c-6.2,0-10.3-3.8-11.6-10.1c-0.5-1.8-0.7-4.4-0.8-6.7l-1.1-1.1h-5.8l-1.1,1.1   c0.1,2.8,0.3,5.9,1,8.6c2.1,9.3,9.3,15.1,19.4,15.1c9.2,0,15.5-4.4,18.4-12.7c1.2-3.4,1.9-7.6,1.9-12.3   C1280,440.2,1279.2,435.5,1277.7,431.9z"/>
</g>
<path fill="#231F20" d="M811.9,3.3l0.1,60.5l-0.8,0.8l-52.4,0.1l-0.8-0.8L758,3.4L756,1.5l-6.4,0l-1.9,1.9l0.2,132l1.9,1.9l6.4,0  l1.9-1.9l-0.1-60.7l0.8-0.8l52.4-0.1l0.8,0.8l0.1,60.7l1.9,1.9l6.4,0l1.9-1.9l-0.2-132l-1.9-1.9l-6.4,0L811.9,3.3z M679,138.9  c22.9,0,38-14.6,38-36.9l0-1.7l-1.9-1.7l-6.4-0.4l-1.9,1.9l0,2.3c0,16.5-11,27.4-27.7,27.4c-16.5,0-27.6-10.8-27.6-27.3l-0.1-66.2  c0-16.3,11-27.2,27.5-27.2c16.7,0,27.8,10.8,27.8,27.1l0,2.7l1.9,1.9l6.4-0.4l1.9-2.1l0-1.7c0-22.1-15.2-36.7-38.1-36.6  C656.1,0,641,14.6,641,36.9l0.1,65C641.2,124.3,656.3,139,679,138.9z"/>
<path fill="#231F20" d="M847.7,201.9h40.2l1.1-1.1V196l-1.1-1.1h-30.7l-0.3-0.6c7-9.7,14-19.3,20.6-28.9c6.1-8.9,9.3-16.6,9.3-23.5  c0-11.8-7.9-20-20.1-20c-11.8,0-19.9,7.7-20.2,19.3v4.5l1.1,1.1h5.9l1.1-1.1v-3.8c-0.1-7.8,4.6-13,11.9-13c7.3,0,12.3,5.2,12.3,13  c0,5.5-3.3,12.5-8.9,20.8c-7.2,10.3-14.8,20.9-22.7,31.6l-0.5,1.5v5L847.7,201.9z"/>
<polyline fill="#231F20" points="482.6,325.1 594.7,325.1 594.7,336.2 482.6,336.2 "/>
<polyline fill="#231F20" points="685,156.3 685.1,252.2 674,252.2 673.9,156.3 "/>
<polyline fill="#231F20" points="396.4,158.2 396.5,254 385.4,254.1 385.3,158.2 "/>
<polyline fill="#231F20" points="327.7,315.8 231.8,315.9 231.8,304.8 327.7,304.7 "/>
<polyline fill="#231F20" points="327.7,359.6 231.8,359.8 231.8,348.6 327.7,348.5 "/>
<polyline fill="#231F20" points="872.9,325.1 985,325.1 985,336.2 872.9,336.2 "/>
<polyline fill="#231F20" points="897.4,72.4 994.2,72.4 994.2,83.5 897.4,83.5 "/>
<g>
</g>
<g>
</g>
<g>
</g>
<g>
</g>
<g>
</g>
<g>
</g>
</svg>