<?xml version="1.0" encoding="UTF-8"?>
<!-- Generator: Adobe Illustrator 25.0.0, SVG Export Plug-In . SVG Version: 6.00 Build 0)  -->
<svg version="1.1" id="Layer_1" xmlns="http://www.w3.org/2000/svg" xmlns:xlink="http://www.w3.org/1999/xlink" x="0px" y="0px" viewBox="0 0 1280 503.5" enable-background="new 0 0 1280 503.5" xml:space="preserve">
<rect x="-13.8" y="363" transform="matrix(0.8687 -0.4953 0.4953 0.8687 -167.8188 105.2587)" fill="#231F20" width="256.9" height="12.4"/>
<rect x="-13.8" y="363" transform="matrix(0.8687 -0.4953 0.4953 0.8687 -167.8188 105.2587)" fill="#25221E" width="256.9" height="12.4"/>
<polygon fill-rule="evenodd" clip-rule="evenodd" fill="#231F20" points="643.6,302 425,430.9 431.3,441.6 649.8,312.7 "/>
<polygon fill="#25221E" points="643.6,302 425,430.9 431.3,441.6 649.8,312.7 "/>
<polygon fill-rule="evenodd" clip-rule="evenodd" fill="#231F20" points="1064,302.3 919.9,386.7 926.2,397.4 1070.3,313 "/>
<polygon fill="#25221E" points="1064,302.3 919.9,386.7 926.2,397.4 1070.3,313 "/>
<rect x="321" y="243.7" transform="matrix(0.5103 -0.86 0.86 0.5103 -158.0741 462.6056)" fill-rule="evenodd" clip-rule="evenodd" fill="#231F20" width="12.4" height="252.9"/>
<rect x="321" y="243.7" transform="matrix(0.5103 -0.86 0.86 0.5103 -158.0741 462.6056)" fill="#25221E" width="12.4" height="252.9"/>
<polygon fill-rule="evenodd" clip-rule="evenodd" fill="#231F20" points="645.2,302 638.9,312.7 776.1,393.7 782.4,383 "/>
<polygon fill="#25221E" points="645.2,302 638.9,312.7 776.1,393.7 782.4,383 "/>
<polygon fill-rule="evenodd" clip-rule="evenodd" fill="#231F20" points="1064.2,303.9 1057.8,314.5 1273.7,443.7 1280,433.1 "/>
<polygon fill="#25221E" points="1064.2,303.9 1057.8,314.5 1273.7,443.7 1280,433.1 "/>
<polygon fill="#231F20" points="612.6,324.2 625,324.3 625.7,154.3 613.3,154.2 "/>
<polygon fill="#25221E" points="612.6,324.2 625,324.3 625.7,154.3 613.3,154.2 "/>
<polygon fill="#231F20" points="662.1,324.4 674.4,324.5 675.2,154.5 662.8,154.4 "/>
<polygon fill="#25221E" points="662.1,324.4 674.4,324.5 675.2,154.5 662.8,154.4 "/>
<g>
	<path fill="#231F20" d="M848.2,494.4c-16.6,0-27.8-11.6-27.8-28.6v-62.6c0-17.4,11.2-29,27.8-29c17,0,28.4,11.6,28.4,29v62.6   C876.5,482.9,865.2,494.4,848.2,494.4z M848.2,503.5c23,0,38.6-15.3,38.6-38.2v-61.8c0-22.8-15.6-38.2-38.6-38.2   c-22.8,0-38,15.4-38,38.2v61.8C810.1,488.3,825.4,503.5,848.2,503.5z"/>
</g>
<g>
	<path fill="#231F20" d="M640.5,129.2c-16.6,0-27.8-11.6-27.8-28.6V38c0-17.4,11.2-29,27.8-29c17,0,28.4,11.6,28.4,29v62.6   C668.9,117.6,657.5,129.2,640.5,129.2z M640.5,138.3c23,0,38.6-15.3,38.6-38.2V38.2c0-22.8-15.6-38.2-38.6-38.2   c-22.8,0-38,15.4-38,38.2V100C602.5,123,617.7,138.3,640.5,138.3z"/>
</g>
<g>
</g>
<g>
</g>
<g>
</g>
<g>
</g>
<g>
</g>
<g>
</g>
</svg>