<?xml version="1.0" encoding="UTF-8"?>
<!-- Generator: Adobe Illustrator 25.0.0, SVG Export Plug-In . SVG Version: 6.00 Build 0)  -->
<svg version="1.1" id="Layer_1" xmlns="http://www.w3.org/2000/svg" xmlns:xlink="http://www.w3.org/1999/xlink" x="0px" y="0px" viewBox="0 0 1200.4 1000" enable-background="new 0 0 1200.4 1000" xml:space="preserve">
<polygon fill="#231F20" points="244.2,149.9 244.1,439.8 257.9,439.8 257.9,149.9 "/>
<polygon fill="#231F20" points="480.8,566 480.8,863.8 494.6,863.8 494.6,566 "/>
<polygon fill="#231F20" points="7.1,0 0,11.8 250.5,161.7 257.6,149.9 "/>
<polygon fill-rule="evenodd" clip-rule="evenodd" fill="#231F20" points="251.6,426 244.6,437.9 485.2,579.8 492.2,568 "/>
<rect x="597.2" y="785.4" transform="matrix(0.4941 -0.8694 0.8694 0.4941 -498.582 993.0836)" fill-rule="evenodd" clip-rule="evenodd" fill="#231F20" width="13.8" height="279.1"/>
<polygon fill-rule="evenodd" clip-rule="evenodd" fill="#231F20" points="250.6,427.9 6,567.9 12.9,579.9 257.4,439.9 "/>
<polygon fill-rule="evenodd" clip-rule="evenodd" fill="#231F20" points="725.8,424 485.2,566 492.2,577.9 732.8,435.9 "/>
<polygon fill-rule="evenodd" clip-rule="evenodd" fill="#231F20" points="724.9,426 717.9,437.9 960.5,579.9 967.5,568 "/>
<polygon fill="#231F20" points="954.4,566.1 961.8,577.8 1200.4,427.9 1193,416.2 "/>
<rect x="932.8" y="445.7" transform="matrix(0.8493 -0.5279 0.5279 0.8493 -78.9637 628.6917)" fill-rule="evenodd" clip-rule="evenodd" fill="#231F20" width="257.8" height="13.8"/>
<g>
</g>
<g>
</g>
<g>
</g>
<g>
</g>
<g>
</g>
<g>
</g>
</svg>