<?xml version="1.0" encoding="UTF-8"?>
<!-- Generator: Adobe Illustrator 25.0.0, SVG Export Plug-In . SVG Version: 6.00 Build 0)  -->
<svg version="1.1" id="Layer_1" xmlns="http://www.w3.org/2000/svg" xmlns:xlink="http://www.w3.org/1999/xlink" x="0px" y="0px" viewBox="0 0 744.8 1000" enable-background="new 0 0 744.8 1000" xml:space="preserve">
<g>
	<path fill="#84D1E6" d="M600.1,0H91.2C70.7,0,54.1,16.6,54.1,37.2v776.9c0,20.5,16.6,37.2,37.2,37.2h508.9   c20.5,0,37.2-16.6,37.2-37.2V37.2C637.3,16.6,620.6,0,600.1,0"/>
</g>
<g>
	<defs>
		<polyline id="SVGID_1_" points="258.2,308.9 188.9,308.9 188.9,471.1 258.2,471.1 258.2,308.9   "/>
	</defs>
	<clipPath id="SVGID_2_">
		<use xlink:href="#SVGID_1_" overflow="visible"/>
	</clipPath>
	<g clip-path="url(#SVGID_2_)">
		
			<image overflow="visible" width="14" height="30" xlink:href="data:image/jpeg;base64,/9j/4AAQSkZJRgABAgEADAAMAAD/7AARRHVja3kAAQAEAAAAHgAA/+4AIUFkb2JlAGTAAAAAAQMA EAMCAwYAAAGVAAABtgAAAhb/2wCEABALCwsMCxAMDBAXDw0PFxsUEBAUGx8XFxcXFx8eFxoaGhoX Hh4jJSclIx4vLzMzLy9AQEBAQEBAQEBAQEBAQEABEQ8PERMRFRISFRQRFBEUGhQWFhQaJhoaHBoa JjAjHh4eHiMwKy4nJycuKzU1MDA1NUBAP0BAQEBAQEBAQEBAQP/CABEIAB0ADgMBIgACEQEDEQH/ xACBAAEAAwAAAAAAAAAAAAAAAAACAQMEAQEBAQAAAAAAAAAAAAAAAAABAwQQAAAEBgMAAAAAAAAA AAAAAAECBAYSMgMTMzYkNBYRAAEDAgQHAQAAAAAAAAAAAAEAEQIDBCGxEgUxQVHBE3N0JBIBAQEB AAAAAAAAAAAAAAAAAAFxwf/aAAwDAQACEQMRAAAA0CBXOxaE/9oACAECAAEFABxDi//aAAgBAwAB BQAvYKPI/9oACAEBAAEFAG8ornMqUVwdTcmV7a3Jle2t63Gqt+p//9oACAECAgY/AIj/2gAIAQMC Bj8AucV//9oACAEBAQY/ANw11Jy03EgHkSwxVlTFWYgaMiY6ixLVuS3H6Zd1Y+iWVZbj9Mu6sfRL Kstw0En9EnduOPRWTk+TwlhgzNWX/9k=" transform="matrix(5.7715 0 0 5.7917 183.118 303.1023)">
		</image>
	</g>
</g>
<g>
	<defs>
		<polyline id="SVGID_3_" points="234.5,677.1 435.5,677.1 435.5,557.3 234.5,557.3 234.5,677.1   "/>
	</defs>
	<clipPath id="SVGID_4_">
		<use xlink:href="#SVGID_3_" overflow="visible"/>
	</clipPath>
	<g clip-path="url(#SVGID_4_)">
		<defs>
			<polyline id="SVGID_5_" points="435.5,557.3 234.5,557.3 234.5,677.1 435.5,677.1 435.5,557.3    "/>
		</defs>
		<clipPath id="SVGID_6_">
			<use xlink:href="#SVGID_5_" overflow="visible"/>
		</clipPath>
		<g clip-path="url(#SVGID_6_)">
			
				<image overflow="visible" width="37" height="23" xlink:href="data:image/jpeg;base64,/9j/4AAQSkZJRgABAgEADQANAAD/7AARRHVja3kAAQAEAAAAHgAA/+4AIUFkb2JlAGTAAAAAAQMA EAMCAwYAAAHIAAAB+QAAApj/2wCEABALCwsMCxAMDBAXDw0PFxsUEBAUGx8XFxcXFx8eFxoaGhoX Hh4jJSclIx4vLzMzLy9AQEBAQEBAQEBAQEBAQEABEQ8PERMRFRISFRQRFBEUGhQWFhQaJhoaHBoa JjAjHh4eHiMwKy4nJycuKzU1MDA1NUBAP0BAQEBAQEBAQEBAQP/CABEIABgAJgMBIgACEQEDEQH/ xACaAAEBAQADAAAAAAAAAAAAAAAABAMCBQYBAAMAAwAAAAAAAAAAAAAAAAABAgMEBRAAAQMDBAMB AAAAAAAAAAAAAwABBBECBSExEzMQEiIVEQACAAQEBAYDAAAAAAAAAAABAgARAwQhMZEyEEFRcWGx EiJyE1IjFBIAAgECAwkAAAAAAAAAAAAAAAERITEQUXGBodHhEiJC4kP/2gAMAwEAAhEDEQAAAPRz US7XOpdPcFTgc6ZgIhPATl//2gAIAQIAAQUApozsqJtnpTVf/9oACAEDAAEFAK/T2uzVdPvZ7V0X /9oACAEBAAEFADEIxrsgK2RyEXIRchEbulQ40sd36WMUSbGmjRu7xKxYTFaVlrX/AP/aAAgBAgIG PwChDUPBFTy5H//aAAgBAwIGPwBzOwlPqWaLj1O258/bhuP/2gAIAQEBBj8Af3HceZ6wLZq/prEB ghJEwZ5aRvOpjcdTG46mKnyPnH13FMOvKeY7GAwLX1muBSQ+5FGUvyg1Ld/WFwcYgqejA48KnyPn xFzQP894u2ugE+zKcGHeGsKqoLxx+i7UTpFRg7OhMwwzwEp+Ef/Z" transform="matrix(5.7434 0 0 5.7112 228.7546 551.5006)">
			</image>
		</g>
	</g>
</g>
<g>
	<g>
		<defs>
			<polyline id="SVGID_7_" points="637.3,565.7 596,565.7 596,697.4 637.3,697.4 637.3,565.7    "/>
		</defs>
		<clipPath id="SVGID_8_">
			<use xlink:href="#SVGID_7_" overflow="visible"/>
		</clipPath>
		<g clip-path="url(#SVGID_8_)">
			
				<image overflow="visible" width="9" height="25" xlink:href="data:image/jpeg;base64,/9j/4AAQSkZJRgABAgEADAAMAAD/7AARRHVja3kAAQAEAAAAHgAA/+4AIUFkb2JlAGTAAAAAAQMA EAMCAwYAAAGSAAABqQAAAeX/2wCEABALCwsMCxAMDBAXDw0PFxsUEBAUGx8XFxcXFx8eFxoaGhoX Hh4jJSclIx4vLzMzLy9AQEBAQEBAQEBAQEBAQEABEQ8PERMRFRISFRQRFBEUGhQWFhQaJhoaHBoa JjAjHh4eHiMwKy4nJycuKzU1MDA1NUBAP0BAQEBAQEBAQEBAQP/CABEIABgACQMBIgACEQEDEQH/ xACBAAEBAQEAAAAAAAAAAAAAAAAAAQQGAQADAQAAAAAAAAAAAAAAAAACAwQFEAABAgYDAAAAAAAA AAAAAAACAAQQESFBEgMyBRURAAECBAcBAAAAAAAAAAAAAAEAAhExQQQQIXGi0gMzNRIBAAEFAAAA AAAAAAAAAAAAABFBocESQv/aAAwDAQACEQMRAAAA6CJXmYIA3//aAAgBAgABBQCH/9oACAEDAAEF AL0l/9oACAEBAAEFACIssiRck73dhvc+a8X/2gAIAQICBj8AVnD/2gAIAQMCBj8Ac63l/9oACAEB AQY/ADmZqZR1wfa2jR0Nb6XD4EwNGNFV9G428V//2Q==" transform="matrix(5.8129 0 0 5.7287 590.1816 559.9294)">
			</image>
		</g>
	</g>
</g>
<g>
	<g>
		<defs>
			<polyline id="SVGID_9_" points="192.3,553.9 54.1,553.9 54.1,685.6 192.3,685.6 192.3,553.9    "/>
		</defs>
		<clipPath id="SVGID_10_">
			<use xlink:href="#SVGID_9_" overflow="visible"/>
		</clipPath>
		<g clip-path="url(#SVGID_10_)">
			
				<image overflow="visible" width="26" height="25" xlink:href="data:image/jpeg;base64,/9j/4AAQSkZJRgABAgEADAAMAAD/7AARRHVja3kAAQAEAAAAHgAA/+4AIUFkb2JlAGTAAAAAAQMA EAMCAwYAAAGoAAABzQAAAj7/2wCEABALCwsMCxAMDBAXDw0PFxsUEBAUGx8XFxcXFx8eFxoaGhoX Hh4jJSclIx4vLzMzLy9AQEBAQEBAQEBAQEBAQEABEQ8PERMRFRISFRQRFBEUGhQWFhQaJhoaHBoa JjAjHh4eHiMwKy4nJycuKzU1MDA1NUBAP0BAQEBAQEBAQEBAQP/CABEIABgAGQMBIgACEQEDEQH/ xACKAAACAwEAAAAAAAAAAAAAAAAAAgEEBQYBAAIDAAAAAAAAAAAAAAAAAAECAAQFEAABBAEFAQAA AAAAAAAAAAACAREDBAAQIRITBRURAAIBBAAEBwAAAAAAAAAAAAECAwARITEQIFEEgbESMkJiBRIA AgIBBQAAAAAAAAAAAAAAAREAEEEhMaECEv/aAAwDAQACEQMRAAAA6JKtWzn6crLKjgIAEf/aAAgB AgABBQB9BZs//9oACAEDAAEFAFHd9zfln//aAAgBAQABBQCYi7lNRSOYZR5FnpenDWtfPs3jAAjH Ep169jX/2gAIAQICBj8AQ1oKv//aAAgBAwIGPwAnsfI5mVC93mv/2gAIAQEBBj8AkyfcfOizNYAX JJwAKDxSCRDpkYMp8RWzTwKrTdyzH0xJk7+XShJ+kwEIN07RDdQfu2L0ERQqjQAsOE7xpZ5HZnc5 Yknryf/Z" transform="matrix(5.8129 0 0 5.7287 46.9434 548.1047)">
			</image>
		</g>
	</g>
</g>
<polygon fill="#231F20" points="465.3,807 474.1,807 476.9,804.2 476.9,648.7 478.2,648.2 557.8,805 561.1,807 570.5,807   573.2,804.2 573.2,616.4 570.5,613.6 561.6,613.6 558.9,616.4 558.9,772.2 557.5,772.4 477.7,615.6 474.4,613.6 465.3,613.6   462.5,616.4 462.5,804.2 "/>
<path fill="#231F20" d="M223.8,273.8c-23.7,0-39.8-16.6-39.8-40.9v-89.5c0-24.9,16-41.4,39.8-41.4c24.3,0,40.6,16.6,40.6,41.4v89.5  C264.4,257.2,248.1,273.8,223.8,273.8z M223.8,286.8c32.9,0,55.2-21.8,55.2-54.7v-88.4c0-32.6-22.4-54.7-55.2-54.7  c-32.6,0-54.4,22.1-54.4,54.7v88.4C169.4,265,191.2,286.8,223.8,286.8z"/>
<path fill="#231F20" d="M223.3,680.4c32.6,0,54.1-20.7,54.1-52.5v-2.5l-2.8-2.5l-9.1-0.6l-2.8,2.8v3.3c0,23.5-15.7,38.9-39.5,38.9  c-23.5,0-39.2-15.5-39.2-38.9v-94.2c0-23.2,15.7-38.7,39.2-38.7c23.7,0,39.5,15.5,39.5,38.7v3.9l2.8,2.8l9.1-0.6l2.8-3v-2.5  c0-31.5-21.5-52.2-54.1-52.2c-32.3,0-53.9,20.7-53.9,52.5v92.5C169.4,659.5,190.9,680.4,223.3,680.4z"/>
<polygon fill-rule="evenodd" clip-rule="evenodd" fill="#231F20" points="148.8,592.5 142.6,582.5 0,670.5 6.2,680.6 "/>
<polygon fill-rule="evenodd" clip-rule="evenodd" fill="#231F20" points="744.8,609.3 738.6,599.3 596,687.4 602.2,697.4 "/>
<rect x="355.2" y="544.3" transform="matrix(0.5247 -0.8513 0.8513 0.5247 -363.0441 605.8915)" fill-rule="evenodd" clip-rule="evenodd" fill="#231F20" width="11.8" height="167.6"/>
<rect x="509.3" y="832.4" transform="matrix(1 -6.466200e-03 6.466200e-03 1 -5.9133 3.3506)" fill="#231F20" width="11.8" height="167.6"/>
<g>
</g>
<g>
</g>
<g>
</g>
<g>
</g>
<g>
</g>
<g>
</g>
</svg>