<?xml version="1.0" encoding="UTF-8"?>
<!-- Generator: Adobe Illustrator 25.0.0, SVG Export Plug-In . SVG Version: 6.00 Build 0)  -->
<svg version="1.1" id="Layer_1" xmlns="http://www.w3.org/2000/svg" xmlns:xlink="http://www.w3.org/1999/xlink" x="0px" y="0px" viewBox="0 0 1280 398.6" enable-background="new 0 0 1280 398.6" xml:space="preserve">
<polygon fill-rule="evenodd" clip-rule="evenodd" fill="#231F20" points="171,248.3 0,348.9 6,359 176.9,258.4 "/>
<polygon fill="#1C1C1B" points="171,248.3 0,348.9 6,359 176.9,258.4 "/>
<polygon fill-rule="evenodd" clip-rule="evenodd" fill="#231F20" points="482.7,246.6 311.8,347.2 317.7,357.3 488.7,256.8 "/>
<polygon fill="#1C1C1B" points="482.7,246.6 311.8,347.2 317.7,357.3 488.7,256.8 "/>
<polygon fill-rule="evenodd" clip-rule="evenodd" fill="#231F20" points="1123.1,246.6 952.1,347.2 958,357.3 1129,256.8 "/>
<polygon fill="#1C1C1B" points="1123.1,246.6 952.1,347.2 958,357.3 1129,256.8 "/>
<rect x="239.3" y="213.2" transform="matrix(0.5374 -0.8433 0.8433 0.5374 -142.6706 347.2611)" fill-rule="evenodd" clip-rule="evenodd" fill="#231F20" width="11.7" height="180.9"/>
<rect x="239.3" y="213.2" transform="matrix(0.5374 -0.8433 0.8433 0.5374 -142.6706 347.2611)" fill="#1C1C1B" width="11.7" height="180.9"/>
<rect x="873.8" y="208.1" transform="matrix(0.5315 -0.847 0.847 0.5315 156.9791 886.1452)" fill-rule="evenodd" clip-rule="evenodd" fill="#231F20" width="11.7" height="186"/>
<rect x="873.8" y="208.1" transform="matrix(0.5315 -0.847 0.847 0.5315 156.9791 886.1452)" fill="#1C1C1B" width="11.7" height="186"/>
<polygon fill="#231F20" points="1116.2,256.7 1273.8,355.6 1280,345.6 1122.4,246.7 "/>
<polygon fill="#1C1C1B" points="1116.2,256.7 1273.8,355.6 1280,345.6 1122.4,246.7 "/>
<polygon fill-rule="evenodd" clip-rule="evenodd" fill="#231F20" points="481.9,246.6 476.2,256.8 593.5,322.2 599.2,312 "/>
<polygon fill="#1C1C1B" points="481.9,246.6 476.2,256.8 593.5,322.2 599.2,312 "/>
<polygon fill-rule="evenodd" clip-rule="evenodd" fill="#231F20" points="802.8,248.4 692.2,315.4 698.3,325.5 808.9,258.4 "/>
<polygon fill="#1C1C1B" points="802.8,248.4 692.2,315.4 698.3,325.5 808.9,258.4 "/>
<rect x="143.8" y="134.4" fill="#231F20" width="11.7" height="134.1"/>
<rect x="143.8" y="134.4" fill="#1C1C1B" width="11.7" height="134.1"/>
<rect x="182.3" y="134.4" fill="#231F20" width="11.7" height="134.1"/>
<rect x="182.3" y="134.4" fill="#1C1C1B" width="11.7" height="134.1"/>
<rect x="457.2" y="132.7" fill="#231F20" width="11.7" height="134.1"/>
<rect x="457.2" y="132.7" fill="#1C1C1B" width="11.7" height="134.1"/>
<rect x="497.4" y="132.7" fill="#231F20" width="11.7" height="134.1"/>
<rect x="497.4" y="132.7" fill="#1C1C1B" width="11.7" height="134.1"/>
<path fill="#231F20" d="M168.2,109.4c-13.9,0-23.2-9.6-23.2-23.8l-0.1-52.2c0-14.5,9.3-24.2,23.2-24.2c14.2,0,23.7,9.6,23.7,24.1  l0.1,52.2C191.9,99.7,182.4,109.4,168.2,109.4z M168.3,117c19.2,0,32.2-12.8,32.2-32l-0.1-51.6c0-19-13.1-31.9-32.3-31.9  c-19,0-31.7,12.9-31.7,32l0.1,51.6C136.5,104.3,149.2,117,168.3,117z"/>
<path fill="#231F20" d="M485,107.8c-13.9,0-23.2-9.6-23.2-23.8l-0.1-52.2c0-14.5,9.3-24.2,23.2-24.2c14.2,0,23.7,9.6,23.7,24.1  l0.1,52.2C508.7,98.1,499.2,107.8,485,107.8z M485,115.4c19.2,0,32.2-12.8,32.2-32l-0.1-51.6c0-19-13.1-31.9-32.3-31.9  c-19,0-31.7,12.9-31.7,32l0.1,51.6C453.2,102.7,466,115.4,485,115.4z"/>
<path fill="#231F20" d="M642.6,391.1c-13.9,0-23.2-9.6-23.2-23.8l-0.1-52.2c0-14.5,9.3-24.2,23.2-24.2c14.2,0,23.7,9.6,23.7,24.1  l0.1,52.2C666.3,381.4,656.8,391,642.6,391.1z M642.6,398.6c19.2,0,32.2-12.8,32.2-32l-0.1-51.6c0-19-13.1-31.9-32.3-31.9  c-19,0-31.7,12.9-31.7,32l0.1,51.6C610.8,385.9,623.6,398.7,642.6,398.6z"/>
<g>
</g>
<g>
</g>
<g>
</g>
<g>
</g>
<g>
</g>
<g>
</g>
</svg>