<?xml version="1.0" encoding="UTF-8"?>
<!-- Generator: Adobe Illustrator 25.0.0, SVG Export Plug-In . SVG Version: 6.00 Build 0)  -->
<svg version="1.1" id="Layer_1" xmlns="http://www.w3.org/2000/svg" xmlns:xlink="http://www.w3.org/1999/xlink" x="0px" y="0px" viewBox="0 0 1280 302.1" enable-background="new 0 0 1280 302.1" xml:space="preserve">
<path fill="#231F20" d="M105.9,178.4l0.1,37.5l-0.5,0.5L73,216.5l-0.5-0.5l-0.1-37.5l-1.2-1.2l-4,0l-1.2,1.2l0.1,81.8l1.2,1.2l4,0  l1.2-1.2l-0.1-37.7l0.5-0.5l32.5-0.1l0.5,0.5l0.1,37.7l1.2,1.2l4,0l1.2-1.2l-0.1-81.8l-1.2-1.2l-4,0L105.9,178.4z M23.6,262.5  c14.2,0,23.6-9.1,23.5-22.9l0-1.1l-1.2-1.1l-4-0.2l-1.2,1.2l0,1.4c0,10.2-6.8,17-17.2,17c-10.2,0-17.1-6.7-17.1-16.9l-0.1-41  c0-10.1,6.8-16.9,17.1-16.9c10.3,0,17.2,6.7,17.2,16.8l0,1.7l1.2,1.2l4-0.2l1.2-1.3l0-1.1c0-13.7-9.4-22.7-23.6-22.7  C9.3,176.3,0,185.4,0,199.2l0.1,40.3C0.1,253.4,9.5,262.5,23.6,262.5z"/>
<path fill="#231F20" d="M150.8,277.9c-1.5-4.1-4.7-6.4-9.2-6.4l-0.1-0.4l10.2-14l0.3-0.9v-3.2l-0.7-0.7H128l-0.7,0.7v2.9l0.7,0.7  h17.5l0.1,0.4l-10.9,14.6l0.1,1l1.8,2l1,0.2l2-0.5c3.2,0,5.5,1.8,6.7,5c0.7,1.8,1.1,4.1,1.1,6.9c0,2.3-0.3,4.3-0.7,6  c-1.1,3.6-3.5,5.5-7,5.5c-3.9,0-6.4-2.4-7.2-6.2c-0.3-1.1-0.4-2.7-0.5-4.1l-0.7-0.7h-3.6l-0.7,0.7c0.1,1.8,0.2,3.6,0.6,5.3  c1.3,5.7,5.7,9.4,12.1,9.4c5.7,0,9.6-2.7,11.4-7.9c0.8-2.1,1.2-4.7,1.2-7.6C152.2,283.1,151.7,280.2,150.8,277.9z"/>
<path fill="#231F20" d="M344.9,178.2l0.1,37.5l-0.5,0.5l-32.5,0.1l-0.5-0.5l-0.1-37.5l-1.2-1.2l-4,0l-1.2,1.2l0.1,81.8l1.2,1.2l4,0  l1.2-1.2l-0.1-37.7l0.5-0.5l32.5-0.1l0.5,0.5L345,260l1.2,1.2l4,0l1.2-1.2l-0.1-81.8l-1.2-1.2l-4,0L344.9,178.2z M262.5,262.2  c14.2,0,23.6-9.1,23.5-22.9l0-1.1l-1.2-1.1l-4-0.2l-1.2,1.2l0,1.4c0,10.2-6.8,17-17.2,17c-10.2,0-17.1-6.7-17.1-16.9l-0.1-41  c0-10.1,6.8-16.9,17.1-16.9c10.3,0,17.2,6.7,17.2,16.8l0,1.7l1.2,1.2l4-0.2l1.2-1.3l0-1.1c0-13.7-9.4-22.7-23.6-22.7  c-14.1,0-23.5,9.1-23.4,22.9l0.1,40.3C239,253.1,248.4,262.3,262.5,262.2z"/>
<path fill="#231F20" d="M367,301.3h25l0.7-0.7v-2.9l-0.7-0.7h-19.1l-0.2-0.3c4.3-6,8.7-12,12.8-17.9c3.8-5.5,5.7-10.3,5.7-14.6  c0-7.3-4.9-12.4-12.5-12.4c-7.3,0-12.3,4.8-12.5,12v2.8l0.7,0.7h3.6l0.7-0.7V264c-0.1-4.8,2.9-8.1,7.4-8.1c4.6,0,7.6,3.2,7.6,8.1  c0,3.4-2,7.8-5.5,12.9c-4.5,6.4-9.2,13-14.1,19.6l-0.3,0.9v3.1L367,301.3z"/>
<path fill="#231F20" d="M788.3,177.7l0.1,37.5l-0.5,0.5l-32.5,0.1l-0.5-0.5l-0.1-37.5l-1.2-1.2l-4,0l-1.2,1.2l0.1,81.8l1.2,1.2l4,0  l1.2-1.2l-0.1-37.7l0.5-0.5l32.5-0.1l0.5,0.5l0.1,37.7l1.2,1.2l4,0l1.2-1.2l-0.1-81.8l-1.2-1.2l-4,0L788.3,177.7z M705.9,261.8  c14.2,0,23.6-9.1,23.5-22.9l0-1.1l-1.2-1.1l-4-0.2l-1.2,1.2l0,1.4c0,10.2-6.8,17-17.2,17c-10.2,0-17.1-6.7-17.1-16.9l-0.1-41  c0-10.1,6.8-16.9,17.1-16.9c10.3,0,17.2,6.7,17.2,16.8l0,1.7l1.2,1.2l4-0.2l1.2-1.3l0-1.1c0-13.7-9.4-22.7-23.6-22.7  c-14.1,0-23.4,9.1-23.4,22.9l0.1,40.3C682.4,252.7,691.8,261.8,705.9,261.8z M582.1,177.9l0.1,37.5l-0.5,0.5l-32.5,0.1l-0.5-0.5  l-0.1-37.5l-1.2-1.2l-4,0l-1.2,1.2l0.1,81.8l1.2,1.2l4,0l1.2-1.2l-0.1-37.7l0.5-0.5l32.5-0.1l0.5,0.5l0.1,37.7l1.2,1.2l4,0l1.2-1.2  l-0.1-81.8l-1.2-1.2l-4,0L582.1,177.9z M499.8,262c14.2,0,23.6-9.1,23.5-22.9l0-1.1l-1.2-1.1l-4-0.2l-1.2,1.2l0,1.4  c0,10.2-6.8,17-17.2,17c-10.2,0-17.1-6.7-17.1-16.9l-0.1-41c0-10.1,6.8-16.9,17.1-16.9c10.3,0,17.2,6.7,17.2,16.8l0,1.7l1.2,1.2  l4-0.2l1.2-1.3l0-1.1c0-13.7-9.4-22.7-23.6-22.7c-14.1,0-23.5,9.1-23.4,22.9l0.1,40.3C476.3,252.9,485.7,262,499.8,262z"/>
<path fill="#231F20" d="M810.4,300.8h25l0.7-0.7v-2.9l-0.7-0.7h-19.1l-0.2-0.3c4.3-6,8.7-12,12.8-17.9c3.8-5.5,5.7-10.3,5.7-14.6  c0-7.3-4.9-12.4-12.5-12.4c-7.3,0-12.3,4.8-12.6,12v2.8l0.7,0.7h3.6l0.7-0.7v-2.4c-0.1-4.8,2.9-8.1,7.4-8.1c4.6,0,7.6,3.2,7.6,8.1  c0,3.4-2,7.8-5.5,12.9c-4.5,6.4-9.2,13-14.1,19.6l-0.3,0.9v3.1L810.4,300.8z"/>
<path fill="#231F20" d="M1233.7,177.3l0.1,37.5l-0.5,0.5l-32.5,0.1l-0.5-0.5l-0.1-37.5l-1.2-1.2l-4,0l-1.2,1.2l0.1,81.8l1.2,1.2l4,0  l1.2-1.2l-0.1-37.7l0.5-0.5l32.5-0.1l0.5,0.5l0.1,37.7l1.2,1.2l4,0l1.2-1.2l-0.1-81.8l-1.2-1.2l-4,0L1233.7,177.3z M1151.4,261.4  c14.2,0,23.6-9.1,23.5-22.9l0-1.1l-1.2-1.1l-4-0.2l-1.2,1.2l0,1.4c0,10.2-6.8,17-17.2,17c-10.2,0-17.1-6.7-17.1-16.9l-0.1-41  c0-10.1,6.8-16.9,17.1-16.9c10.3,0,17.2,6.7,17.2,16.8l0,1.7l1.2,1.2l4-0.2l1.2-1.3l0-1.1c0-13.7-9.4-22.7-23.6-22.7  c-14.1,0-23.4,9.1-23.4,22.9l0.1,40.3C1127.9,252.3,1137.3,261.4,1151.4,261.4z M1027.6,177.5l0.1,37.5l-0.5,0.5l-32.5,0.1l-0.5-0.5  l-0.1-37.5l-1.2-1.2l-4,0l-1.2,1.2l0.1,81.8l1.2,1.2l4,0l1.2-1.2l-0.1-37.7l0.5-0.5l32.5-0.1l0.5,0.5l0.1,37.7l1.2,1.2l4,0l1.2-1.2  l-0.1-81.8l-1.2-1.2l-4,0L1027.6,177.5z M945.2,261.6c14.2,0,23.6-9.1,23.5-22.9l0-1.1l-1.2-1.1l-4-0.2l-1.2,1.2l0,1.4  c0,10.2-6.8,17-17.2,17c-10.2,0-17.1-6.7-17.1-16.9l-0.1-41c0-10.1,6.8-16.9,17.1-16.9c10.3,0,17.2,6.7,17.2,16.8l0,1.7l1.2,1.2  l4-0.2l1.2-1.3l0-1.1c0-13.7-9.4-22.7-23.6-22.7c-14.1,0-23.5,9.1-23.4,22.9l0.1,40.3C921.8,252.5,931.2,261.6,945.2,261.6z"/>
<path fill="#231F20" d="M1278.6,276.8c-1.5-4.1-4.7-6.5-9.2-6.5l-0.1-0.4l10.2-14l0.3-0.9V252l-0.7-0.7h-23.3l-0.7,0.7v2.9l0.7,0.7  h17.5l0.1,0.3l-10.9,14.6l0.1,1l1.8,2l1,0.2l2-0.5c3.2,0,5.5,1.8,6.7,5c0.7,1.8,1.1,4.1,1.1,6.9c0,2.3-0.3,4.3-0.7,6  c-1.1,3.6-3.5,5.5-7,5.5c-3.9,0-6.4-2.4-7.2-6.2c-0.3-1.1-0.4-2.7-0.5-4.1l-0.7-0.7h-3.6l-0.7,0.7c0.1,1.8,0.2,3.6,0.6,5.3  c1.3,5.7,5.7,9.4,12.1,9.4c5.7,0,9.6-2.7,11.4-7.9c0.8-2.1,1.2-4.7,1.2-7.6C1280,282,1279.5,279.1,1278.6,276.8z"/>
<path fill="#231F20" d="M1030.6,5.1l0.1,37.5l-0.5,0.5l-32.5,0.1l-0.5-0.5l-0.1-37.5L995.9,4l-4,0l-1.2,1.2l0.1,81.8l1.2,1.2l4,0  l1.2-1.2l-0.1-37.7l0.5-0.5l32.5-0.1l0.5,0.5l0.1,37.7l1.2,1.2l4,0l1.2-1.2l-0.1-81.8l-1.2-1.2l-4,0L1030.6,5.1z M921.3,88.3l3.9,0  l1.2-1.2l-0.1-67.7l0.6-0.2l34.8,68.3l1.4,0.8l4.1,0l1.2-1.2l-0.1-81.8L967.1,4l-3.9,0L962,5.2l0.1,67.9l-0.6,0.1L926.6,4.9L925.2,4  l-4,0L920,5.2l0.1,81.8L921.3,88.3z"/>
<path fill="#231F20" d="M1052.7,128.2h25l0.7-0.7v-2.9l-0.7-0.7h-19.1l-0.2-0.4c4.3-6,8.7-12,12.8-17.9c3.8-5.5,5.7-10.3,5.7-14.6  c0-7.3-4.9-12.4-12.5-12.4c-7.3,0-12.3,4.8-12.5,12v2.8l0.7,0.7h3.6l0.7-0.7V91c-0.1-4.8,2.9-8.1,7.4-8.1c4.6,0,7.6,3.2,7.6,8.1  c0,3.4-2,7.8-5.5,12.9c-4.5,6.4-9.2,13-14.1,19.6l-0.3,0.9v3.1L1052.7,128.2z"/>
<path fill="#231F20" d="M586,2.1l0.1,37.5l-0.5,0.5l-32.5,0.1l-0.5-0.5l-0.1-37.5l-1.2-1.2l-4,0l-1.2,1.2l0.1,81.8l1.2,1.2l4,0  l1.2-1.2l-0.1-37.7l0.5-0.5l32.5-0.1l0.5,0.5l0.1,37.7l1.2,1.2l4,0l1.2-1.2l-0.1-81.8l-1.2-1.2l-4,0L586,2.1z M502.3,80.5  c-10.3,0-17.3-7.2-17.4-17.8l-0.1-39c0-10.8,7-18.1,17.3-18.1c10.6,0,17.7,7.2,17.7,18l0.1,39C520,73.3,512.9,80.5,502.3,80.5z   M502.3,86.2c14.3,0,24.1-9.5,24-23.9l-0.1-38.5c0-14.2-9.8-23.8-24.1-23.8c-14.2,0-23.7,9.7-23.7,23.9l0.1,38.5  C478.6,76.7,488.1,86.2,502.3,86.2z"/>
<rect x="160.4" y="216.4" fill="#231F20" width="65.3" height="9.1"/>
<rect x="160.4" y="216.4" fill="#25221E" width="65.3" height="9.1"/>
<rect x="395.9" y="214.8" fill="#231F20" width="65.3" height="7.6"/>
<rect x="395.9" y="214.8" fill="#25221E" width="65.3" height="7.6"/>
<rect x="601" y="214.8" fill="#231F20" width="65.3" height="7.6"/>
<rect x="601" y="214.8" fill="#25221E" width="65.3" height="7.6"/>
<rect x="836.4" y="213.3" fill="#231F20" width="65.3" height="7.6"/>
<rect x="836.4" y="213.3" fill="#25221E" width="65.3" height="7.6"/>
<rect x="1046.1" y="213.3" fill="#231F20" width="65.3" height="7.6"/>
<rect x="1046.1" y="213.3" fill="#25221E" width="65.3" height="7.6"/>
<rect x="496.1" y="99.3" fill="#231F20" width="7.6" height="65.4"/>
<rect x="496.1" y="99.3" fill="#25221E" width="7.6" height="65.4"/>
<rect x="939.7" y="99.3" fill="#231F20" width="7.6" height="65.4"/>
<rect x="939.7" y="99.3" fill="#25221E" width="7.6" height="65.4"/>
<g>
</g>
<g>
</g>
<g>
</g>
<g>
</g>
<g>
</g>
<g>
</g>
</svg>