<?xml version="1.0" encoding="UTF-8"?>
<!-- Generator: Adobe Illustrator 25.0.0, SVG Export Plug-In . SVG Version: 6.00 Build 0)  -->
<svg version="1.1" id="Layer_1" xmlns="http://www.w3.org/2000/svg" xmlns:xlink="http://www.w3.org/1999/xlink" x="0px" y="0px" viewBox="0 0 1280 722.1" enable-background="new 0 0 1280 722.1" xml:space="preserve">
<path fill="#231F20" d="M1211.7,546.3l0.1,53.6l-0.7,0.7l-46.4,0.1l-0.7-0.7l-0.1-53.6l-1.7-1.7l-5.7,0l-1.7,1.7l0.2,116.9l1.7,1.7  l5.7,0l1.7-1.7l-0.1-53.8l0.7-0.7l46.4-0.1l0.7,0.7l0.1,53.8l1.7,1.7l5.7,0l1.7-1.7l-0.2-116.9l-1.7-1.7l-5.7,0L1211.7,546.3z   M1094,666.4c20.3,0,33.7-12.9,33.7-32.7l0-1.5l-1.7-1.5l-5.7-0.3l-1.7,1.7l0,2.1c0,14.6-9.8,24.3-24.6,24.3  c-14.6,0-24.4-9.6-24.4-24.2l-0.1-58.6c0-14.4,9.8-24.1,24.4-24.1c14.8,0,24.6,9.6,24.6,24l0,2.4l1.7,1.7l5.7-0.4l1.7-1.9l0-1.5  c0-19.6-13.5-32.5-33.7-32.4c-20.1,0-33.5,12.9-33.5,32.7l0.1,57.6C1060.4,653.4,1073.9,666.4,1094,666.4z"/>
<path fill="#231F20" d="M1243.4,722.1h35.6l1-1v-4.2l-1-1h-27.2l-0.3-0.5c6.2-8.6,12.4-17.1,18.2-25.6c5.4-7.9,8.2-14.7,8.2-20.8  c0-10.4-7-17.7-17.8-17.7c-10.4,0-17.6,6.8-17.9,17.1v4l1,1h5.2l1-1V669c-0.1-6.9,4.1-11.5,10.5-11.5c6.5,0,10.9,4.6,10.9,11.5  c0,4.9-2.9,11.1-7.9,18.4c-6.4,9.1-13.1,18.5-20.1,28l-0.4,1.3v4.4L1243.4,722.1z"/>
<polygon fill="#231F20" points="56.9,3.2 57,56.8 56.3,57.5 9.9,57.6 9.2,56.9 9.1,3.3 7.4,1.5 1.7,1.6 0,3.3 0.2,120.2 1.9,121.9   7.6,121.9 9.3,120.2 9.2,66.4 9.9,65.7 56.3,65.6 57,66.3 57.1,120.1 58.8,121.8 64.5,121.8 66.2,120.1 66,3.2 64.3,1.5 58.6,1.5   "/>
<path fill="#231F20" d="M121,145.4c-2.2-5.9-6.7-9.2-13.1-9.2l-0.2-0.5l14.6-19.9l0.4-1.3V110l-1-1H88.4l-1,1v4.2l1,1h24.9l0.2,0.5  l-15.5,20.8l0.1,1.4l2.5,2.8l1.4,0.3l2.9-0.7c4.6,0,7.8,2.5,9.5,7.1c1,2.6,1.5,5.9,1.5,9.9c0,3.3-0.4,6.2-1,8.5  c-1.6,5.1-5,7.8-10,7.8c-5.5,0-9.1-3.4-10.3-8.9c-0.4-1.6-0.6-3.9-0.7-5.9l-1-1h-5.1l-1,1c0.1,2.5,0.3,5.2,0.9,7.6  c1.9,8.2,8.2,13.4,17.2,13.4c8.1,0,13.7-3.9,16.3-11.2c1.1-3,1.7-6.7,1.7-10.9C123,152.8,122.3,148.6,121,145.4z"/>
<path fill="#231F20" d="M174.9,123.1c20.3,0,33.7-12.9,33.7-32.7l0-1.5l-1.7-1.5l-5.7-0.3l-1.7,1.7l0,2.1c0,14.6-9.8,24.3-24.6,24.3  c-14.6,0-24.4-9.6-24.4-24.2l-0.1-58.6c0-14.4,9.8-24.1,24.4-24.1c14.8,0,24.6,9.6,24.6,24l0,2.4l1.7,1.7l5.7-0.4l1.7-1.9l0-1.5  c0-19.6-13.5-32.5-33.7-32.4c-20.1,0-33.5,12.9-33.5,32.7l0.1,57.6C141.4,110.1,154.8,123.1,174.9,123.1z"/>
<rect x="395.3" y="204.8" fill="#231F20" width="12" height="276.7"/>
<rect x="395.3" y="204.8" fill="#231F20" width="12" height="276.7"/>
<rect x="843.9" y="199.7" fill="#231F20" width="12" height="276.7"/>
<rect x="843.9" y="199.7" fill="#231F20" width="12" height="276.7"/>
<polygon fill="#231F20" points="631.1,67.3 399.1,204.8 405.2,215.2 637.3,77.7 "/>
<polygon fill="#231F20" points="631.1,67.3 399.1,204.8 405.2,215.2 637.3,77.7 "/>
<polygon fill="#231F20" points="851.1,466.1 617.4,605.3 623.5,615.7 857.3,476.4 "/>
<polygon fill="#231F20" points="851.1,466.1 617.4,605.3 623.5,615.7 857.3,476.4 "/>
<rect x="733" y="9.3" transform="matrix(0.4951 -0.8689 0.8689 0.4951 253.4349 711.6988)" fill="#231F20" width="12" height="257.1"/>
<rect x="733" y="9.3" transform="matrix(0.4951 -0.8689 0.8689 0.4951 253.4349 711.6988)" fill="#231F20" width="12" height="257.1"/>
<polygon fill="#231F20" points="403.4,474.6 397.4,485.1 624.3,615.7 630.3,605.3 "/>
<polygon fill="#231F20" points="403.4,474.6 397.4,485.1 624.3,615.7 630.3,605.3 "/>
<rect x="310.2" y="63.3" transform="matrix(0.5097 -0.8603 0.8603 0.5097 17.9926 350.1527)" fill="#231F20" width="12" height="191.9"/>
<rect x="310.2" y="63.3" transform="matrix(0.5106 -0.8598 0.8598 0.5106 17.7906 349.8368)" fill="#231F20" width="12" height="191.9"/>
<rect x="928.1" y="418" transform="matrix(0.4788 -0.8779 0.8779 0.4788 33.146 1089.4381)" fill="#231F20" width="12" height="197.7"/>
<rect x="928.1" y="418" transform="matrix(0.4788 -0.8779 0.8779 0.4788 33.146 1089.4381)" fill="#231F20" width="12" height="197.7"/>
<g>
</g>
<g>
</g>
<g>
</g>
<g>
</g>
<g>
</g>
<g>
</g>
</svg>