<?xml version="1.0" encoding="UTF-8"?>
<!-- Generator: Adobe Illustrator 25.0.0, SVG Export Plug-In . SVG Version: 6.00 Build 0)  -->
<svg version="1.1" id="Layer_1" xmlns="http://www.w3.org/2000/svg" xmlns:xlink="http://www.w3.org/1999/xlink" x="0px" y="0px" viewBox="0 0 968.8 1000" enable-background="new 0 0 968.8 1000" xml:space="preserve">
<g>
	<path fill="#84D1E6" d="M929.5,0H59C37.2,0,19.6,17.6,19.6,39.4v921.3c0,21.7,17.6,39.3,39.4,39.3h870.5   c21.7,0,39.4-17.6,39.4-39.3V39.4C968.8,17.6,951.2,0,929.5,0"/>
	<path fill="#231F20" d="M205,466.8h12.5V304H205V466.8z M265.8,466.8h12.5V304h-12.5V466.8z"/>
</g>
<path fill="#231F20" d="M752.4,644.1v91.3l-1.2,1.2h-79l-1.2-1.2v-91.3l-2.9-2.9h-9.7l-2.9,2.9V843l2.9,2.9h9.7l2.9-2.9v-91.6  l1.2-1.2h79l1.2,1.2V843l2.9,2.9h9.7l2.9-2.9V644.1l-2.9-2.9h-9.7L752.4,644.1z M549.9,834.5c-25.2,0-42.1-17.6-42.1-43.3v-94.8  c0-26.3,17-43.9,42.1-43.9c25.7,0,43,17.6,43,43.9v94.8C592.9,817,575.7,834.5,549.9,834.5z M549.9,848.3  c34.8,0,58.5-23.1,58.5-57.9v-93.6c0-34.5-23.7-57.9-58.5-57.9c-34.5,0-57.6,23.4-57.6,57.9v93.6  C492.3,825.1,515.4,848.3,549.9,848.3z"/>
<path fill="#231F20" d="M240.3,261.5c-25.2,0-42.1-17.6-42.1-43.3v-94.8c0-26.3,17-43.9,42.1-43.9c25.7,0,43,17.6,43,43.9v94.8  C283.3,244,266,261.5,240.3,261.5z M240.3,275.3c34.8,0,58.5-23.1,58.5-57.9v-93.6c0-34.5-23.7-57.9-58.5-57.9  c-34.5,0-57.6,23.4-57.6,57.9v93.6C182.7,252.2,205.8,275.3,240.3,275.3z"/>
<path fill="#231F20" d="M241.5,697.6c34.5,0,57.3-21.9,57.3-55.6v-2.6l-2.9-2.6l-9.7-0.6l-2.9,2.9v3.5c0,24.9-16.7,41.3-41.8,41.3  c-24.9,0-41.5-16.4-41.5-41.3v-99.8c0-24.6,16.7-41,41.5-41c25.2,0,41.8,16.4,41.8,41v4.1l2.9,2.9l9.7-0.6l2.9-3.2v-2.6  c0-33.4-22.8-55.3-57.3-55.3c-34.2,0-57,21.9-57,55.6v98C184.4,675.3,207.2,697.6,241.5,697.6z"/>
<polygon fill-rule="evenodd" clip-rule="evenodd" fill="#231F20" points="317.3,617.1 323.9,606.4 462.5,692 455.9,702.7 "/>
<polygon fill-rule="evenodd" clip-rule="evenodd" fill="#231F20" points="145.1,612.8 138.6,602.1 0,687.7 6.6,698.4 "/>
<g>
</g>
<g>
</g>
<g>
</g>
<g>
</g>
<g>
</g>
<g>
</g>
</svg>