<?xml version="1.0" encoding="UTF-8"?>
<!-- Generator: Adobe Illustrator 23.1.0, SVG Export Plug-In . SVG Version: 6.00 Build 0)  -->
<svg version="1.1" id="Layer_1" xmlns="http://www.w3.org/2000/svg" xmlns:xlink="http://www.w3.org/1999/xlink" x="0px" y="0px" viewBox="0 0 1269.504 1000" enable-background="new 0 0 1269.504 1000" xml:space="preserve">
<g>
	<defs>
		<rect id="SVGID_1_" width="1269.504" height="1000"/>
	</defs>
	<clipPath id="SVGID_2_">
		<use xlink:href="#SVGID_1_" overflow="visible"/>
	</clipPath>
	<g transform="matrix(1 0 0 1 0 0)" clip-path="url(#SVGID_2_)">
		
			<image overflow="visible" width="827" height="680" xlink:href="data:image/jpeg;base64,/9j/4AAQSkZJRgABAgEALQAtAAD/7AARRHVja3kAAQAEAAAAHgAA/+4AIUFkb2JlAGTAAAAAAQMA EAMCAwYAABQBAAAoVQAAW6X/2wCEABALCwsMCxAMDBAXDw0PFxsUEBAUGx8XFxcXFx8eFxoaGhoX Hh4jJSclIx4vLzMzLy9AQEBAQEBAQEBAQEBAQEABEQ8PERMRFRISFRQRFBEUGhQWFhQaJhoaHBoa JjAjHh4eHiMwKy4nJycuKzU1MDA1NUBAP0BAQEBAQEBAQEBAQP/CABEIAqUDNwMBIgACEQEDEQH/ xADqAAEAAgMBAQAAAAAAAAAAAAAABgcDBAUCAQEBAAMBAQEAAAAAAAAAAAAAAAIDBAEFBhAAAAYA BQMCBAYDAAMAAAAAAQIDBAUGACAwQAdQERIQE2AxFBUhIjIjFheAJCVwNDURAAIBAgIFBggLBQYE BgMAAAECAxEEACExQVESBTBhcYEiEyBAkaGxMkJSUMHRYnKCkqIjFAYQssIzFWDhQ1OTJPDSc9OA g7PDNCVjozUSAAECAgYHBQYFBQAAAAAAAAERAgAhECBAUDFRMEFhcYESIpGh0VIDMkJykhMzYHCA wYKx4WKiI//aAAwDAQACEQMRAAAAsAAAAAAAAAAAAAAAAAAAAAAAAAAAAAAAAAAAAAAAAAAAAAAA AAAAAAAAAAAAAAAAAAAAAAAAAAAAAAAAAAAAAAAAAAAAAwmZyMB3nB2jqPHsAAAAAAAAAAAAAAAA APmib7g6xJ0UykmcLfN58+gAAAAAAAAAAAAAAAAAAAAAAA5J1tWB5Td5ku7BXWawBC8svEQwTYV7 iscV12ZXHzuZa6ylgNPcAAAAAAAAAAABgM+OC6p2+FLe4V1vzcRjZ7w4fjviL86ciusVleCNSbgR YspBJsZQAAAAAAAAAAAAAAAAAAAMHLhhtbkq3jBnAAAAAABo7wr3YnXGOv6rCwDfAAAAAAAAA84K +OzyZLIjR3gAAAAAAA50Hsn4RaUxbiFisOYAAAAAAAAAAAAAAAAA+RT5gNaefQAAAAAAAAABiruy fJx+1XEtO0AAAAAABqeq5FhZdgAAAAAAAAAAczpisbGx14Wew5gAAAAAAAAAAAAAABH+tXxvzz59 AAAAAAAAAAAAPFb2XgMG9WVlnoAAAADx7gJoWFpdgAAAAAAAAAAAAaG+K2sjg8omgAAAAAAAAAAA AABxCKzqLTQAAAAAAAAAAAAAA4XHmtdliNTbAAAB8OPH+bY5kAAAAAAAAAAAAAAr6wdc1+hXFjgA AAAAAAAAAAACtZzFib+wAAAAAAAAAAAAAAaG+IDPq4sQ9gAAcPuVydWY4soAAAAAAPh9efp9AAAA AABBJVmhRYAAAAAAAAAAAAAIHLoLZAAAAAAAa8Xhol2GvcVXoWPmrLKWUh0ot8/ZE84AAAAEaydy BlggAAxV/Jtck4AAAABgdy8LhczP7HU5+NT6Xva0jsmkNcZrMFkuZ09Pih2AAAACt7IhZM/vL6gA AAAAAAAAAA8e+URCxIZMwAAAABzdqv6t3zCZffB0BlxHJ11a0sHV4O0LcAAAACuLHrosV59AAEIl cJsE+gAAAA+QTvQ7P7IUeqAABln9d9q3BNRq8AAAAByOviIpMK9sIAAAAAAAAAAAR2RRUzyPh9wA AAAHwikc2NfF9QEbgAAHd4WTtVlvPrd8sAAAAgE/gxMs+jvAAFd2JXdiAAAAA+EF5ebDh+qDlgAA D15FlZeb0t3ygdgAAABXNjV1YoAAAAAAAAAAAikrjhn7kdkQAAAAxZcXO1q+/MP1oAAAAFi7Wts7 vlA7AAABB5xASX7+vsAAFd2JXlhgAAAD59FaY+hz8P1YcmAAABO+pr7G75UO1gAAD4V3Ytc2MAAA AAAAAAAAOT1sZEZlXdiAAAAD59FdasnjGL6cI3gAAMuKQyplv02/LgAAAK6sWuCxfQAAV9YENkR0 QAAAARqK2VX2b3NYU+kAAA6XOnVmTp/TX84AAAA19jhEdn8UlYAAAAfNY2nOxnVcrIdFq7J9AAAB W9kQCaG2AAAADFX9i6Ne2vmxr5PoAdAGdxYOt0NXgBbhAAAAxwCReCSAAA43KllclkAAAAAaG+5K t8FkRfN7kfZMdW8fXfn3pyizHoyE0+EEqgAAAEFnVbE63/n0GmbiD84nPB1JKQ75YnorPenwhvuX iIeJkIDo2YK59WJ5Ip3sMaJz9rbpE3au0cuOTetCy3n0AAAAAYY1K0b671LOx1b612rAyEUk2Zbg CVAAAAA0iDWFA7AAAAFfWDzTY2oJOwAAAAADxqbzkuftZjodgAAAAABzIzqzQ39CI+DH7m+0c3pA AAAAAAAA5fUFefbC0zzzo7kN2YVlYxnAAAAAAAAAAAAAAr2Vxsl26AAAAFcz3FCSxHz6AAAAAAAA AAAAAOd0KqMe70Z0c3qAAAAPh9a3tzM+fXR8Prm6vY9xhzckAAA5XVFTbVlwHkJNh4aGeYb0ClUr umJWgAAAAAAAAAMfuuTBZWh0wAAAABEZd8IvKa8lZ2AAAAAAAAAAANTJDI19LxzEM+LuciWzv6Il aAAABig/TiluZ9+J0yaXVXK69Ephe7EgLM+efV13I2zkU6gAAOfEZdEa8wRqb+h0Oylwt2AAAAAA AAAPPmvz1JPnfAAAAAAAPFcWV4Ob1a4lB3wAAAAAAAAAcWNyiL15QjW6/I7fZyMW6wADxEyXcOJd o4etL4hdkCVbu8SxoXRmO2jXTumJ0Ohz+/ycz91vv0bJywZwADzEJj45CCJHihn4WtOedK7qbVJz yVswePYAAAAAANc2OZFfBpTfoZgAAAAAAAADzCJyILN+TDiykWk56AAAAAAPJ6xReLHQ2OdZvIQN K/EKY7MPeWVoSsHk9R+P7xxZb3fR8+h8i0qdjWmSxk6uH3SFzU23EL1p6nXwO99RscrqudrftyyN El+1vYJnAAABDNCwa4G9L9cyb0I0yxFc7pOUSyEpRbCS9A9QsblRPoGh4nO2cvqAAAAAAAAAAAA+ fRG4vZnwg8oRgm/2tcpYqvdsm6GYicK98FicyE9Y1tGaa3Yox2/Dsn2DnQABiPlc/J6YOuAAAAAA AAAAGlXtn4TX3qwsI3QAANHdg8ocvd5S3NKJTV3djZNtXb+1aORh7o4efqjW2PoAAAAAAAAAAAAA AAAAfPow6vQHN974xZPoczpwSVfKxF2R3eEdtT7zujRtDnQPlcdPpnQ6QAAAAAAAAAAAAYK4s7nG 3mrmxgADHWFo1nZRgFmd78bDtle/n3PuAAAAAAAAAAAAAAAAAAAAAAAAV/YHBlXCBdkG+7Mer490 bQ51zujWxsWBhzgAAAABr8+qzsI5iotlCMZyQOX0NFOQWQAAAAiG/wB+tCzHn0AI7InY1Z5snQso g8yjc7jPaELgAAAAAAAAAAAAAAAAAAAAAAAHz6IN80bHlCJSbYc6HJAcqPak6M4AAABrc7k4mli8 veGTSAA9eR2+tDt7dkkjx79LCAAAjkj+EWlVa2UAAAcXlS2vSxAAAAAAAAAAAAAAAAAAAAAAAAAP PrnEJseEzYAAePfDIpY8SloAAABii+3z/K9EMmgAAAADfkUO72/H1B6OIAACCyrFwSZgAAV5YcGJ x91NsAAAAAAAAAAAAAAAAAAAAAAAARiTwg68g5/QAAEFnVck43vn0AAAam3wqbeUPF9QAAAAABlx O8mHrQ3/AHPJCcQAPNdWPXJYwAAEYk/JNSQw6YgAAAAAAAAAAAAAAAAAAAAAAACv7Arsnufz6AAF c2NXRYoAAAEWlMQw6/A83cAAAAAAB2O1H5B6/mhpoAAVzY1elg/fHsAAam3gIXO6/sAAAAAAAAAA AAAAAAAAAAAAAAAVzY1eFhffPoAAV1YtcljAAAARCXxfDr1R5u4AAAAAADpSDi9r1/NDTQAAr6wa 6LByfPoAAxZdcg1gwCfgAAAAAAAAAAAAAAAAAAAAAAACAz6GEr2OZ0wABXNjV+T/AO4M4AAA4Xd1 KbYwPF9QAAAAAAZe87+959e75ISiAArmxa5LHAAA0t3inAnMSloAAAAAAAAAAAAAAAAAAAAAAAAj si0zjSWBzwAAReUaxyJBX9gAAAAEc0JbF/J9HEMugAAAAB3tCRb8f0ejiAAA1YX0t47wAAEUlcDJ B3NfYAAAAAAAAAAAAAAAAAAAAAAAAHz6K4seubDPYAAK4saM5SRAAAAa2y52J4ZbxPL380ZNIAA9 njf3Otvx+fZ6OIAAAc8g1jwWeAAACu7AgBYX0AAAAAAAAAAAAAAAAAAAAAAAAAIvm7tfFjAAA8Vt ZkXJP9i0pAAAAHz6MHO7CqyPYZOotjOfvuuX0fa+kLIAAAAK7l8aJhtAAABG/MesMyAAAAAAAAAA AAAAAAAAAAAAAAAAV3YnLNzYr+Q9j32ts8kA+fRWs/V8WY8ewAAAAAAAAAAAB59V8aVlcvsAAADV 2oIYLC5vSAAAAAAAAAAAAAAAAAAAAAAAAAAPkNktcWUBZnyT6vevGyfCnWA5XVFb2Nx4gWSx5AAA AAAAAAAA+QU9dPFKwAAeD7zYpybM88ifP6BYrDmr0AAAAAAAAAAAAAAAAAAAAAAAAAAcyvbTruzP oCyh0ubMeTkgo2AAOX1BWU+2IAWMhkxPQAAAAAAB8PuvwI2epR094AAAcHvRmUIgLsYEslMOmNOs I2AAAAAAAAAAAAAAAAAAAAAAAAANfYEQ0p4nVE+VYMWjZKUMmfOgAAAcGJ2V8IdLObFiwVa9Ymjh dYzvHo+vPgyuPyCX+K5yHdjkr7xF5T9AAAADS3IW5wfMk1rsvE+9mRnvqlWoOdAAAAAAAAAAAAAA AAAAAAAAAAAAAAhWzK4STdDfkoTNX/X7GUvPqFoAAHzndIRTmT4V59sIV5kn4h/a6w8ewAAAAAfE QPeHzNQAAAAAAAAAAAAAAAAAAAAAAAAAAAAAAAB8+6bkB1DRiByTS+tLKq0/RC4AAAAAAAAAA+RP sZUrJOq0PMS4cLd7odHuckAAAAAAAAAAAAAAAAAAAAAAAAAAAAAAAAAw5hVviYRC/F8MvY5bJinA p12YjcjjZ9AAAAAAAAABwYRJozdkCVabwiVRtlYp1AAAAAAAAAAAAAAAAAAAAAAAAAAAAAAAAAAf NLeOcXpbDvHn05KJ8GyvhD5VyoyWErnok1cromQAAABi5x1kI0CfxTnygh2rakRsojLIsoxzzmSu u/6K7wAAAAAAAAAAAAAAAAAAAAAAAAAAAAAAAAAAAAAAPnJ64h3MsQV39sMVz8sXyV59sL0V98sQ V505gOT1foAAx/fYAAAAAAAAAAAAAAAAAAAAAAAAAAAAAAAAAAAAAAAAAAAAAAAAAAAAAAAAAAAA AAAAAAAAAAAAAAAAAAAAAAAAAAAAAAAAAAAAAAAAAAAAAAAAAAAAAAAAAAAAAAA//9oACAECAAEF AP8AMcyhS4FxgHGCqFNsRHtg6w4EwjgBEMFWMGAEBDcqqeIZElPLYLH/AByJH8Tbk5vI2QpvE2uY e45Sj3Ltx+WYvy1hDsOUodi7g5fE2QhfI2usTsORInkbcqp+QCHb1+eEk/ENcQAQOiIepEjGwUoF DdGIU2Bb4BvgpCl2YgA4AoB8Bdh9fEcwj2x5Dgpu/QDG7Y8hwU3fMQv4YOXCZfQ5e4ZD/PAfPfn+ eC/PKQe5cKD+CY/hgw9gyCHfHiOCl7dAEO+PAcAXtmAwhj3MCIj6e4OBER6KBRHAgIbYpe4gUAwY gdtyQO44EO4CHYdonvCD2H0Ee46B10iYF+lgH6Q4IsmfRARAQUDBj992BzBgTCOgYwFBd4c+QB7Y bvRDAD36a7X8zZmS49+luVPBLOAiApn8ydKkB/JoMh7odKkA/JoMg7IdKcp+aWcAERTJ4E6W7Q8D ZmSH49MMUDAuzOQfUAERbshHAB26edBI+BYJDgGKIYIkmTo/iPU0w9DF7htATwKe8TH0MPYNmT9X of8AVu/cNgREdoH4YA4DgTgGBHuO+AojgSCHUgwAdvRQPx0wKI49vAgIdEAe4YObuOmQPy4OH5eh gIhgTCOqQ3oc3/i//9oACAEDAAEFAP8AMdBostgsQGDRAYXaLI7EAERbRZQAiSZAMmQwOIxI4KJm TNuWDT3jAAAHoIAIP2fsm14tsAFySLYFUty2SBJHIukCqWuiQCJZVS+Cm3L+rMp289ZIwGTyrG8l dw1VBVDI4VBJHXi3AGTyPnAIo7li79g5TFMHoYwFB88982uQ5iGbSSagAICGHD9FIFljrH3SDpVE SS44PLjhd0ssOyKocuDKqG+Au4eoqEAcpzgUPdPhNXy6Aop449w+ElPLMsce+ETiOFjiHokcQNkX /Vgn6t+t+vCf68qodj4RAfJco98Jl7myKEAwe0fCaXj0A5AMHsnwmn45jEAwewGClAoCACAoFwUo FDognKGAMA7Y5/EBUMOE1R77lU3iXBTCAgPcNovvFiiJcAAiJQ7BoERUPgGamBaKBg6ZyaJigYBQ NgiPiO6MkQcFIUugUomFJsUuT54WagPTmyPgXM6R/DpaBPNTOIAIHL4m6UzD82g6Dsr0pmP5tB0P dXpSB/BTOIgAHN5G6W2W8y5nS34dMKYSik5KbIIgGFnQB1AiyhMA7UwLtQcHUOfo4nKAgID1JY4h 6JHEptoZce5Vx3i5R74TKJjbNX9Hoj+jdCHfAok7lKBQ2Yh3AyRgEqRhEAAA3xlClwCxR6kI9gER EcIGES6ZjgUPf/EpgMHQhwcolHCRPEumqPc+ERED9DEAHAEKGqsmIjhFMQ6n2+PP/9oACAEBAAEF AP8AIRZ02bgrbK6kI3irBgt3qxsIWaAcGTVSVL8OvZJgwI/5MjETGttzlyhT7pIFT4t74T4wiAx/ WcBgeM4DCvF8YIKcYOE8KQF+iSlvlmjTRvIsI8M3ct3Se+EQAF52FbYUu9XTE/IVaKP9j17BOQay YUrtV1RQmodyPUZezQ8OVW5WicUYccunZoypwMWOiYpTFkaNXX4uaVYINZhyFIsl46WjZRPcrrot kpHkaDbAS33KbU/id4kga8YsAKjx5WksFpFWLj+GVjBqPVjYX47rSuHfGLPt/Gr9GY/m9riFY/kK AeCmoRQnS3j1qwbSl1lph3DceEMZoyaMktaShouVJJUiWiF4HkIBMQ5FCbV29aMUZbkVVczWnWSf GNptfjylKUpdFRNNUknR4CQI4q1rrgxHI5QFs5bu0ukWK0MYFFlFWC6uYuHjolDZT1XjJtJNzYaM 9iJljMtNkYxSFsF9QamjadMzy8ZDx0Ujry0FGy6L6tT1Xc168spLACAh0W2XEkaFXpaq6hSgUNo4 boOUZmvyNUe1yys51rsH8g0jm0lNzVudVunMIUmzstHZygQ9ok666bOm7tDodwtxY4lPpwth25yF UJYq29rz2t2RrOtNaSkmkW0KSYvUnFxLGJbbWbgWE02bPJijyTF82ftug22yJwbGlVlRc+5UTIqS djHlRl4iVbSzHUkH7WOakTlL1MMWTZg128pFtJVm3Wk6NMNHbd6338i/bxrKvxrm2TYABQ3T1mg+ ax67qlWFNQihNJVVNFKTdvrtNRka1i2e5mYhrMMYCSeVOYAQMG+t8ivYJuMj28Yx3ltgSzUZQJ06 ield55d46rVfQg2G7ttcSmmFEsajgu9ts2ELEcewXstt9co9WDl4x+lJMNC0TZIWKoEEcd9eIhaL fwcqlLxu8sKh7Rb0Uk0Et9NxicrGceSSjZxnEewSqqlttiCKbdHev2SEgzqLxeAsG7n5IIqI41jB 9roFtRPBWhNQqiea3y/2mF47h/po7f8AI0WZMYCTLKxO65Nfm9uFjyxkVrGOQgGfsiYK/ZHwU5Dh rX2OB7A0iRF/X81zXUmbK3QTbIawmKGAOQdhKMSSMfx0+UbPN04/7XI2q8fNWSb+1uVsKunKw+iT lwiLC1u0AZSDV8nqOkCuG3G7kyD7K5XI3b0NueTntQ5yJlf2tohh1YpNyBnDg2AWWDDaXkWosref yaPmj0mrYCjA3YpgMXcKqERS44SM7l9SYmEo1F27XeLZmzlZqtCzaMknqJf8rkXLd3f0ta4+ZfTV /Tdu0GaEtNuZE+Zq7cM1YeZRkktTkxl7kZWnv10HuLO4+mr3GSAEh9N67SZNnrtZ640G7hZqtGv0 pBpp3ooNLQQ3kXJyc4H6OJbA1i9IxilLOSx5FzoNnKrVeNfpyDTTtbX6uv8AGroVYbcX1Twq9BSB OsadtfCdbSqj4UHunygn2wyOCjPJeO7u1adqkBbtNKsSAtn2m6S95txop7b3ccjm7Vylh2rGkIgA SC4uH2k3WMguQwHLpcoB/pQg94fJKiK3JWnZHIryukmcyajVYF22nSw9i4bjkcO9dpY96xpOjeLY R7jpxhxPHaXKA/6MGHaHyLfn5Q03hxUd6deOJ4jTr/5OQdxfk/Or0JT3KvpOS+TcQ7DpDiNIKcfp coKdysEwSZZHH5OUNNyUSuNOuFEsRp1z89/3Fpb/AFFd4yXA8LpfPEo3FtIaTRAzl0AAUNK+CDqz EL4kyTZfp+RtOdbi3ldIAERYIfTstOjCK9q3CyRFkeNVTNpPTtzA3fSqTAyjjT/+pyNl5BKZtPFM Bi6VvYiYmlAMReyOm/W9hjxkkJldz3+y8j6bluk5Qko9aPdaDJms+csmiTJtpLqlQR46QM6lcvJr UTxUA6B5C6ThBNwhIMVWDrQKUxjQMZ9vZ6d0dA1rnHLUUIDREQAFJONRE1hgSYNaK6XBbRXTYLYY E+EpONWEBAQ0OTWRyHinxJGN05SLRk275g6YLZmbJy+WiYlCMQ07xIgxgKFHiyr+W2tDPK7xu+Be F05aKRk27xk5YrZilMY1fgBa6vJr3/XhGf0MTlez0NH4eckwSOBu9skRMhyXJF/rqxuBb8XJ9icY woAHGcAGB4zgBwfjGFEHHFxO39d2NsJUuTI0gXq0R5mnJECsLKdhn+Wyxn3WF40lPcZajlsg7RkK ioArxUk3EQEuA/HCEXIuMMKisYzVo3Zo6l1cKTNhRSIijlOQDkq5zQVw1HbJs8TfVJ0mKqCyB/QC mNhjXZF4EXBM44uq4EbDffl6yMrHxiMhyW3AxGl8sIMeM25TNKzAsgIQiZdI6aahXdYgXgPuM0RM dtfK8EdyU1MZhJMZFH0mSmqlyIcihNYzdufBWzYuvLyKUZHcfx6j19n5CZKMpCNfJyDDVUSTUBSG jFcEgoogpNGqOvYpMsVD8bRhgRxJzUbFJPLzMyyjDjx89PF16Jik9lK1yIlk31Ak44zO/SsarGzE dKI3KE+8Q3Hk59ZH769SasnJREclFx2efiyS0Vx1KnTHf3t8rKSzZNlBxcvfnTlxF0N5IqR8YxjG +2kYphKIylEfRisPf3DdxNpfYJ1k8QfNd5ZZxOEjKDCKqqaNwZLwM7HPkZFlvZ2VSiIyClWscu2Z WW6KxFdiodPdTFciZkk5Azlfb0OzCwcOLKiUU7MoBmUs0ejuHC6TZEBdXexIIJN0dGYjEZaPpkot Cyu8EQALrOqTUpV6CRMCEImTR+WFZBiiKTtqtkEQDDyfjGYp22KOZu6buiaKxUjpCyjkXfoUximh ZEXjfbCIFC0zjmwyMDCN4Vhp3mtDIN6XZglWm4eyTZkVWxvTCSwyBRtc/NPEKfVkYhppOHCTZGWs Tx+f54KYxBgrMsVUBAQEQALDYFXKvo0eOWS0PKJybTQnFRSjMkGqKcjtTnKQtns7mYcVast4Nrq2 yAdQz+uWFrOs9s8ckat3C6jhb0ARKMM/F420rm9MAZGFzimrR9codyzyVJ0ZGT0JtEysbkgkRVkd ouui3RnrK9sbmr1ZtBN9ZRNNVOahpCpSMBPtJxntbMcQa5K0cQe6AiBQlbjCRZn84lOuckFWIyXb SlMio5nkgnDdtKpqJqlzmKBiykaoxW9ClMcyFpXr0xHyLOSbbKasEdCoKuJ+8O4GusYNtsFUk1k5 ivyVWe1u2MptLaWJAyrLJWUBFbMqqkiSa5CYMzla3K1qR3HES3xZINErH1TIdQ8QxBgwXRIujJx6 se69W1JSlI5WuWqtqRfIv7rV41eJZlUk1iL1pAwkrA92MU1ZYtVZQnWke8mISRhOQWbsySqSxNZ2 +ZsU5bkFwurEUR3IKNmrdohsjFKctgox0lIC+HTVSVTWT2Llyg1Rst/UXFBnJJMPRq0WdqsmibNv lsFwjYUpELXczQ9LhYofQQAQl6mJjLRkggLeGk3IwtaRYj6SEa1kUnlPepnJVZgxouqtmo/L0l61 ETAO65Y6uvXL20kdO8Voy4QzCFuDM8NcKyeK5ITE0fNxUkGlI2iDjRfcgyL1w1ps/NrxNdiYcu2m 6tFTJFmtrpx4S+xUkYpinLqqKJpEmuQY1gZ+FgmGVErJZFyZNM5FoCPUEldYFFBsg3LkOciZJ66v X7mBoKKBiEImXKIAOAAA0xDviw0lhKkj7NNVd4zeNnzfQEAMFhj3NUmYyQQk2MhXYaRB5xumCh46 /wAMRK+WJkKXKDIRJyTXxwHIldHA8i10MKclQZQV5QQwe43B+YtcvEqEfxvHJCyio6PJuRABCbpE TKieMuFWWjuSkTHZz8K+DQEQKD2ywTEH3JKih0YC3WRWEpsREBY3K1osLFmixaZ3Lpu0Qk5eWuL+ v1xlBNdrKxLKWaqJTVEkoiXZS7PQmWzJ3GwL59Al/ksv5MLip5ILouEjEIfC0RFuMKVWuqAalVsQ CmVsMErFfJhGOYIABSlDfyUBEyhH3GbMSp1u8w5gsl8ZGLyPJoiTk5h2/s2Kwpycy8R5Fl1h/kN/ fGNVLnLHY8aRiYETgK+ipco4ppm3pGiePYQzJhncuUGiEi9k7tKw0Mzhme3dtG71s9YytHlomWZS 7TPZ5Uzt361aUFq86Wq1bLYNAwpx/jsFgkHDJim3QSD0nJYkY0cOFnKvpXZxRmuA9wyiIAFimHdp lIKEawrHcvGbZ82IMhQ5xq6QeN8q5hIgoYTn9UjimqmbyT6janJlpXJAuTOYrLfLGdAlQrRIRlu5 2GbTUfUZdzASuVQgHI9bnbOvVg2M6eFDxL1GyomSmMlaSMlEZJ2XQho6kQ68k/3t9rxnzSnT5JmM y2WCO8womokfBSmOaswSjLqdohzvUPWHi1ZN2mmRJPJZnK1nsrNoiya6bl62bYVnyBhSafGEZN+O AlZAMJTjsmEZ5sbCSySxNIxQMVYqlMthDlUJleRMc9H+IxHleYwsOrGvCPmHU779FGihU5Jdu2pS wmZMWzFHJZZQIqG44iBTa6S7hJum8mllgEREcyaqiRmU2U4gICGjeIYJSG4/mPr4jPbY4JGB44kB cRHU7KIzN1AAAM17dHk5hm1TZtdF69TZpOXSzpTSj5NRqKahFSaAgBgZiNXu+c5CnJUO8Vb+pGMB S0wv3O3ZlFCpJ1FM01a9Fwum3RcuVXSupFyBmynz0eSo8fagn/3GIz2UBiruAgIdRn3P0kLxi28I /Ncnosq9xyxBvCaMw8FdxrQrwVUtCzMQfwfGj0VYvPych/qxbgHUb1HkJf2q5Rm4IVrNyc5H6eFa g0idCTc/TNNdsuLdchgOXOYoGLTh+3XDPyCgK1coq4rVrqPJy3ZhBIghDZroYXdtKAFDQnlvJbYQ 63ustB+AseRs9pQFev8AGionhuo8mm8l2ZPbZ5nQ/U8j6Mkp7j7YQCn5tC9gKFozypPOL4wU/Y6j yObylih2LmY/uckaLgfJfYQQ/wC3oclB2kEh7pZnod2fGI/vdR5D7hPZ438vI+i4DxX2EEH+3ocl j3eoB2RzORAG3Gf/ALfUeSA8ZNMfJPMH7PJOjJp+2+2EAn+OhyGb3Z0AAAzPh7MuMQ/d6jycTsaP P5sM1lEWl60Z9HsrsIdH2mWhYez2/Z5k/hE8YJ/6fUeTUfKJra/1EDm5KRMk6YrA4Z6Ek2+paa7V AzhcpQKXQhf+lyDnt63s1zjdAU4HqN7bCvW6A59+uZuQWQuYCjvQd13Rl2Qt19aFZiknoSbojOP4 zamOfPyM49qv0xsZtW+oyzb6uM4wdfs5pFoV6w45dmbPNFy3I5RctlGq2pFx4uVAAADQ5EkQawlL YCxr+fkxYVMMUCt2fURABCvj9ovWebTNXroUwGLovWSbxN00WaqaUfFqOhTTIkTRsShrHcCEKmTP J/8AX5A6neUjRlkRVIsjmvsT9whaTMfdIXSXbpOCO4VdMRAQHMiiqudlClIIAABozsmnExfHUYoq fO4WKghQUzv53qfIEcLyCo0l9fAZlEyKpxyh6hbQEBDTXZtnAKwBRweDeFwMU+DBYh8bBIF0OEIJ uQU0kkg07vIKzExGsEo5jnvcl9DA0GN+igepuUCOW9JcHh7DnvUB90jaLYAk47e2SaShYrj+EUMb QuS55qyt0SIIdUvjRSMmGDxJ+yzCHfFgYuqnOxki3k2W7UUIkm4Xc3eyoIJN0c8k9Tj2NBZqSMp1 WxxRJaIpc+MWwLcYsRZyDN8TLJxzaTZRT57S5pJVNZPdXGwryrutV9CCj9DkWVMoNfiyRMT1Wyzy jhX0QXVbqwUuWTa5bDAtp1hW555WXxDkUJuLnbDeVNqxYRrmMYpCr2SGQMa1Q/tU5ivNT/VZlyLW MyVhyZCWzWWtNZ5pBWCRqrtBwg5R2oiABaLmo5PT6cSHJmUUIknOTa0kt6RUw6jFmrpF2h1SxJmU h8lfSFWXzzsAwnGrd9O0V9ETUfMttm+fNI9tK2aWtTusVFpBJZ7c7MhHZKY7MYnVDkKoSYi1Yx36 1OJMgloPGbV83k6bLwC0FyI1dnIcihNhP3qMiRaxFhujmJh2EO10LqmYW+SlpmF31V6xbP0HtNXI KdTmTGWo5DsKbYHEY70p2nxE2Ix1wp6sPyNHOsNXjR4npqqpIkl79CsCqPLnb8QlAio02lLMCyDE 5RIf0KUxjV6MGPY9ZuNWLKoUq1GdhpyVVgpPDqhTEeqazXSEUacmRhwaXOuuzJvWipQUTHHkXAqE DB3LYgPLXAMhdckwqWFLpaZVZOmWqWPG0mAj8FKUhdO7Wo7fELSSpxC1SlkzJVOXUNE1xpH9cudT MsNOtpZNLUMUpgdV2Ddg947gnGFOLyhj+u5smP4HZwx/Xs8fCfGKh8M+NodEzWrV9oKaSaRdW420 sanTKmZt8A2+nnUPWbsku3eXB4oYtllymjbh5nTUIoTfWy5EZhT6eZA3wCIgUJZVs4k/WpSpiK7k 6qSeCKpqBg5yJksV0WfKVOlpxgfAUsoKUbkjTmTkA24iABNWo4nVcuVhSdOURjLh7KTyXnbm7rlV YwaPwG7QBw1VSOir6xZ2pJEhyKF21skDtWOSoroqRnwLZK+ZwJgEo4bNl3SqtDZPGHnbqeMJd4iT IAgIbS7d/qclJ8vgd1DxzsSVSKKdsxaNC4OQihZvj+Ofn73GpqRvJEYuLd41dE2Dl60aEkuSI5Af css6OSsMDM474MEAEJaoQsqLrjySZCSy3WIwy5LYKC1s0E7wm4QV0VHLdLDq0wDTDzkxmUT2O7TG GvHki8GIqUNE47AITVVUIZRuukKbddU0JVlPP5fCAgAg9qsC+F1xpDqirQZxiczPkhpj7xyKgUbl cEcf2DYSY/sCxHwFxuK2PvHIq5QZcju8I8fTD0zXjWFSFnV4JkIAABkURSVwRJJP4YEpRwKCI4BF EMAUof4z/wD/2gAIAQICBj8A/WPPsiQiYiWOViRvbEysSMTmIUWpBiaqHEWDlHGqmo2omqDlYCcz WBzFoNcbtORWA2WkiqBYObUauwY2pRiInUU4mwIYlMU5DOEFrmIkYmYkONjmFiQH4FwunGErLQoh aFyri4hWFCQlBu+UYROmdyyETs+EKLYhhLKbeToUc4LliYk157ImHt4R0ODtmvs0KihBbJ6AucUA ghnQ3vNRRAb6sx5vGFF28jT0N7zX+k4/D4XY4jE9I46AEYicNd5gt1sGbiezQjYSLrYcnJ26EbST dbgMRMcNAAMTKGt8oS7Odo6Hdxr/AFXD4fG7S1wUGFZ1t7xUQTgO9WQ8vjCC7+poXPAxIuHGJ8zu MdDQP63Phea0brLOJWxKDZBcE7LlGcLb5RneaULnpJRjE7m3aQXNKJnSoaEH5X//2gAIAQMCBj8A /WP0N6fMZCOr1flbHT6vzNhXhW+ZsxYQAFJkAIDvXmfIMOMIxjW7hCOa1w2iCfS/5uy92Cx45XC1 cz/tsx2nKAAEAwApIIUHEQHs+24/KcrB9dwmZM3azVLwOv0wu9usWpjMmqd5xqv9M+82W/VYGMHu tArPb5XkdhtA3iu9PMdOxw95oNZ7h7z3HvtLH60R28Y1X+odQlv1WD6Lj1en7O1v9qpQ9b+lv7m1 I77b/a2bYDmkOBwIpLnEADEmOVn22Yf5HOwB7TyubMGAPVT03/6nwhQVoIB+o/yt/cwXvMz2AZC1 9DpeUzb2R1+mD8JSOj0gPicsdbpeUSb2WPpc5u4pHU9zt5/AWNKKK20xjCHG4EGJj2jCHGtyjAUc p4RyjjQBqNUbqAmdxCsds6FygO4UDZOrtEYQpxuDbGqFMzWQxjCCEMa4QC5ZmJFbMvZEzCOmtqli ZUKIBzsrbZLVOhBAGQ0PS078ImWiJFp4x1NI0KGJIYUlTa1TsiQ0AACkwrup3cKk45vTkfL4XdzH 2ndwr/Ub/LxuxoOGJ4aAg64Lcil1uOQ0J2gXW4ZhdCdgAutpOGB46Ak6oLsyt2cp9pveK/02/wAv C7QQUIhH9Lu41FMcvp/N4Xh0uMTDTEuUcI6nE3OiiFF5co140DI2VGjiY6h2WwO4UCyGkWtDGsQg FkQ64kFEYJvgAarfOMryJyhTQRlpFMezCi5ENE8TpDsoG25JhYkBpeYcaOY8Pyv/AP/aAAgBAQEG PwD/AMQlZ5kiHz2C+nBD38VRsq37oOM78f6cp/8Abxlfr1xyj0pgLFfREnQC27+9TG9E6up1qQR5 v7Pb97cR266R3jBSegHM4KWVtJdMMt5iIkPQe0fNgrw2xMUTGgkiidiOmRuz5sA33EdxW0xyTyOR 9VQV8+AZ+JZ6wsPxtJ8WPxLq4Y/NKL6UbH866+3H/wBrGU119uP/ALWD3N5Oh1b4R/QFxvWvEgXG jejKfeV29GBJbXr3KJojimdx/pygYVOL8OBXa6PA7fWNV+7hY7lXspG0tJRoh9cZ/dwJraVJojoe Ng6nrWvj9SaAaScET39uhGlTKm99mtcUN+pI91JG86oRjszSP0RN/FTH+N9j+/HankTnaJ/4QcUW /UH5ySJ52QDAEF9byMdCrKhbyVr8JMLq4UzgZW6HekJ2ELXd68GDgVoYU0FkXvHFfekcbi+Trx+a 45dssrmrxR0Z+uQlh5sB7a2DSj/FlJkb72Q6hyRVgGU5EHMHDOYDbysamSBiv3TvJ5sfnP0/ctPT PdG6kgGwqx3X/wCMsC0/UFmVYUDyhTFIo95oyKHqpjvbC4SddJCntL9JD2h1jxppp3WKJBVnY0Aw y2gkvJR6pVdyOvOz0PkGO64VAsY2wxg5fOeYso82P/sL/ukOmOSdm8iRby4re3k0j6+63UH3lbHb ilm/6kjD/wBPcxlYL1ySn0vj/wDnp9p/+bGdgB0SSj0PjsRywf8ATkJ/9TfxWwvJY31CbdYeVAuB +RvTOi+qkc5p9ifdXAg4vbLIQc+8Tccj5rRkL5sKkzPZyGgpKtVrzMm956YEkbB0YVVlNQRzH4Me 6u5BFBGKs5/ux/Tv02jIj5CTdAmbaQSaIPPj83+oJGuLhjvGJXJX/wAx/WJ6DgQ2kKQRj2Y1Cjrp y+5f2yTZUDkUdfoutGHlx+e/TVxIVUVMe/uyjmGQVhzHz4/KcfHdTKd0XCpQV194o0HoGFkjYMjA FWGYIOvxYz3cyQRD2nIUdArrwbTgNu7Ssd1Z3AZifmRANXr8mFu+OXjwocwktXkHRH2VT/jLC7tq k8oGcs/4hJ27rVUdQwFUBVGQAyA5IxyoHRsmVgCD0g4Ypbi0nbRLD2QD/wBMEL5sG54PdPcRA1KQ ht4/SgO8refC2vG4GilU7rXCDKvz4zTd6vJhZ7aVJom9V42DKesfBNZPxrp/5dupAb6TbF58fnOI TNDYKewWB3aV9WFMgec4EFjCsS+02l3O1mOZ8TbvoxHd0pHdKO2Dq3qU3hzHCwXG9c8NY5KK904P uMw7Dc2FurN6g+vGSN+M7HAJp4mWYhVGZJyAx+U4OBd3RO6XFSinmp62DfcelkhjbtKrZuQdQUns jAhsoVSgoXoC7fSbxAxXkIZjolUASL0NTH57gsj3FsO04Gmg1OgOY58C2v8AdtL2tKGoRzzE6OjF RmPgY2HDSs3EH7LUzEdej2ubA4tx7eeZjvpA+Zb50lfRgKoAUCgAyAA8VaC4QSROKMjCoOF4vwVm e1B7anPc+a4GlcBkIju0H40Fcwdo2jxFrq8kEUK6WOs7BhuHcGRksdDk5VHvSNqHNhJ5AJ7+nalP qqfmDxR7qyAt745k6Ec/OG3A4V+oUfuFFI3IqyDUQfaXCXFtIJYZBVXU1B+BG4bw5t/iMmTECvdB v4tmBxXiy714x34o2PqE57zfO8YZHG8rAhgdBBwON8Dqtuh3nUdox7aj3TgOh3bqMDv4TpB2jm5d 7u7cJGgrSubH3V5zhiWaDhsZyrXcQbMtLHC21nGEUDtNTtOdrHxZoblB3lPw5gO2h5sflbven4c5 yAruMPeSug82EurVxJFIKgg1pzH4CpGQ17PVYUrmvzzzDH9e4uDLLKd6FJBUk/5jV83jTRyKHRxR lIqCDhOLcMr+SkbNBWi7Y25tmI723PZcdpK1KNrU8rJd3biOKMVJOs7Bz47xw0PDYTQkeqi9elzi O0tUCRRAKo1mms858Ye0u13kcZN7Sn3lwYZgZOHTH1jXdZPeWntDCXNs4khkFVYfAE17csFihUsa 6zqUc5OJeMcSB/KRtUL7JI9WMV1DXgACgGQA0AeNyWtwu9FKCrD4xhrS5qeHXBpvnQU9lxzjXhZI yGRwCrDQQeTaWVgkaAs7HQANeFsLCo4dAa7xyAAyaRvixHZ2i7sUflYnSx6fGns7lag5xtrR9RGG 4NxQ7tnK2Teypb1ZAdh14BBqDmD4/B+neHHfiikpKRoMorvknYi18+IrK3FI4lp0nWT0+OsiL/u4 avAefWvXh+CXhpcW1e5ByO6NK9XJr+neGEl3YLcMvtE6I8tW3CwqA1y4Bnl1s2zoHjjGNQL2EFoX 1mnsHpweC35P5u3B7pm0sq5bp518eknQ0uZvwrcbHYet9UZ4bjd0N65u6iEtmVjr2mz1ufN0+Pwc f4f+GsjjvAuQDjT1MMQ3sJ7EyhqbDrHIyXAINw/YgQ62Ovq04fj17Vp5i3chth9Z+vx6H9RcPqp3 wZgBkrjQ2WpsQ3sdAXFJFHsuPWHjsPCYTW2tm7pmXOgHamfzUwkMQ3Y41CIo1KooB4/PZSD11O4d jD1Ti54Fc9l0YtEDpqMmXkKnRiPh8TE2Ns27UaAq/wAxviwkES7scahUXYAKDx6WzuBWKZSrfEer E/Abw7sMzkJXR3g9Uj6Q8cur6vbjQiKuuRuynnOLrjMwrJOxiiY61B3pD1t6PgG24xAN2OZg7bN4 ZOOsYWRDVXAYHmPhzSoaTzfhQ095tfUMPxKVfx7s9gnSIwfjPwBb8cthuyxMElYaajNGxb3o9Z1p INjrk3n8bs+FxnOVjNIo107CecnFrYqADDGA9NbnNz1sTy9WYKNpNMdqdB9YY7M6H6wxVGDDaDXl 5JQKyWpEqnm0NiDfNZLesL/V0ebw7TgsJqsRVWpmN98yT0DEdvEKRxKEUcyinL5kDpxkwPX4hcWT 0pMhUE6m9k+XF5wSeoKkugOplO648bWI5w2sgWmkbtsN9h1uDyxkuJAg1DWegYKWi9ynvnNsVlld ydpP7axSshGwnAS7Xv097Q+BJbyBveX2l6RyssDZrKjIa84pi/4Y5pTtqp2qd1vi8KSeQ0SJSzE7 AK4veNTD1CxX6cpNB1LypeRgqjSxNAMFLRe/ce1oTBXvBGh1IKefFWlc9LHGUjD6xxWKZjzN2h58 Bb2IFdcken7ON+2kEg1gaR0jlrfiK9mG4ZZGOqj9iT5cBhoIqOvxl5XNEjUsx2BRU44jxSTNgtCf nTuXP7vK6nuG9SP4zzYaadt528g6PDWaBijqajYenG49EulHaj2javKstd2O4c16Jl3gPL4V2QaP MFhTnLsAfu1wkxFHunaSvzR2R6DyjTztuovlJ2DBUEx23sxbedtvhia2co42aDzEa8U9S4QDvE+M crb3qjtQSbhOujj+7FncE7zGMK5PvL2W848Z4hLo/AdAeeQd2P3sXM9O1LcFa8yItP3jyj3EvqoN G06hh7iY1ZjkNg1DkUngbdkQ1BwlzHlXJ191hpHKcPvRlvCNmP0Hp6BgNtAPl8Gwsl/xpWkP/ljd H7+LS3Ap3cSAjnpn5+TLMaKBUk7Bii1FvHlGu35x5FJ4W3XQ1HPzYS4TInJ191hpHKXsVKsI99el DvegYltyc4JSAOZhvenxm7HvmNf/ANin4sWzUoZGlc/bZfi5RLJD2YxvPzk6OTNox/DuB2eZ1FfO OU4fMNNXWvRun48QSDQ0anzeDwuyGfYTLneRviXlBaxmj3HrbQg+Xk/y7H8K4yz1N7PKTQn/ABEZ PtAjHEbUn3SB9EsD4zT3p4x+8fixYfQY+V35Mk6BnieY+05p0DLk4519aJlcfVNcBxoYAjoPJ2J2 SP6FxZHbCn7vg2sZzEbQgdATvPj5SUVqsVI1HRp8/JrIpoykEHoxFMP8RQ3lHKX9vo7Mop9Fx8vj Ndk8Z8zDHD/oN5nbk5W2Ix82Cdprylqx0mJK/ZHJ2I2yP6FxZDZCn7vgrzOvmt+Umc6Wdj5+Utyd IBXyE8pfLtM4+8PGbo/5bRMPtqvx4tRWpjMin/UY/Hycq7UYebBGw05S2Q6RElendHJ8PirnWRqd O6MQRjILGo83godrp57enKSqdIdh5+Ugrr3j5zyl+2wzn7w8Z4hFSp7hnA54/wAT+HFxBXtRXBNO Z0SnoPJ0xPERSjkjoOfJw266ZXVeonPzYAGgZDk+HWa5kCNWHO7/ACYVdgA8ng2UrZCUwNXmp3f8 PKXC0oGbfXobPkwBpOQxBDoKIAemmfKcQuNI3ZM/pP8A3eMyQuKpIpRhzMKHHEeGy9mQqGKn3oWK MPv8ol+gqPUl5vdPJvfOPw4gUjO120+QcpUDejt5O1TZCu7X7XhcLvhkCoWo01jk3v48BhmGFR0H k475B6nYk6D6p5OMEVji/EkrsGrrPKXE+ju4nf7Kk44jdEZMUUHn7TH0+NVbKK7l1ZVF0Pic+blH glG8jihBw0EuY0ow0Mu3kUtoB230k6FA0sejEdtCKKgpX3jrY9PJyTN6salj0KK4v+KPn7IY6ayH ePoHhWt2oqbebdPMsi/KoxZXA9qFQelRuHzjk3gkFUkBU9eHt5Qcj2G1MuojkQqirE0AGknADj8e XtSc2xerlLtq0aUCNelj8lcd8dNxKzjoHY+LkqnIYpLdwRkaQ0iL6TjtcRtf9ZD6GxnxG36nB9GM uI2+e2QD047PEbX/AFkHpbFIbuGQnQEkRvQcVGY5Gx4tFUFCYXYaiD3kf8WLa+SlJ41cgaAxHaXq ao5TupDuuuccgGan5MGK4Qr7reyw2g+GIbaMu3tHUo2sdWNxDvyvnJKRQnmHNyk4BpJcUiQVoc9J HRiJ3FJLomZgdjZL93wr6FRV9wOo542D/wAOHtSavayHL5r5jzg8p3b9mVKmJ9h5+bBhuUKNqOph tU6/DCqCzMaADMk82BeXi0uNMcdfUB1nn5Wz4chq8rGVl5h2U89cWlrShiiUN9KmfhEXd7DEy6U3 gz/YWrebBW2Sa6YaGChEPW5DfdwRwvhw3NTJFJKw6Wru+bFJC8MbbTDD5QtGwGuruCp070kjt+58 eB+ZvjvaxGgp97HbubljtDRr/wC2cfzro/XT/tYymuh9dP8AtY/DublTtJjb/wBsY/218d7UJEy+ 7gta3cNRo3ZJEb9zG6heaNdFDDPXy1fCjivDQE1s0UkLHoJO75sBbhZrVjpZlDoOuMlvu4H5S9hl ZtCBgH+w1G83g3VmorKyb8P/AFE7S+UimJ+Eymkls3eRKdPdue0Pqt6eVMNwgeNtIP8Adgvw9wy/ 5choepqU8uD31tIAPaCll8q1GMxTpxln0YHc20jA+0VKr9pqDAfiDhE/y4zVus0p5MCC2QRxjUM8 9pJ5W14JbHfWJgrge+3reQYSFBRI1CqOYCnhMjaGBB68XPCpDSOctGuz34z5MuVMVxGHXUTpHQcF 7NhMmpD2WHxYKSoyMNII/bRQSebPAfdEMR9t8vNpwGAEs+uVhn1DVyyxrnb2jgbRuw6fK3gGa9mW JBqObHoUZ4MXC7V7h8wHfsrzEKKnAkeVra1cmlW7oAHmXtkYWTiN20zaXjQUB+u2fmx+BZRV2uN8 /frgKihVGgKKDzcmUkUOp0qwBHnx+NZRV2oNw/cpgycOuzC1aqjioH11z82DIsrXNqhzo3eqQOZu 0MCLils9s2gyJ2161ybCz2cyyxtooc+saf2x8RjBFndHvGVfcc0mTqOY6sLIh3kcBlYaCDmDy9Wi RjzqDiqxIp5lA5ee9lOUSkgbW1DF1x667TFisZOZ3mzY9XIWfHLeoNQjkZUdDvKevEF7HTdmQNQZ 0OsdR5akiK42MAfTirW6D6Ip6MVFup6c8fhQoh2qoB5e5u60dV3YhWlXbIU9OLji8w7dw25GSPZB qxrzn9hlvJ1jIBKpUb7U1KuGtOAWjKrVAfdLy020GS4F1xy8beYAmMEvJ9FmbR58BbS3UOufeuA0 lfpU8TK3UADk172MBZK/Sp6cNd8CvGLKK93UpJ0Ark2Ba8es2JXIuBuSDpVsjgS2U6yVALICN5a6 mXViRYxW6tqzQUFSSB2k+sPPTB4XOf8AcWQ/Dqc2iJy+ycvJ4/B+n7Lt0cd7u51dtWXu4gsotESg MfebWeQuLNvWZaxnY65r58T8CuuzLEzPEp01GUi9XwBbfp+zO/usO8A/zG2/RGIondYba2QKXc0H STz4/I/p2Eys3ZWcqWYn5ifLg3/6imcSSGpiBBdvpN7PRgW9jEIYtJA0k7STp8X7i+hWZBmtcip2 gjPC8Q/TkztJGaiIkB1FPZOhuimPyP6iiMLp2WnCkMCPfT48W/6j4Qwl4fdOW3kIZN5q97HUe8Mx /diK7t2DxTKGUj0eOyXJI79uzAh9pz8mJP1BfAmWYnuK6971n5KDj9iNyOVgXpo7wesCNjDEN7Aa xzKGG0bQeg+PTXsnrKKRL7zn1Rifj/Eq3F7LvflIhmS5rvSNsGrHf3cvc8PDaPVSmxE9o85wFs4R 3ntTP2pD9bV1eNkXcI732Z07Mg69fXiSB2/M8Kmagp2kDaQd05ow2jz4/pt2xNpN/KNK92/yHBW3 jL/ObIY/EhBX5pzxuxkrJpKNkfGXnmYJHGCzMdQGKEkcNtzWmjdjB/ebCQQqEijAVFGgAclNYzAU kXstSu63ssOjE36e4iSqM5ERbILINldT+Okk0A0k4FjZ1ktrc7kap2u8k0FhTzYjvuMAO5FUtCDR dm/z82AiKFRRRVAoAOYclniks8aHYWAx+FKj/RYHwKnRgq8wdxpRO0cBSXQH2mGWO8t5FkU61NeS dZlDRFTvqwqpXXWuJprKAQpI3ZGmg5q6K/tDKSrDMEZHG5IfxosmPvDb4uSxoBmScLwLhNWgD7sj rmJDtNPZGEtYQDJSs0oFC77eU/qVkp/O247QXS6DPyjAsrtgOIW43SDkZEGW9nr2+M1larn1UGZO D3SrGurKpx2irjYRTAtLSLu7aUBZDHUuxOW7zDCXNzGG4hKKszZ92D7K7Ofk2nmYLGgqScMkbGK2 B7KrkWHzjip043kJVhoINDhLW+beibsrKdIOquKjQcVOgYe0tXK26mjMuRcjn2ftE1u5Rhq1HpGB KKCVcpU2NyMpXIvROpjQ+bwYwND1U9fixdyFVRUscgBj+h8BrIjndlkStXOwH3efALAPeygGaQ6v mrzcsP1DwcbkatvzKvsMdLU904EkZ3bmMATxHSrbRzHxd530KMhtOrDTSmrsf2gg0IzBxRzWaPJ+ fYeTiskNA3bkG2nq+DFBxCYpcKKHsk1A0GuJYbG43rh1IRaEafB7mvYnUgjnXMcjMFzKUfqU1Pm8 GMjRHViejxV553EcUY3ndsgAMDg3AFYwtUSyaO8HxLgMwEl84/Fm2fNXm5do5FDo4oynMEHA4xwp ibNnzQV7IOZRh7uBcQHdlWgmiOlW+TxaNBoZ8+oeC6amSp6j/fyJLGgGknHdyTd9LSu5F2/KRkMG 7ijaJFAQKxBOWdcvBe4voyzht1GBplh7yyVxLFtNRQ6fBt5biQRRgkbzGgqRlgPEwdToZSCPNyBV swwoRzHByrCxqjfEf2hVFWOQAxNa31qRAaAn2wPeXaMLc2cgkjcV5xzEavE+9u3q59SJc3Y9GDFb g23Dk0gk7gG1vePNgRwKGnI/FnI7TH5PEWilUPG4oykVBBwOL8FLPbVq8dCdwe6w1rgIxEF4uTwk 6edfFQ6ipiap6D4MtwdCjcB5zmfDMkrhEGlmIAHlx3HDU/Oze+DSMHZtOA1wzWdpnQkGNKfRGZwH vZHupMjT1Ur0a8JLYwrH+X0oi0qp06NngLGg3nYgKBrJxFb+0BVz846cPC+ayAqevDwSA7oPYbUy +Ar3sjwSsd6MLqHODgXPCp2uolrVFqQB85DhbbjVubd60aUVAHOynPAmtZVmjOhkNfDMcihlOkHB MMhT5pzGO3PlzD5cb0Y3pNbtmerGXYvIQTDJt+a3Ngpbb0dzGSrwnQSNRXXgW/FE/JzjIufUJ9Iw JInWRDoZSCPNy5lu5khQZ1c0w1nwGAyOTuiYjeJ51UfHgcQ/UEz7zneMFe2c/aOrqwtvboI4kFFV RTxMowqrChB0EHH9S/T9YrhDvmBTTPanyYNh+oB3UqHd7+lM/njCyxMHjcVVhmCPEmnuJBFEgqzs aAYaz4PlCey05HabmUYguL6LcMqg5Z6dFdh/aIoVqTpOoDacLDHoGZO07fCeIMJ74DswLqPzzqwr znuOGlq+7HQH2R7RGFkWP8xcLmJpc6HaF0D9pBFQciMGfh2kmrQk5fVxSW3dSObAEVu1PebIYW4u PxLkZj3U6P293cLWnqsPWXowTaMJY9W8d1sUMaqNpYYWa6PfTDML7APx/tJu4R3tKCZOy468Pd8E laa10sBQmg99NeFtuI7treE7qnQjnRp1Hk/61w8EXkNGlC6WVfaHOMN+aXuOLRfzZIsi41OV0HDN wyRrizBrur2hT5yY7njEBhYZGSME5866sf7O5SVtJUGjDqPJstzdL3i6Y07TeQYNrwK2rvGiOwLO fq6BgXP6guGjSmSkhn6N3QMf7OECSlGlbtOevxdjNGI7inZnQUYHn24ElvKbuwroALLQe8ue7hYb kGzuD75Hdn6+WAyEMpzDA1B5YvIwRFzLMQAOs4aCyU3k4y3lIEYP0s64l4rxiY21hH/LiIK75OhU TKvTg8SulraQN+Gje24+IY3HUMujdIywSFMZPunLFW3m5icbsKBBzeCXkYIiirMxoAOcnH9K/TqM WY7pnUVZ/oDUOfH5zjbC7um7Xd1JRT84n1jgJGoVFyCqKAdQ8LMVxlydDow01oFtL2tRIo7LczKK eXH9M46jz2y5K+lgPejY+sObCXVrIJYZACGU16jsPIlSKg5EHEfGeG5WkzdqMaAT6yHmOrEV7Aax yrWmsHWpwfzVqjMfbUbrDrGO94VePa7FarfeBBxvQXBuol0Krd55VYVx/wDZWBYbSjRfFiktjIm0 hw38Ix2knX6gP8WNMw6UH/NjTMfqD/mwe7inc6gVVf4jgiCwdjqLSD0BcUsLIxo3qkRM33iKYU39 93EZz3S53hX5qU9OC/EZnvJK1yqi9eZJwEs7eOEDWqivl0+NUIqDpBwZI1/KXGZ7yIABj84a8b9i z3doDU7lWRvpR1JwIeK2pt3rRpErQdKNngG2vInJ0KW3W+y1DyJLGgGknB/MXsdfdQ75+5XBg4RZ GRyaK71YnoRM8d5xSWS2tj2h3mgV1LGDljvNz8zcae+lAJU/N2Yh4JZH/a2zFXdc1r7bfV0YitIF CxxKFAHNr5B7i5kWKFBVnY0AwOHcMRo7FG7RFaEV9eQ5dQwIoVD3Dfzbggb7H5B4s9reRh1Ydlqd pD7ynURjvYt644ZIaVNRG42NT1XGrCXVo4YEDfSvajYjNW5Ge3vmVIHUgu3snURz4uIIJRLFI3YD A0FD6w6cb3fnoplhY76MFTkZEyI5yMLLC4eNtDDHaUN0iuKz2kUn0kBxQ8PhH0UA9GP/AIajoJx/ 8JD01wN3h8GWsoDikNvHGPmqBiigAc3wBu3lur00MOy32locM/DrmSKT2UejL5dON+xl70bI5K+V ZKDFLqyM1NsNR5YsUvOHBDzB0/ewO8tJAddCMf8AxpvNj8GzkZtW8RTzYpZ8ND9Tufu4pa2bQg6u 6C+eXHe384jrpEkmY6FSowr308lw/tKDuJ5s/PgRoscA0hR2pD6TiiRyMNtAPjxOOHq/5x13UDD1 a5FtOrD8RuBS4vPVB0iMfKeQe4uHEcMY3ndtAGBZWClOHQtXeIoAvvvz7BhbS0WgGbufWdtZJ8Yk tblBJDKpV1Ow4/PWVZeHSHdBbMFTmY5KaDsOFu7N95Dkyn1kb3WHIG2jb/bwGmWttfgC1kb8CfIA 6n1fBn4sSP8ASUHFXsYCTtRcf/z4P9NcVSyhU7Qi4pFGqD5oA/aXGc8lViHPtPRgzTuZJG0sf2rb XDFrWQ0A9wnWMVGg+EScgNJwnA+EEm1U0dtCuVObn5owlrAo36AzSa3fWT41JaXUYlglFHQ/8aRg ByZeGXJNQNEiDp0Olf8AiuI7q3YPDMoZGGsHwpGGlVJHUMMx0sST1nwEkXSrAjqOFbaAfN8JNH7M ChQOc5nwYJGzYLuk/Ry8IcEsam6uABKyaVVtCCmtsd5MA19OA0rU9UakHR45JZT5E5xS0qY3Ghh8 eJP05xPKN5NyNiTRJNRFfZfwmQ6GBHlxLA4oUYjq8CGBRUu4r0DM4C7BT4SnLCgko684pT4vBhDC harUOw+DLeTEbwFIkPtyH1RiX9R8SBarFoK6Gc+s1Ng1ePLxWzUm9sxVwuloh2j1rpwokYfnLcBJ l1kD1X6/CF3aLvXCijp7yjZz4McilHXIqwoR1H9gRAWZjRVGZJODd3S7s7jdVPdU7ef4TFzAAZ4A ajWybOrwBEgpGlGlY6l/vwsaCioAFHMPBh4LaMRbwMUY6t4fzH6tAxFa26hIolCqo2DlPxnoToUZ nzYpDEW52NPMK47LBBsAB9OP57eQfJj+cT0hT8WPxAsg+z6MUlRozt9YebPzY34mDKdY5MqwqpFC OY4WVajh90a7q6O6Y5rT5hwsiHeRwGUjWDmPCrcwK7e/6rfaWhxXdenu75xY3/DwYolajKGJ7ane BzOzFvdoarMit1kZ+f4Ut54Yv9zcsd9VIVSoGbUpprTEU6vEolRX3WLArvCtD2cA3dwqrrWIEk9b U9GBBbIEUaTrY7WOvwbm6BpJulIdR32FF8mJeMTist0SsZIzCA5n6x5MySsFUeU9GCkA7pNte2fk xUmpOknw9+NijbQaYEd0N0nISD1evZgEGoOgjknkjFbm0rLHQVJAHaXbmMflJTWeyomZzaM+qerR yFzEBWSNe9j+kmeJLNz2rV6Lnnutn5vhS24aP5cBSNqZ0r23PkwAMgMgPDsuAwGtGXfpmQ8hp5hi G1iFI4UCKOZRTkt5s3PqJtOO8lNTqA0Ac3JiN+1ATmNa84wHjIZWzBHIlTmDkcNbnsWd026C2Q7u U1U/VbkGRs1YEEcxxfcMc7qyB1UHWVIZfN8JljoUEnqxe8SbtLH3joT847i+bw3kb1UUs3QBXF1x abtLCWdScsyd1PIOSaaT1V8pOzBllNTqGpRsHKiKQ/gMfsnbivI2vFYhSSFu7dhpoc1PUcWt5WrS RjfJ95ey3nHIWPEE7CTlCx6T3bnz4BGg/CV7ODQpC5U6M6ZYu7oj+bIEB+gM/wB7w7qRTR5AIlIN M3ywbkjt3LltHsrkOS7pD+FEacxbWeXNu5q8fqk61/u5G8t6VYxlkHzk7S+cYuLNjnbyBl6JB/dy FldD1kkKV5iN4Ytbgf4sSN5R8JSprmdEHl3j6MWu2XekPSWI+Lw7OyX1pHLkcwyHnxaW40JEvnFe RdgaO3ZTpPiCSj2Tn0a8BlzDCo5AqdBFD14veH6Fk71FB2Kd9fMOQkYD+TIknVmvx4tampTeTqVi B8JWcGt5S32VI+PFlEMqQoftDe+Pw7Cz0hO7FPpNvHAUaAKDkY4QckG8elvEVB0xndPVo5GGQdkT yRnqcbh9HIX8YzPdFvskN8WJoz/hzkDoIB+EuGxbd8+dRiCP3I0XyKB4cStmI5FH2V5KY7G3R9XL xGWPoYejkbC5XIlUoRtV/wC/kLxPegkH3Di/h911byinxfCXDU2A+dlwBsA8Ocn2Xc+RRyUp2u3p 8RYbU+PkeGPzNn0MmEO1QfN4dwNsbj7pxxJfoelvhLh5OjdH745C5B1vJ+6OSlGx29PiLHYh9PI8 MX6f7yYjGxV9Hhyk6NxvQccTOrsel/hLhr7Q3mZcKdoB83h7O8k/eXkphtbeH1s/EZZOhR6eR4db +6oP2nHyYAGgZeHcHZE5+6ccSbaU9LfCXDpfdLj90/Fi2c+1FGfKoPh2lwMgxiP8J5KOcDJxunpH iKk6X7R69HI2dvpVGhRh17x9PIXrbIJP3Ti9l1tKF8i1+P4St5gM45qE8zKcWMu2FV+z2Pi8Ph9+ o9Wq151O8MQTg1EkatUc45F0Aq69pOkeIJEPaOfRrwFGgCg5G4uSN5IXkNRoG4O7Xz8hfNWhKBR9 ZgMNIf8AGmZh1UX4vhK5oKtEVkHQrCvmxCtc4HePz738XhtKoq1s4k6BobFvnVoKxN9U8kZUH4Up qOZtY5c3Ego8nq8y8jc3T+rFGzHqGL7iUmbORGG21O+3ICOtDNMq05gCTizRtLqZPtne+P4Surb/ ADYnXyjF7ZMe0jLIBzZq3xeHcWrComRlpzkZYveESmjAl1HOh3W5Jon0NoOw7cGKTSNB1EbeVEji kKHP5x2YoMgNHI/lVP4l24QU91e03yYtlYUeYGZ/r6PNTkLCwXN3cvTp7AxBAuSxxqoHQPhIg6Di 5sW7KTs6CvzvxE5CDiIytrpwzHQKMd2QdWAy5gioPTyW6+TD1WGrBSQZey2o8nvyVSHbrbowEQUV RQDkoOFwmsNswjZhn86RurCxoKKgCqNgGQ5C3thnHastaZ07sb58/wAKWXF4uzv7rEj34jn5jhJk zSRQ6nmYVHhtPGKzWf4oOvc9oYjWRt64tfwpa6TT1T1jk9yVQy4LQfiJ7vtDBBFCNIPh7kSlm5sC S6ox1INA6duAAKAaByU96+lFog2u2Sjy4ueOXPaklYpGx0kk70jchJO/qxqWPUK4v+LSZijBWO2R q+gfCjToKyWjCUZezobzHEKsay2xML550GanyHw2jkG8jgqynQQRQjD2czH8lckLvaBuuao+zLQc VGYOjlKSICfepnisUpHMwrjslW66Y/l16Dj1AOk47bqo5qn5MBpWMh2aBjdjUKNgFOUt/wBP2R3g jgSEaDI3R7oxBZQ+pCoWuip1nrPISRqaSXR7peg5thJWFJLs96ejQvwpJbyCqSqUYcxFMXfA7g0W UlVrlV480P1l5D83ApN3aAsoGl09perTj8ncMPzloApB0ug0N8R8elumI74jct0OlpG0eTScScfv QTNMWEG9871n6+RteDQdpYiFanvNm3kGI4E9WNQo6AKfCtpx21G6WYB2H+YmY8oxDeRGqTIHHXpH UfDodGI+McNG7aTNmvs1ObxkbDqxFe2zb0corzg6wejxxpZCFRAWdjoAAqThLeIn+mWzVGrdhBG+ /wBJ9WEghUJFGoVFGoDkJ7yU0WFC3Xqxd8duhvEEhCfffM+QfC09oQO8K70THU65qcTWXEkkCxPW Ds1OeTLnz4oyyqNu6D8eN+2lWQawD2h0jwpLO6UNHIKc6nUw6MPw7iBZuHymoI9Wh9WVfjwssTB4 3AZWU1BB1g+Np+neCkybz7k7R5iRvcBHsr7R+TCwKA1y/auJh7TbOgauRg4HbEmWVg0qjnyRcW9m AA6rWUjW7Zn4Wextm3YENJHUmrkaR0ftWaFikimoYGmN5qLPHlKo9PX4RtpexKvagmoCUb5Drw3A +NKY7be7LvX8InQV0jcbAdGDIwqrA1BB2eMngXBz3tzMe7nliqWUk07qPd0sdB8mnR+ZugDxG4Ud 5Wh7pf8ALUiv1j4ZZiFUZknIDBVrgORp3AX86imHdJSXVSVQowLEDIDLFxx29UhYXLKCMu8OgZ+6 Pha4mU0YIQp5zkPBjWtFmqjfF4e4/Yuogfy82ih91tNVOP6Nx1GWzBO41KlKn1lI9ZMJPbussMgq jqaqRzHxYkmgGZJx/Rv06TPNKTHLPGu9WuW7DTTzt5NuBfXwDcTYGgBqsKsPVFNLbT5OfwmkkIVE BLMdAAwURitoh/DSlK/Ob9oaM70LEd5GcwRzc+EuIG3o3FQfi+FblV0hd77Jr4NuB7Lbx6ByBhuU AlA/BnA7cZ5tFRzYW0vQbnhklSihuww96Mmu6wrmv9xx+ZsZN9QaOjDddGpXdYf8DxR7u8kEUEfr OanTqAGZOBwngCPDbuCJCSFaRdZkb2VGyufmwJZN244g3rXFDRARmkddA59J5AQoSDO26ae6Mz4M 1oxJC0dBsrp+FWRhVWBBHMcNEwrE1WifUV2dI8A382Tyika7F29fItbXcSzQvpRxUdI2HnweJ/p6 eSVENTEte+AroomUi7fRhLXi0YtJyd3vwfwSfnbxqnn6sB42DowqrKagg6wR4iYLel7dU9WNh3aH 57ivkGPzvEpDa2ANUBDbtP8A8MbGn1q+XAtbKMIo9dzTfkI9p2AFTyNvJ7KuQeseDPJ7KoB5T8LG 3uV3kOewg7QcFrKUSrqR6Kw+toOKPGsa+8XU+g4mj/Mt+bZT3bKAFB2UOmvTg/p3i/4QRisLPkUf 3DzHVyZmlUwXZFPzEek00b6nJvTz4duHVvLAneYqm+jU9+MEunOR5cd1xVPyMoy7wbzxsepar1+X He2kyTx+/Gwcfd5QyTOsca5s7kKo6ScFbRxf3ANNyMkIOmTdK+SuO5hi/LcPc9oqvdxU2mR+0/QP JhJ7om9uVNQW7MakbEBz6yeTktzkxFUOxhmMMjU3kJVqEEVBocx+0KoqzGgA0k4AkFJ5e3IDq2D4 aN7ZqE4hCKgjLvFGdOnZj+k8SYi9iyidst8L7J+cOUJuLVVkP+LF2G82R6xhpuA3pCaRGXMb9Z9U 47riMXfAa5ErUczpQYVbu3lhf2mWjL6a4CR3YVjqkBT94DG9HMjjaGBxkwPWMaRjNgOvBLyooGkl hik12hOxKufu1wRbxy3B1ELuj71Dgw8Kt+6Vj2N1Czj6x7PmwH4xed3GTVkZy56lTsjAbuPzEo9u Y72f0dGAqAKoyAAoByn9H4YxN5JRZnXSgb2VPvHAW8dlv5e2TWoSuhaenFIwkq7VYDzNgB0WMayz D4sCWQd9cD2z6oPzR8OHjHCh3d3F2pY0BBentLTWMCwvm3L+IUqxA70DX08qVYAg6Qcxik9jC3Oq 7h8qUxW337U/NO8PI2KwcQIOreSnobH4PE1A+lIvoxQcWFP+pN8mKScUUj6Uh9IxW44ia/NQt+8R jeuZZLnm9QeauKw2MVdrgv8Av1wEiRY0GhVAUeQcseH8Pbfv5RQspB7oH+LZgcY4mO8vJe1Ejglo 6+21faP9gW4vwcFbpTvSQplWntpTXh7bi34V3br61D+IF/iwVtEWKPUzdpj6Mb3fV5iMsCPiCBAf 8Va06xgSRsGRhUMMwR4+eHcKYTX0nZdlz7uuymlsDi3FwWvGJaOJ+1u19t617X9gixyAzJxcXNvG IxI1CR7VNZ8A8OmaqPnDzHWPGu24XpNMVRg3Qa/saSRgqKKsxyAAx/Sf07vSyyHceZRUtzR/Lhb7 iIEnENKCtVi+Vv7B3LrpEZp4Ns6mhEi+c08YqdGGtuHHdCkhp9pHujG9LK7k+8xON6GV0I91iMMv EwXCKWEyirGgrQqMGx4YjW9kPXFaAr70jfFgEATXh9e4Izz1LsH9hJYD/iKVw8TijISpB5vAtjdy rDEHB3mNBUZgYDxsGQ6GBqD4utvEaPckqSNIQet5fB7qONI2hajbgA3q5hjTX/YY3tmtZdMqD2qa xz4KsKEZEH9ght0Mkh1DCR3MjJdjPvFNQCdVMbpHf8PU5V7cdOnSuEjmkFrdtkY3yUt81sVGjxW1 93canTXwbr3ez5c/7DkzQKWPtAUPmxvFSw90nLG7bxLGOYZ+X9hSRQ6nSrCoPlwZ7FvyU+xRWMna Rq6sKXLXlnU0WpkQjn1rgR30T2shyLDtJX0jAe2mSVSK9hgcvES9zMkSgVO8wGDHw+F7qXQGPZSv pOJuJXkJSyhU7iEboXR6oOZ8ENIKSTnfI2D2R/Y2hFQdIxvyw91LSgki7B6wNOGm4PfElcwhqjGn OuWFS/szNGo0uhqQPnJXCpe2zwNoZgd5R1acAQ3sZY+yx3T58fhSI/0WB9HI/iypH9JgPTgiW9j3 h7KnePmwUsrV5n9lmNFPUM8NHY2hhjbKqIQQD858LNxe+ILZlBV2HW2WN6CHvJSKGSXtnqroxukZ aKaqYa54eN9GNWg1ivu82N2SNkI1EEYCxxs5OgAHCXV/2QpDLBrJGjexQf2QoRUHSDhmns0320un ZbzYrbzSwc1Q/pxv8Kva00VYxnHZmeYDUrK+KPaFgNZiB9Bx+NYg9MZHoxR7BajT2WGKJYrU6Oyx x+DYgdEZPpxRLQqDrEYHpODvTNEDpDOqY7zit9QnSATIfkxW4lln6wnowrQWcYddDsN5vPigFANX g0kQN0iuPw0C9Ap/ZjMA9OM41P1RjKNR1DGQA6P/AAz/AP/Z" transform="matrix(1.5907 0 0 1.5905 -15.9118 -41.6667)">
		</image>
	</g>
</g>
<g>
	<path d="M197.806,301.265l9.35-1.36v-70.943l-9.01-1.474v-6.29h32.072v6.29l-9.746,1.417v30.598h39.665v-30.598l-9.293-1.417v-6.29   h31.675v6.29l-9.066,1.417v71.056l9.066,1.303v6.176H250.9v-6.176l9.236-1.303v-32.979h-39.665v32.922l9.746,1.36v6.176h-32.412   V301.265z"/>
</g>
<g>
	<path d="M989.713,286.412l9.35-1.36v-70.943l-9.009-1.474v-6.29h32.071v6.29l-9.746,1.417v30.598h39.664v-30.598l-9.293-1.417   v-6.29h31.676v6.29l-9.066,1.417v71.056l9.066,1.303v6.176h-31.619v-6.176l9.236-1.303V252.13h-39.664v32.922l9.746,1.36v6.176   h-32.412V286.412z"/>
</g>
<g>
	<path d="M645.535,690.916c-6.158,0-11.569-1.021-16.234-3.063c-4.666-2.042-8.576-4.947-11.729-8.718   c-3.155-3.771-5.525-8.296-7.111-13.574s-2.38-11.101-2.38-17.465c0-6.658,0.992-12.662,2.975-18.016   c1.983-5.353,4.731-9.923,8.244-13.712c3.513-3.789,7.659-6.704,12.438-8.746c4.778-2.042,9.963-3.063,15.554-3.063   c6.157,0,11.56,1.007,16.206,3.02c4.646,2.012,8.518,4.854,11.616,8.529c3.097,3.674,5.42,8.115,6.969,13.322   s2.323,10.985,2.323,17.337c0,6.685-0.982,12.731-2.946,18.142c-1.965,5.409-4.675,10.035-8.131,13.875   c-3.457,3.841-7.556,6.823-12.296,8.946C656.292,689.854,651.126,690.916,645.535,690.916z M646.271,684.229   c3.551,0,6.771-0.779,9.662-2.339c2.89-1.56,5.354-3.89,7.395-6.99c2.039-3.101,3.616-6.999,4.731-11.695   c1.113-4.697,1.671-10.183,1.671-16.458c0-5.504-0.52-10.457-1.558-14.861c-1.04-4.403-2.56-8.137-4.562-11.201   c-2.003-3.063-4.458-5.412-7.366-7.045c-2.91-1.632-6.215-2.449-9.916-2.449c-3.552,0-6.772,0.743-9.662,2.229   s-5.364,3.752-7.423,6.798c-2.06,3.045-3.646,6.889-4.76,11.53c-1.115,4.643-1.672,10.101-1.672,16.374   c0,5.505,0.519,10.486,1.559,14.944c1.039,4.459,2.559,8.257,4.562,11.395c2.001,3.138,4.457,5.55,7.366,7.237   C639.207,683.385,642.532,684.229,646.271,684.229z"/>
</g>
<g>
</g>
<g>
</g>
<g>
</g>
<g>
</g>
<g>
</g>
<g>
</g>
</svg>