<?xml version="1.0" encoding="UTF-8"?>
<!-- Generator: Adobe Illustrator 23.1.0, SVG Export Plug-In . SVG Version: 6.00 Build 0)  -->
<svg version="1.1" id="Layer_1" xmlns="http://www.w3.org/2000/svg" xmlns:xlink="http://www.w3.org/1999/xlink" x="0px" y="0px" viewBox="0 0 1280.972 307.168" enable-background="new 0 0 1280.972 307.168" xml:space="preserve">
<path fill="none" stroke="#000000" stroke-width="1.9441" stroke-miterlimit="10" d="M238.137,157.583  c0,65.49-53.088,118.578-118.578,118.578c-65.495,0-118.588-53.088-118.588-118.578c0-65.49,53.093-118.577,118.588-118.577  C185.049,39.006,238.137,92.094,238.137,157.583z"/>
<path fill="none" stroke="#000000" stroke-width="1.9441" stroke-miterlimit="10" d="M215.363,155.358  c0,52.654-42.685,95.329-95.329,95.329c-52.654,0-95.339-42.674-95.339-95.329c0-52.654,42.684-95.328,95.339-95.328  C172.678,60.03,215.363,102.704,215.363,155.358z"/>
<path fill="none" stroke="#000000" stroke-width="1.9441" stroke-miterlimit="10" d="M185.45,155.206  c0,36.394-29.505,65.894-65.894,65.894c-36.394,0-65.899-29.5-65.899-65.894c0-36.394,29.505-65.894,65.899-65.894  C155.945,89.312,185.45,118.812,185.45,155.206z"/>
<path fill="none" stroke="#000000" stroke-width="1.9441" stroke-miterlimit="10" d="M526.564,161.752  c0,65.49-53.088,118.588-118.578,118.588c-65.495,0-118.587-53.098-118.587-118.588c0-65.485,53.093-118.577,118.587-118.577  C473.476,43.175,526.564,96.267,526.564,161.752z"/>
<path fill="none" stroke="#000000" stroke-width="1.9441" stroke-miterlimit="10" d="M503.789,159.527  c0,52.654-42.685,95.339-95.329,95.339c-52.654,0-95.329-42.684-95.329-95.339c0-52.644,42.675-95.328,95.329-95.328  C461.105,64.198,503.789,106.883,503.789,159.527z"/>
<path fill="none" stroke="#000000" stroke-width="1.9441" stroke-miterlimit="10" d="M473.877,159.382  c0,36.394-29.505,65.894-65.894,65.894c-36.394,0-65.899-29.5-65.899-65.894c0-36.394,29.505-65.894,65.899-65.894  C444.372,93.489,473.877,122.989,473.877,159.382z"/>
<path fill="none" stroke="#000000" stroke-width="1.9441" stroke-miterlimit="10" d="M971.229,176.818  c0,52.654-42.675,95.339-95.329,95.339c-52.644,0-95.339-42.684-95.339-95.339c0-52.644,42.694-95.328,95.339-95.328  C928.555,81.49,971.229,124.174,971.229,176.818z"/>
<path fill="none" stroke="#000000" stroke-width="1.9441" stroke-miterlimit="10" d="M941.316,176.667  c0,36.399-29.505,65.894-65.894,65.894c-36.389,0-65.889-29.495-65.889-65.894c0-36.394,29.5-65.894,65.889-65.894  C911.811,110.773,941.316,140.273,941.316,176.667z"/>
<path fill="none" stroke="#000000" stroke-width="1.9441" stroke-miterlimit="10" d="M1271.001,178.694  c0,65.49-53.088,118.578-118.578,118.578c-65.495,0-118.583-53.088-118.583-118.578c0-65.49,53.088-118.587,118.583-118.587  C1217.913,60.106,1271.001,113.204,1271.001,178.694z"/>
<path fill="none" stroke="#000000" stroke-width="1.9441" stroke-miterlimit="10" d="M1248.227,176.469  c0,52.654-42.675,95.329-95.329,95.329c-52.644,0-95.339-42.674-95.339-95.329c0-52.654,42.694-95.328,95.339-95.328  C1205.552,81.141,1248.227,123.815,1248.227,176.469z"/>
<path fill="none" stroke="#000000" stroke-width="1.9441" stroke-miterlimit="10" d="M1218.314,176.318  c0,36.394-29.505,65.894-65.894,65.894c-36.389,0-65.889-29.5-65.889-65.894c0-36.394,29.5-65.894,65.889-65.894  C1188.809,110.424,1218.314,139.924,1218.314,176.318z"/>
<path fill="#2B6776" d="M116.997,61.554c0,4.97-4.028,8.988-8.988,8.988c-4.965,0-8.993-4.018-8.993-8.988  c0-4.96,4.028-8.987,8.993-8.987C112.97,52.566,116.997,56.594,116.997,61.554"/>
<path fill="#2B6776" d="M139.601,61.554c0,4.97-4.028,8.988-8.988,8.988c-4.965,0-8.993-4.018-8.993-8.988  c0-4.96,4.028-8.987,8.993-8.987C135.574,52.566,139.601,56.594,139.601,61.554"/>
<path fill="#2B6776" d="M116.997,90.741c0,4.97-4.028,8.988-8.988,8.988c-4.965,0-8.993-4.018-8.993-8.988  c0-4.96,4.028-8.987,8.993-8.987C112.97,81.754,116.997,85.781,116.997,90.741"/>
<path fill="#2B6776" d="M141.587,91.189c0,4.97-4.028,8.988-8.988,8.988c-4.965,0-8.993-4.018-8.993-8.988  c0-4.96,4.028-8.987,8.993-8.987C137.56,82.201,141.587,86.229,141.587,91.189"/>
<path fill="#2B6776" d="M222.55,140.356c0,4.97-4.028,8.988-8.988,8.988c-4.965,0-8.993-4.018-8.993-8.988  c0-4.96,4.028-8.987,8.993-8.987C218.523,131.369,222.55,135.397,222.55,140.356"/>
<path fill="#2B6776" d="M224.35,168.518c0,4.97-4.028,8.988-8.988,8.988c-4.965,0-8.993-4.018-8.993-8.988  c0-4.97,4.028-8.987,8.993-8.987C220.322,159.531,224.35,163.548,224.35,168.518"/>
<path fill="#2B6776" d="M132.596,250.685c0,4.97-4.028,8.988-8.988,8.988c-4.965,0-8.993-4.018-8.993-8.988  c0-4.96,4.028-8.982,8.993-8.982C128.568,241.702,132.596,245.725,132.596,250.685"/>
<path fill="#2B6776" d="M109.541,248.863c0,4.96-4.023,8.983-8.988,8.983s-8.993-4.022-8.993-8.983c0-4.97,4.028-8.987,8.993-8.987  S109.541,243.893,109.541,248.863"/>
<path fill="#2B6776" d="M33.692,165.685c0,4.97-4.028,8.988-8.988,8.988c-4.965,0-8.993-4.018-8.993-8.988  c0-4.97,4.028-8.987,8.993-8.987C29.664,156.698,33.692,160.716,33.692,165.685"/>
<path fill="#2B6776" d="M35.45,136.87c0,4.97-4.028,8.988-8.988,8.988c-4.965,0-8.993-4.018-8.993-8.988  c0-4.96,4.028-8.987,8.993-8.987C31.422,127.883,35.45,131.91,35.45,136.87"/>
<path fill="#599D6D" d="M152.059,154.902c0,17.522-14.207,31.718-31.718,31.718c-17.521,0-31.718-14.197-31.718-31.718  c0-17.521,14.197-31.718,31.718-31.718C137.852,123.184,152.059,137.381,152.059,154.902"/>
<path fill="#E68D23" d="M440.178,157.583c0,17.522-14.202,31.718-31.718,31.718c-17.522,0-31.723-14.197-31.723-31.718  c0-17.521,14.202-31.718,31.723-31.718C425.977,125.865,440.178,140.062,440.178,157.583"/>
<path fill="#2B6776" d="M404.677,67.454c0,4.96-4.028,8.988-8.988,8.988c-4.965,0-8.993-4.028-8.993-8.988  c0-4.97,4.028-8.987,8.993-8.987C400.649,58.467,404.677,62.485,404.677,67.454"/>
<path fill="#2B6776" d="M427.28,63.695c0,4.96-4.028,8.988-8.988,8.988c-4.965,0-8.993-4.028-8.993-8.988  c0-4.97,4.028-8.987,8.993-8.987C423.252,54.707,427.28,58.725,427.28,63.695"/>
<path fill="#2B6776" d="M406.389,93.486c0,4.96-4.028,8.988-8.988,8.988c-4.965,0-8.993-4.028-8.993-8.988  c0-4.97,4.028-8.987,8.993-8.987C402.361,84.498,406.389,88.516,406.389,93.486"/>
<path fill="#2B6776" d="M429.266,93.486c0,4.96-4.028,8.988-8.988,8.988c-4.965,0-8.993-4.028-8.993-8.988  c0-4.97,4.028-8.987,8.993-8.987C425.238,84.498,429.266,88.516,429.266,93.486"/>
<path fill="#2B6776" d="M512.344,144.559c0,4.97-4.028,8.988-8.988,8.988c-4.965,0-8.993-4.018-8.993-8.988  c0-4.96,4.028-8.987,8.993-8.987C508.316,135.572,512.344,139.599,512.344,144.559"/>
<path fill="#2B6776" d="M534.948,144.559c0,4.97-4.028,8.988-8.988,8.988c-4.965,0-8.993-4.018-8.993-8.988  c0-4.96,4.028-8.987,8.993-8.987C530.92,135.572,534.948,139.599,534.948,144.559"/>
<path fill="#2B6776" d="M512.344,173.75c0,4.97-4.028,8.983-8.988,8.983c-4.965,0-8.993-4.013-8.993-8.983  c0-4.97,4.028-8.987,8.993-8.987C508.316,164.763,512.344,168.781,512.344,173.75"/>
<path fill="#2B6776" d="M535.551,170.744c0,4.97-4.023,8.988-8.988,8.988s-8.993-4.018-8.993-8.988c0-4.97,4.028-8.987,8.993-8.987  S535.551,165.774,535.551,170.744"/>
<path fill="#2B6776" d="M427.28,41.422c0,4.96-4.028,8.988-8.988,8.988c-4.965,0-8.993-4.028-8.993-8.988  c0-4.96,4.028-8.987,8.993-8.987C423.252,32.434,427.28,36.462,427.28,41.422"/>
<path fill="#2B6776" d="M298.391,140.356c0,4.97-4.028,8.988-8.988,8.988c-4.965,0-8.993-4.018-8.993-8.988  c0-4.96,4.028-8.987,8.993-8.987C294.363,131.369,298.391,135.397,298.391,140.356"/>
<path fill="#2B6776" d="M297.377,169.285c0,4.97-4.028,8.988-8.988,8.988c-4.965,0-8.993-4.018-8.993-8.988  c0-4.96,4.028-8.982,8.993-8.982C293.349,160.303,297.377,164.325,297.377,169.285"/>
<path fill="#2B6776" d="M324.773,142.616c0,4.97-4.028,8.988-8.988,8.988c-4.965,0-8.993-4.018-8.993-8.988  c0-4.96,4.028-8.987,8.993-8.987C320.745,133.628,324.773,137.656,324.773,142.616"/>
<path fill="#2B6776" d="M323.018,170.782c0,4.96-4.028,8.983-8.988,8.983c-4.965,0-8.993-4.022-8.993-8.983  c0-4.97,4.028-8.987,8.993-8.987C318.991,161.794,323.018,165.812,323.018,170.782"/>
<path fill="#2B6776" d="M421.945,254.862c0,4.97-4.028,8.988-8.988,8.988c-4.965,0-8.993-4.018-8.993-8.988  c0-4.97,4.028-8.987,8.993-8.987C417.918,245.875,421.945,249.892,421.945,254.862"/>
<path fill="#2B6776" d="M420.275,280.339c0,4.96-4.023,8.983-8.988,8.983s-8.993-4.022-8.993-8.983c0-4.97,4.028-8.987,8.993-8.987  S420.275,275.369,420.275,280.339"/>
<path fill="#2B6776" d="M397.401,253.259c0,4.97-4.028,8.988-8.988,8.988c-4.965,0-8.993-4.018-8.993-8.988  c0-4.97,4.028-8.987,8.993-8.987C393.374,244.272,397.401,248.29,397.401,253.259"/>
<path fill="#2B6776" d="M395.689,278c0,4.96-4.028,8.983-8.988,8.983c-4.965,0-8.993-4.022-8.993-8.983  c0-4.97,4.028-8.987,8.993-8.987C391.662,269.013,395.689,273.031,395.689,278"/>
<path fill="none" stroke="#2B6776" stroke-width="1.8444" stroke-miterlimit="10" stroke-dasharray="4.1074,2.5721" d="  M403.332,42.298c0,4.706-3.818,8.514-8.524,8.514c-4.706,0-8.514-3.808-8.514-8.514c0-4.705,3.808-8.524,8.514-8.524  C399.514,33.775,403.332,37.593,403.332,42.298z"/>
<path fill="none" stroke="#000000" stroke-width="1.9291" stroke-miterlimit="10" d="M217.333,82.201  c8.439-45.939,50.531-81.237,99.615-81.237c20.054,0,44.185,9.207,60.974,21.44"/>
<polygon points="369.456,28.197 388.413,31.457 381.763,13.412 "/>
<path fill="#2B6776" d="M224.35,87.502c0,4.96-4.028,8.988-8.988,8.988c-4.965,0-8.993-4.028-8.993-8.988  c0-4.97,4.028-8.987,8.993-8.987C220.322,78.514,224.35,82.532,224.35,87.502"/>
<path fill="#2B6776" d="M979.917,162.359c0,4.96-4.028,8.983-8.988,8.983c-4.97,0-8.997-4.022-8.997-8.983  c0-4.97,4.028-8.987,8.997-8.987C975.889,153.372,979.917,157.39,979.917,162.359"/>
<path fill="#2B6776" d="M980.524,188.543c0,4.96-4.028,8.983-8.988,8.983c-4.97,0-8.997-4.022-8.997-8.983  c0-4.97,4.028-8.987,8.997-8.987C976.496,179.556,980.524,183.574,980.524,188.543"/>
<path fill="#2B6776" d="M791.776,158.251c0,4.97-4.028,8.988-8.988,8.988c-4.97,0-8.997-4.018-8.997-8.988  c0-4.96,4.028-8.982,8.997-8.982C787.748,149.269,791.776,153.291,791.776,158.251"/>
<path fill="#2B6776" d="M789.558,185.81c0,4.97-4.028,8.988-8.988,8.988c-4.965,0-8.993-4.018-8.993-8.988  c0-4.97,4.028-8.987,8.993-8.987C785.531,176.823,789.558,180.841,789.558,185.81"/>
<path fill="#2B6776" d="M873.107,112.041c0,4.96-4.028,8.988-8.988,8.988c-4.97,0-8.997-4.028-8.997-8.988  c0-4.97,4.028-8.987,8.997-8.987C869.079,103.054,873.107,107.072,873.107,112.041"/>
<path fill="#2B6776" d="M873.107,81.753c0,4.96-4.028,8.988-8.988,8.988c-4.97,0-8.997-4.028-8.997-8.988  c0-4.97,4.028-8.987,8.997-8.987C869.079,72.766,873.107,76.784,873.107,81.753"/>
<path fill="#2B6776" d="M897.5,112.041c0,4.96-4.023,8.988-8.983,8.988c-4.97,0-8.998-4.028-8.998-8.988  c0-4.97,4.028-8.987,8.998-8.987C893.477,103.054,897.5,107.072,897.5,112.041"/>
<path fill="#2B6776" d="M896.216,81.753c0,4.96-4.028,8.988-8.983,8.988c-4.97,0-8.998-4.028-8.998-8.988  c0-4.97,4.028-8.987,8.998-8.987C892.188,72.766,896.216,76.784,896.216,81.753"/>
<path fill="#2B6776" d="M865.824,271.349c0,4.97-4.028,8.988-8.983,8.988c-4.97,0-8.998-4.018-8.998-8.988  c0-4.97,4.028-8.987,8.998-8.987C861.797,262.361,865.824,266.379,865.824,271.349"/>
<path fill="#2B6776" d="M888.516,272.153c0,4.96-4.028,8.983-8.988,8.983c-4.97,0-8.997-4.022-8.997-8.983  c0-4.97,4.028-8.987,8.997-8.987C884.488,263.166,888.516,267.184,888.516,272.153"/>
<path fill="#E68D23" d="M1185.599,175.429c0,17.522-14.202,31.718-31.718,31.718c-17.521,0-31.723-14.197-31.723-31.718  c0-17.521,14.202-31.718,31.723-31.718C1171.398,143.711,1185.599,157.907,1185.599,175.429"/>
<path fill="#2B6776" d="M1150.098,85.3c0,4.96-4.028,8.988-8.988,8.988c-4.965,0-8.993-4.028-8.993-8.988  c0-4.97,4.028-8.987,8.993-8.987C1146.07,76.312,1150.098,80.33,1150.098,85.3"/>
<path fill="#2B6776" d="M1172.705,81.541c0,4.96-4.028,8.988-8.988,8.988c-4.97,0-8.997-4.028-8.997-8.988  c0-4.97,4.028-8.987,8.997-8.987C1168.677,72.553,1172.705,76.571,1172.705,81.541"/>
<path fill="#2B6776" d="M1150.098,112.615c0,4.96-4.028,8.988-8.988,8.988c-4.965,0-8.993-4.028-8.993-8.988  c0-4.97,4.028-8.987,8.993-8.987C1146.07,103.628,1150.098,107.646,1150.098,112.615"/>
<path fill="#2B6776" d="M1172.705,111.332c0,4.96-4.028,8.988-8.988,8.988c-4.97,0-8.997-4.028-8.997-8.988  c0-4.97,4.028-8.987,8.997-8.987C1168.677,102.344,1172.705,106.362,1172.705,111.332"/>
<path fill="#2B6776" d="M1257.766,162.405c0,4.97-4.028,8.988-8.988,8.988c-4.97,0-8.997-4.018-8.997-8.988  c0-4.97,4.028-8.987,8.997-8.987C1253.738,153.418,1257.766,157.435,1257.766,162.405"/>
<path fill="#2B6776" d="M1280.365,162.405c0,4.97-4.028,8.988-8.988,8.988c-4.965,0-8.993-4.018-8.993-8.988  c0-4.97,4.028-8.987,8.993-8.987C1276.337,153.418,1280.365,157.435,1280.365,162.405"/>
<path fill="#2B6776" d="M1257.219,190.739c0,4.97-4.028,8.988-8.988,8.988c-4.97,0-8.997-4.018-8.997-8.988  c0-4.97,4.028-8.987,8.997-8.987C1253.191,181.751,1257.219,185.769,1257.219,190.739"/>
<path fill="#2B6776" d="M1280.972,188.589c0,4.97-4.028,8.988-8.988,8.988c-4.965,0-8.993-4.018-8.993-8.988  c0-4.97,4.028-8.987,8.993-8.987C1276.944,179.602,1280.972,183.62,1280.972,188.589"/>
<path fill="#2B6776" d="M1171.854,59.267c0,4.96-4.023,8.988-8.983,8.988c-4.97,0-8.998-4.028-8.998-8.988  c0-4.97,4.028-8.987,8.998-8.987C1167.831,50.28,1171.854,54.298,1171.854,59.267"/>
<path fill="#2B6776" d="M1043.812,158.206c0,4.96-4.028,8.983-8.988,8.983c-4.97,0-8.997-4.022-8.997-8.983  c0-4.97,4.028-8.987,8.997-8.987C1039.785,149.218,1043.812,153.236,1043.812,158.206"/>
<path fill="#2B6776" d="M1042.802,187.131c0,4.97-4.028,8.988-8.988,8.988c-4.97,0-8.997-4.018-8.997-8.988  c0-4.96,4.028-8.982,8.997-8.982C1038.774,178.149,1042.802,182.171,1042.802,187.131"/>
<path fill="#2B6776" d="M1068.44,159.178c0,4.97-4.028,8.988-8.988,8.988c-4.965,0-8.993-4.018-8.993-8.988  c0-4.97,4.028-8.987,8.993-8.987C1064.412,150.19,1068.44,154.208,1068.44,159.178"/>
<path fill="#2B6776" d="M1067.437,187.131c0,4.97-4.028,8.988-8.988,8.988c-4.965,0-8.993-4.018-8.993-8.988  c0-4.96,4.028-8.982,8.993-8.982C1063.409,178.149,1067.437,182.171,1067.437,187.131"/>
<path fill="#2B6776" d="M1167.366,272.708c0,4.97-4.028,8.988-8.988,8.988c-4.97,0-8.997-4.018-8.997-8.988  c0-4.97,4.028-8.987,8.997-8.987C1163.339,263.72,1167.366,267.738,1167.366,272.708"/>
<path fill="#2B6776" d="M1165.695,298.185c0,4.96-4.028,8.983-8.988,8.983c-4.965,0-8.993-4.022-8.993-8.983  c0-4.97,4.028-8.987,8.993-8.987C1161.668,289.198,1165.695,293.216,1165.695,298.185"/>
<path fill="#2B6776" d="M1142.822,271.105c0,4.97-4.028,8.988-8.988,8.988c-4.97,0-8.997-4.018-8.997-8.988  c0-4.97,4.028-8.987,8.997-8.987C1138.794,262.118,1142.822,266.136,1142.822,271.105"/>
<path fill="#2B6776" d="M1141.106,295.847c0,4.96-4.028,8.983-8.983,8.983c-4.97,0-8.998-4.022-8.998-8.983  c0-4.97,4.028-8.987,8.998-8.987C1137.078,286.859,1141.106,290.877,1141.106,295.847"/>
<path fill="#2B6776" d="M1150.098,59.267c0,4.96-4.028,8.988-8.988,8.988c-4.965,0-8.993-4.028-8.993-8.988  c0-4.97,4.028-8.987,8.993-8.987C1146.07,50.28,1150.098,54.298,1150.098,59.267"/>
<line fill="none" stroke="#000000" stroke-width="1.9441" stroke-miterlimit="10" x1="1248.227" y1="65.563" x2="1275.289" y2="65.563"/>
<line fill="none" stroke="#000000" stroke-width="1.9441" stroke-miterlimit="10" x1="957.393" y1="76.308" x2="979.914" y2="76.308"/>
<line fill="none" stroke="#000000" stroke-width="1.9441" stroke-miterlimit="10" x1="968.655" y1="87.57" x2="968.655" y2="65.049"/>
<line fill="none" stroke="#000000" stroke-width="1.9441" stroke-miterlimit="10" x1="579.973" y1="168.169" x2="722.208" y2="168.169"/>
<polygon points="719.375,177.859 736.154,168.169 719.375,158.473 "/>
<path fill="#599D6D" d="M907.614,175.429c0,17.522-14.202,31.718-31.713,31.718c-17.516,0-31.718-14.197-31.718-31.718  c0-17.521,14.202-31.718,31.718-31.718C893.412,143.711,907.614,157.907,907.614,175.429"/>
<g>
	<path d="M96.632,164.023l3.016-0.421v-22.901l-3.016-0.475v-2.029h7.22l12.301,17.967l1.938,3.619v-19.101l-3.271-0.457v-2.029   h9.065v2.029l-3.034,0.475v25.314h-2.998l-12.593-18.333l-2.852-4.972v20.874l3.491,0.438v1.992h-9.267V164.023z"/>
	<path d="M126.483,160.084c0-1.28,0.344-2.367,1.033-3.258c0.688-0.891,1.602-1.617,2.742-2.178   c1.139-0.562,2.443-0.977,3.911-1.245c1.468-0.269,2.988-0.403,4.561-0.403v-0.813c0-0.708-0.062-1.313-0.183-1.813   s-0.338-0.907-0.649-1.219c-0.311-0.313-0.728-0.542-1.252-0.688s-1.188-0.219-1.992-0.219c-0.683,0-1.343,0.05-1.983,0.151   s-1.24,0.228-1.8,0.382c-0.561,0.154-1.073,0.318-1.536,0.494c-0.463,0.175-0.859,0.337-1.188,0.485h-0.018l-0.914-1.678   c0.207-0.195,0.6-0.454,1.179-0.777c0.579-0.323,1.261-0.64,2.047-0.951c0.786-0.311,1.636-0.579,2.55-0.804   c0.914-0.225,1.81-0.338,2.687-0.338c1.316,0,2.425,0.125,3.327,0.376s1.629,0.656,2.184,1.216c0.555,0.56,0.954,1.286,1.197,2.178   c0.244,0.893,0.366,1.974,0.366,3.246v11.372h2.23v1.791c-0.232,0.062-0.509,0.128-0.832,0.201s-0.667,0.14-1.033,0.201   c-0.365,0.061-0.734,0.115-1.105,0.164c-0.372,0.049-0.722,0.073-1.051,0.073c-0.354,0-0.652-0.019-0.896-0.055   c-0.244-0.037-0.445-0.119-0.603-0.247c-0.159-0.128-0.274-0.316-0.347-0.566c-0.073-0.25-0.11-0.582-0.11-0.996v-0.877   c-0.208,0.194-0.502,0.447-0.886,0.758s-0.841,0.612-1.371,0.905c-0.53,0.292-1.127,0.545-1.791,0.758   c-0.665,0.214-1.38,0.32-2.148,0.32c-0.84,0-1.645-0.116-2.413-0.348c-0.768-0.232-1.441-0.589-2.02-1.071   c-0.579-0.481-1.039-1.098-1.38-1.849C126.653,162.016,126.483,161.123,126.483,160.084z M131.034,159.563   c0,0.671,0.088,1.24,0.265,1.709c0.177,0.47,0.42,0.854,0.731,1.151c0.311,0.299,0.682,0.516,1.115,0.649   c0.432,0.134,0.898,0.201,1.398,0.201c0.28,0,0.6-0.043,0.959-0.128c0.359-0.086,0.728-0.204,1.105-0.356   c0.378-0.152,0.75-0.329,1.115-0.53c0.365-0.201,0.701-0.417,1.005-0.649v-6.562c-1.414,0-2.608,0.125-3.583,0.375   c-0.975,0.25-1.767,0.578-2.376,0.987c-0.61,0.408-1.051,0.886-1.325,1.435C131.171,158.393,131.034,158.966,131.034,159.563z"/>
</g>
<g>
	<path d="M852.475,186.406l3.016-0.421v-22.901l-3.016-0.476v-2.028h7.22l12.301,17.967l1.938,3.619v-19.101l-3.271-0.457v-2.028   h9.065v2.028l-3.034,0.476v25.314h-2.997l-12.594-18.332l-2.851-4.972v20.873l3.49,0.438v1.992h-9.267V186.406z"/>
	<path d="M882.327,182.467c0-1.28,0.344-2.367,1.032-3.258s1.603-1.616,2.742-2.178c1.139-0.562,2.442-0.977,3.911-1.245   s2.988-0.402,4.561-0.402v-0.813c0-0.709-0.062-1.313-0.183-1.813c-0.122-0.5-0.339-0.907-0.649-1.22s-0.729-0.541-1.252-0.688   c-0.523-0.146-1.188-0.219-1.992-0.219c-0.683,0-1.344,0.051-1.983,0.151s-1.239,0.229-1.8,0.382   c-0.561,0.154-1.072,0.319-1.535,0.494c-0.464,0.176-0.859,0.338-1.188,0.486h-0.019l-0.913-1.679   c0.207-0.194,0.6-0.453,1.179-0.776c0.578-0.323,1.261-0.64,2.047-0.95c0.786-0.312,1.636-0.579,2.55-0.805s1.81-0.338,2.687-0.338   c1.316,0,2.425,0.125,3.327,0.376c0.901,0.251,1.629,0.656,2.184,1.216s0.953,1.286,1.197,2.179   c0.244,0.892,0.365,1.974,0.365,3.245v11.372h2.23v1.791c-0.231,0.062-0.509,0.128-0.832,0.201s-0.667,0.14-1.032,0.201   c-0.366,0.061-0.734,0.115-1.106,0.164c-0.371,0.049-0.722,0.073-1.051,0.073c-0.354,0-0.651-0.019-0.896-0.055   c-0.244-0.037-0.445-0.119-0.604-0.247s-0.273-0.316-0.347-0.566s-0.109-0.582-0.109-0.996v-0.877   c-0.208,0.194-0.503,0.447-0.887,0.758s-0.841,0.612-1.371,0.905c-0.53,0.292-1.127,0.545-1.791,0.758   c-0.664,0.214-1.38,0.32-2.147,0.32c-0.841,0-1.646-0.116-2.413-0.348c-0.768-0.232-1.44-0.589-2.02-1.071   c-0.579-0.481-1.039-1.098-1.38-1.849C882.497,184.399,882.327,183.505,882.327,182.467z M886.878,181.946   c0,0.671,0.089,1.24,0.266,1.709c0.176,0.47,0.42,0.854,0.73,1.151c0.311,0.299,0.683,0.516,1.115,0.649s0.898,0.201,1.398,0.201   c0.28,0,0.6-0.043,0.959-0.128c0.359-0.086,0.729-0.204,1.106-0.356c0.377-0.152,0.749-0.329,1.114-0.53   c0.366-0.201,0.701-0.417,1.006-0.649v-6.562c-1.414,0-2.607,0.125-3.583,0.375c-0.975,0.25-1.767,0.579-2.376,0.987   s-1.051,0.886-1.325,1.435C887.016,180.776,886.878,181.349,886.878,181.946z"/>
</g>
<g>
	<path d="M389.036,158.538c0-2.153,0.35-4.087,1.051-5.8s1.66-3.164,2.879-4.354c1.218-1.189,2.653-2.103,4.304-2.739   c1.651-0.636,3.427-0.955,5.328-0.955c0.828,0,1.651,0.046,2.467,0.137s1.581,0.201,2.294,0.329s1.355,0.256,1.928,0.384   s1.036,0.222,1.389,0.283l-0.347,6.674h-2.724l-1.023-4.53c-0.244-0.308-0.744-0.565-1.499-0.773s-1.797-0.311-3.125-0.311   c-1.158,0-2.224,0.243-3.198,0.729c-0.975,0.485-1.816,1.202-2.522,2.15c-0.707,0.947-1.258,2.12-1.654,3.518   c-0.396,1.398-0.594,3.008-0.594,4.833c0,1.575,0.161,3.1,0.484,4.574c0.323,1.475,0.825,2.781,1.508,3.918   c0.682,1.137,1.554,2.049,2.614,2.735c1.06,0.688,2.333,1.03,3.82,1.03c0.633,0,1.182-0.041,1.645-0.123   c0.463-0.083,0.862-0.187,1.197-0.311c0.335-0.124,0.612-0.262,0.832-0.416c0.219-0.153,0.402-0.307,0.548-0.46l1.59-3.747   l2.595,0.348l-0.804,5.472c-0.487,0.036-0.95,0.128-1.389,0.277c-0.438,0.149-0.929,0.307-1.471,0.474   c-0.542,0.167-1.167,0.319-1.874,0.456c-0.707,0.138-1.566,0.206-2.577,0.206c-2.193,0-4.14-0.318-5.84-0.955   c-1.7-0.636-3.131-1.556-4.295-2.757c-1.164-1.201-2.044-2.668-2.641-4.398C389.334,162.704,389.036,160.738,389.036,158.538z"/>
	<path d="M413.714,170.535l2.961-0.311v-25.498l-2.998-0.366v-1.736l6.232-0.786h0.037l0.896,0.621v27.764l3.107,0.311v1.992   h-10.235V170.535z"/>
</g>
<g>
	<path d="M1134.613,175.346c0-2.153,0.351-4.087,1.051-5.8c0.701-1.713,1.66-3.164,2.879-4.354s2.653-2.103,4.305-2.739   s3.427-0.955,5.328-0.955c0.828,0,1.65,0.046,2.467,0.137c0.816,0.092,1.581,0.201,2.294,0.329s1.355,0.256,1.929,0.384   c0.572,0.128,1.035,0.223,1.389,0.283l-0.347,6.675h-2.724l-1.023-4.53c-0.244-0.308-0.743-0.565-1.499-0.772   c-0.756-0.208-1.797-0.312-3.125-0.312c-1.158,0-2.225,0.243-3.199,0.729s-1.815,1.202-2.522,2.149   c-0.706,0.948-1.258,2.12-1.653,3.519c-0.396,1.397-0.595,3.008-0.595,4.832c0,1.575,0.162,3.1,0.484,4.574   c0.323,1.475,0.826,2.781,1.508,3.918c0.683,1.137,1.554,2.049,2.614,2.735c1.06,0.688,2.333,1.03,3.82,1.03   c0.633,0,1.182-0.041,1.645-0.123c0.463-0.083,0.862-0.187,1.197-0.311s0.612-0.262,0.832-0.416   c0.219-0.153,0.401-0.307,0.548-0.46l1.59-3.747l2.596,0.348l-0.804,5.472c-0.488,0.036-0.951,0.128-1.39,0.277   s-0.929,0.307-1.472,0.474c-0.542,0.167-1.166,0.319-1.873,0.456c-0.707,0.138-1.565,0.206-2.577,0.206   c-2.193,0-4.14-0.318-5.84-0.955c-1.699-0.636-3.132-1.556-4.295-2.757c-1.164-1.201-2.044-2.668-2.642-4.398   C1134.912,179.512,1134.613,177.546,1134.613,175.346z"/>
	<path d="M1159.292,187.343l2.961-0.311v-25.497l-2.997-0.366v-1.736l6.232-0.786h0.037l0.896,0.622v27.764l3.106,0.311v1.992   h-10.235V187.343z"/>
</g>
<g>
</g>
<g>
</g>
<g>
</g>
<g>
</g>
<g>
</g>
<g>
</g>
</svg>