<?xml version="1.0" encoding="UTF-8"?>
<!-- Generator: Adobe Illustrator 23.1.0, SVG Export Plug-In . SVG Version: 6.00 Build 0)  -->
<svg version="1.1" id="Layer_1" xmlns="http://www.w3.org/2000/svg" xmlns:xlink="http://www.w3.org/1999/xlink" x="0px" y="0px" viewBox="0 0 1280 679.093" enable-background="new 0 0 1280 679.093" xml:space="preserve">
<g>
	<path d="M30.216,490.824C10.072,472.73,0,448.872,0,419.28V259.674c0-19.282,4.546-36.396,13.697-51.37   c9.151-14.974,22.135-26.591,38.951-34.91c16.787-8.319,36.01-12.479,57.669-12.479c22.016,0,41.536,4.16,58.53,12.479   c16.995,8.319,30.157,19.936,39.486,34.91c9.329,14.974,13.994,32.088,13.994,51.37V419.28c0,19.609-4.665,36.901-13.994,51.845   c-9.329,14.974-22.491,26.532-39.486,34.673s-36.515,12.211-58.53,12.211C77.07,518.01,50.39,508.977,30.216,490.824z    M169.976,474.127c15.123-13.637,22.669-31.404,22.669-53.361V259.169c0-22.253-7.547-40.318-22.669-54.103   c-15.123-13.786-34.999-20.708-59.659-20.708c-24.274,0-43.764,6.923-58.53,20.708c-14.737,13.786-22.105,31.85-22.105,54.103   v161.597c0,21.956,7.457,39.723,22.402,53.361c14.915,13.637,34.346,20.441,58.233,20.441   C134.976,494.568,154.853,487.764,169.976,474.127z"/>
	<path d="M559.752,491.834c-19.966-17.47-29.949-40.466-29.949-69.078V255.692c0-28.612,9.983-51.548,29.949-68.84   s46.379-25.938,79.239-25.938c33.246,0,59.838,8.646,79.833,25.938c19.966,17.292,29.949,40.08,29.949,68.335v4.486   c0,1.664-0.565,3.001-1.664,3.981c-1.129,1.01-2.436,1.515-3.922,1.515l-18.48,0.98c-3.744,0-5.615-1.664-5.615-4.991v-6.982   c0-20.946-7.368-37.822-22.135-50.598c-14.737-12.805-34.049-19.223-57.966-19.223c-23.888,0-43.11,6.418-57.669,19.223   c-14.558,12.776-21.837,29.651-21.837,50.598v170.065c0,21.303,7.279,38.327,21.837,51.132   c14.558,12.805,33.781,19.193,57.669,19.193c24.274,0,43.705-6.388,58.263-19.193c14.558-12.805,21.837-29.83,21.837-51.132v-5.972   c0-3.328,1.872-4.991,5.615-4.991l18.48,1.01c1.486,0,2.793,0.416,3.922,1.248c1.099,0.832,1.664,1.901,1.664,3.238v4.486   c0,28.582-9.983,51.548-29.949,68.81c-19.995,17.292-46.587,25.938-79.833,25.938C606.131,518.01,579.718,509.304,559.752,491.834z   "/>
	<path d="M1082.574,490.824c-20.144-18.094-30.216-41.952-30.216-71.544V259.674c0-19.282,4.546-36.396,13.697-51.37   c9.151-14.974,22.135-26.591,38.951-34.91c16.787-8.319,36.01-12.479,57.669-12.479c22.016,0,41.536,4.16,58.53,12.479   c16.995,8.319,30.157,19.936,39.486,34.91c9.329,14.974,13.994,32.088,13.994,51.37V419.28c0,19.609-4.665,36.901-13.994,51.845   c-9.329,14.974-22.491,26.532-39.486,34.673c-16.995,8.141-36.515,12.211-58.53,12.211   C1129.428,518.01,1102.748,508.977,1082.574,490.824z M1222.334,474.127c15.123-13.637,22.669-31.404,22.669-53.361V259.169   c0-22.253-7.547-40.318-22.669-54.103c-15.123-13.786-34.999-20.708-59.659-20.708c-24.274,0-43.764,6.923-58.53,20.708   c-14.737,13.786-22.105,31.85-22.105,54.103v161.597c0,21.956,7.457,39.723,22.402,53.361   c14.915,13.637,34.346,20.441,58.233,20.441C1187.335,494.568,1207.211,487.764,1222.334,474.127z"/>
</g>
<path fill-rule="evenodd" clip-rule="evenodd" d="M308.726,253.52c-21.602,0-39.034,17.434-39.034,38.913  c0,21.51,17.433,38.973,39.034,38.973c21.539,0,39.003-17.463,39.003-38.973C347.729,270.954,330.266,253.52,308.726,253.52"/>
<path d="M308.726,253.52c-21.602,0-39.034,17.434-39.034,38.913c0,21.51,17.433,38.973,39.034,38.973  c21.539,0,39.003-17.463,39.003-38.973C347.729,270.954,330.266,253.52,308.726,253.52"/>
<path fill-rule="evenodd" clip-rule="evenodd" d="M425.779,253.52c-21.54,0-39.034,17.434-39.034,38.913  c0,21.51,17.494,38.973,39.034,38.973c21.539,0,39.003-17.463,39.003-38.973C464.782,270.954,447.318,253.52,425.779,253.52"/>
<path d="M425.779,253.52c-21.54,0-39.034,17.434-39.034,38.913c0,21.51,17.494,38.973,39.034,38.973  c21.539,0,39.003-17.463,39.003-38.973C464.782,270.954,447.318,253.52,425.779,253.52"/>
<path fill-rule="evenodd" clip-rule="evenodd" d="M847.22,253.52c-21.54,0-38.973,17.434-38.973,38.913  c0,21.51,17.433,38.973,38.973,38.973c21.601,0,39.034-17.463,39.034-38.973C886.253,270.954,868.82,253.52,847.22,253.52"/>
<path d="M847.22,253.52c-21.54,0-38.973,17.434-38.973,38.913c0,21.51,17.433,38.973,38.973,38.973  c21.601,0,39.034-17.463,39.034-38.973C886.253,270.954,868.82,253.52,847.22,253.52"/>
<path fill-rule="evenodd" clip-rule="evenodd" d="M956.141,253.52c-21.602,0-39.034,17.434-39.034,38.913  c0,21.51,17.433,38.973,39.034,38.973c21.539,0,38.972-17.463,38.972-38.973C995.113,270.954,977.68,253.52,956.141,253.52"/>
<path d="M956.141,253.52c-21.602,0-39.034,17.434-39.034,38.913c0,21.51,17.433,38.973,39.034,38.973  c21.539,0,38.972-17.463,38.972-38.973C995.113,270.954,977.68,253.52,956.141,253.52"/>
<path fill-rule="evenodd" clip-rule="evenodd" fill="#EB292A" d="M2.287,82.631h82.449V0H2.287V82.631z M119.359,82.631h82.51V0  h-82.51V82.631z"/>
<path fill="#F1262A" d="M201.807,0h-82.479v82.631h82.479V0z M84.767,0H2.318v82.631h82.449V0z"/>
<path fill-rule="evenodd" clip-rule="evenodd" fill="#EB292A" d="M2.287,679.062h82.449v-82.51H2.287V679.062z M119.359,679.062  h82.51v-82.51h-82.51V679.062z"/>
<path fill="#F1262A" d="M201.807,596.583h-82.479v82.51h82.479V596.583z M84.767,596.583H2.318v82.51h82.449V596.583z"/>
<path fill-rule="evenodd" clip-rule="evenodd" fill="#EB292A" d="M1080.632,82.631h82.327V0h-82.327V82.631z M1197.673,82.631H1280  V0h-82.327V82.631z"/>
<path fill="#F1262A" d="M1280,0h-82.327v82.631H1280V0z M1162.898,0h-82.327v82.631h82.327V0z"/>
<path fill-rule="evenodd" clip-rule="evenodd" fill="#EB292A" d="M1078.381,679.062h82.327v-82.51h-82.327V679.062z   M1195.269,679.062h82.51v-82.51h-82.51V679.062z"/>
<path fill="#F1262A" d="M1277.779,596.583h-82.51v82.51h82.51V596.583z M1160.708,596.583h-82.327v82.51h82.327V596.583z"/>
<path fill-rule="evenodd" clip-rule="evenodd" fill="#EB292A" d="M267.523,439.961h82.327v-82.479h-82.327V439.961z   M384.625,439.961h82.327v-82.479h-82.327V439.961z"/>
<path fill="#F1262A" d="M466.921,357.512h-82.327v82.479h82.327V357.512z M349.85,357.512h-82.327v82.479h82.327V357.512z"/>
<path fill-rule="evenodd" clip-rule="evenodd" fill="#EB292A" d="M797.873,437.588H880.2v-82.51h-82.327V437.588z M914.974,437.588  h82.327v-82.51h-82.327V437.588z"/>
<path fill="#F1262A" d="M997.24,355.078h-82.327v82.51h82.327V355.078z M880.2,355.078h-82.327v82.51H880.2V355.078z"/>
<g>
</g>
<g>
</g>
<g>
</g>
<g>
</g>
<g>
</g>
<g>
</g>
</svg>