<?xml version="1.0" encoding="UTF-8"?>
<!-- Generator: Adobe Illustrator 23.1.0, SVG Export Plug-In . SVG Version: 6.00 Build 0)  -->
<svg version="1.1" id="Layer_1" xmlns="http://www.w3.org/2000/svg" xmlns:xlink="http://www.w3.org/1999/xlink" x="0px" y="0px" viewBox="0 0 624.265 1000" enable-background="new 0 0 624.265 1000" xml:space="preserve">
<g>
	<path d="M0,965.541v-4.896l13.174-1.767V858.616l-12.888-1.178v-5.569h75.9l2.12,20.948H72.08l-3.365-14.201l-44.789-0.808v44.419   l29.865-0.505l1.901-11.795h5.788v31.043h-5.788l-1.901-12.232l-29.865-0.437V959.4l48.154-1.178l6.663-17.061l5.418,1.329   l-3.298,23.051L0,965.541L0,965.541z"/>
	<path d="M98.665,965.541v-4.98l11.862-1.245V856.041l-12.888-1.75v-5.048l20.948-2.49l2.557,1.531v61.413l-0.303,16.321   l37.184-36.225l-10.97-0.875v-6.007h32.12v5.923l-11.34,1.026l-27.224,26.063l32.86,43.393l10.768,1.329v4.896h-33.382v-4.896   l10.836-1.396l-27.526-37.908l-13.393,12.585l0.37,17.263v8.127l11.34,1.245v4.98H98.665z"/>
	<path d="M195.377,961.083v-15.967h5.199l2.339,9.961c4.391,3.651,10.297,5.653,17.717,6.007c6.293,0.236,11.408-0.892,15.328-3.416   c3.92-2.507,5.889-6.377,5.889-11.593c0-1.262-0.185-2.473-0.589-3.617c-0.387-1.161-0.841-2.17-1.38-3.045   c-0.538-0.875-1.329-1.75-2.389-2.642c-1.043-0.875-2.002-1.598-2.844-2.187c-0.858-0.589-2.036-1.245-3.55-1.985   c-1.514-0.724-2.759-1.312-3.735-1.75c-0.976-0.437-2.356-1.026-4.139-1.783c-1.784-0.757-3.13-1.329-4.055-1.733   c-3.416-1.514-6.293-2.928-8.648-4.274c-2.339-1.346-4.694-3.012-7.05-4.98c-2.372-1.969-4.156-4.24-5.35-6.814   c-1.195-2.557-1.767-5.367-1.716-8.446c0.05-3.517,0.942-6.663,2.709-9.473c1.75-2.81,4.038-5.048,6.848-6.73   c2.793-1.699,5.822-2.978,9.069-3.887s6.579-1.397,9.994-1.497c4.442-0.151,8.833,0.32,13.174,1.43   c4.341,1.094,7.588,2.372,9.725,3.836v14.706h-4.964l-2.49-9.136c-3.617-3.382-8.598-5.065-14.941-5.065   c-5.855-0.034-10.449,1.211-13.797,3.769c-3.331,2.574-5.064,5.973-5.149,10.213c-0.05,1.716,0.236,3.298,0.875,4.762   c0.623,1.464,1.464,2.726,2.49,3.769c1.026,1.043,2.356,2.12,4.021,3.18c1.649,1.077,3.298,2.002,4.896,2.793   c1.615,0.774,3.567,1.699,5.855,2.776c1.077,0.488,1.884,0.858,2.423,1.094c6.495,2.877,10.634,4.829,12.434,5.855   c6.983,4.055,11.004,9.035,12.081,14.941c0.202,1.11,0.303,2.305,0.303,3.584c0,7.504-2.894,13.309-8.648,17.414   s-13.242,6.141-22.462,6.141C211.328,967.291,202.848,965.222,195.377,961.083z"/>
	<path d="M278.091,959.181c0.336-2.002,1.363-3.617,3.079-4.846c1.699-1.211,3.466-1.699,5.266-1.464   c2.053,0.252,3.483,1.043,4.324,2.389c0.824,1.346,1.077,2.911,0.724,4.711c-0.236,2.103-1.211,3.735-2.928,4.913   c-1.699,1.161-3.533,1.632-5.485,1.396c-1.666-0.252-2.995-1.026-3.988-2.356C278.075,962.614,277.755,961.032,278.091,959.181z"/>
	<path d="M365.718,965.541v-4.896l12.594-1.834v-100.28l-12.072-1.094v-5.569h34.77v5.569l-11.862,1.094v48.895h61.262v-48.895   l-11.997-1.094v-5.569h34.391v5.569l-11.559,1.094v100.28l12.737,1.834v4.896h-36.007v-4.896l12.434-1.767v-44.789h-61.262v44.789   l12.451,1.767v4.896H365.718z"/>
</g>
<g>
	<path d="M473.982,995.508c2.995-1.683,5.889-3.533,8.682-5.502c2.81-1.985,5.435-4.072,7.891-6.225   c2.457-2.171,4.711-4.391,6.747-6.697c2.053-2.288,3.819-4.593,5.283-6.898s2.591-4.61,3.416-6.898   c0.808-2.305,1.211-4.509,1.211-6.663c0-1.784-0.269-3.416-0.824-4.863c-0.555-1.447-1.363-2.675-2.423-3.685   s-2.339-1.767-3.853-2.305c-1.514-0.538-3.23-0.808-5.149-0.808c-2.137,0-4.105,0.252-5.872,0.774   c-1.784,0.522-3.365,1.161-4.778,1.935c-1.43,0.757-2.675,1.582-3.735,2.457c-1.077,0.875-2.002,1.682-2.793,2.389l-3.365-4.778   c0.976-1.11,2.271-2.288,3.853-3.567c1.598-1.262,3.432-2.44,5.519-3.5c2.086-1.077,4.375-1.969,6.865-2.692   c2.473-0.707,5.115-1.077,7.874-1.077c3.634,0,6.781,0.522,9.439,1.548s4.846,2.372,6.596,4.038   c1.733,1.683,3.012,3.601,3.853,5.788c0.824,2.187,1.245,4.425,1.245,6.73s-0.421,4.644-1.228,6.983   c-0.808,2.339-1.952,4.644-3.416,6.932c-1.464,2.271-3.214,4.509-5.25,6.73c-2.019,2.204-4.24,4.358-6.646,6.444   c-2.423,2.07-4.964,4.072-7.672,5.973c-2.692,1.901-5.468,3.702-8.295,5.384l29.865-2.288l3.466-7.656l5.569,1.161L523.6,1000   h-47.953L473.982,995.508z"/>
</g>
<g>
	<path d="M523.701,910.287c0.185-9.271,1.699-17.684,4.526-25.255c2.827-7.555,6.629-13.763,11.391-18.626   c4.745-4.863,10.196-8.615,16.354-11.273c6.141-2.658,12.737-4.055,19.753-4.206c9.809-0.202,18.458,2.103,25.911,6.915   c7.471,4.812,13.158,11.542,17.061,20.207c3.904,8.648,5.754,18.525,5.552,29.596c-0.185,9.271-1.632,17.7-4.341,25.289   c-2.709,7.588-6.36,13.864-10.953,18.811c-4.577,4.947-9.877,8.8-15.883,11.525c-5.99,2.743-12.434,4.173-19.316,4.324   c-9.961,0.185-18.794-2.12-26.5-6.915c-7.706-4.812-13.612-11.61-17.7-20.392C525.451,931.504,523.499,921.509,523.701,910.287z    M574.783,961.52c11.324,0,20.426-4.863,27.341-14.571c6.898-9.708,10.348-22.782,10.348-39.22c0-9.473-1.447-18.003-4.324-25.592   c-2.877-7.588-7.218-13.679-13.023-18.256c-5.805-4.593-12.636-6.882-20.493-6.882c-11.61,0-21.032,4.728-28.25,14.167   s-10.836,22.445-10.836,39.035c0,9.675,1.565,18.373,4.694,26.096c3.113,7.74,7.672,13.864,13.679,18.407   C559.926,959.249,566.875,961.52,574.783,961.52z"/>
</g>
<g>
	<path d="M18.71,581.231v-5.081l13.477-1.884v-103.73l-13.174-1.127v-5.754h18.256c2.053-0.05,6.293-0.252,12.72-0.572   c6.394-0.336,11.929-0.471,16.573-0.421c11.811,0.05,20.897,2.406,27.257,7.084c6.36,4.661,9.54,11.122,9.54,19.349   c0,7.37-1.935,13.713-5.788,19.03c-3.87,5.334-9.641,8.8-17.297,10.415c8.665,0,15.984,2.541,21.907,7.605   c5.939,5.081,8.901,11.879,8.901,20.409c0,10.802-4.139,19.467-12.417,25.962c-8.278,6.528-20.477,9.776-36.562,9.776   c-3.449,0-8.396-0.185-14.891-0.522c-6.478-0.37-9.776-0.538-9.877-0.538L18.71,581.231L18.71,581.231z M43.326,515.881   c1.245,0.219,3.012,0.353,5.25,0.421c2.255,0.084,4.274,0.118,6.057,0.118c1.8,0,3.971-0.017,6.511-0.034   c2.557-0.034,4.122-0.034,4.728-0.034c3.803,0,7.285-0.505,10.499-1.481c3.197-0.993,6.04-2.473,8.514-4.476   c2.473-1.985,4.408-4.61,5.788-7.874c1.397-3.247,2.086-7.016,2.086-11.307c0-3.887-0.757-7.302-2.271-10.23   c-1.514-2.928-3.617-5.25-6.326-6.966c-2.692-1.716-5.704-2.995-9.035-3.819c-3.331-0.841-6.999-1.262-10.987-1.262   c-10.6,0-17.482,0.387-20.679,1.144L43.326,515.881z M43.393,573.424c1.767,0.673,4.913,1.211,9.422,1.683   c4.526,0.437,8.514,0.673,12.013,0.673c3.567,0,6.966-0.252,10.129-0.757c3.197-0.505,6.31-1.396,9.355-2.692   c3.062-1.279,5.67-2.928,7.841-4.913c2.17-2.002,3.904-4.593,5.216-7.757c1.312-3.197,1.985-6.831,1.985-10.903   c0-16.91-10.331-25.373-30.976-25.373c-14.184,0-22.512,0.101-24.986,0.303L43.393,573.424L43.393,573.424z"/>
</g>
<g>
	<path d="M266.078,326.46v-5.081l11.054-1.817l40.734-111.284h9.17l39.59,111.284l12.51,1.817v5.081H342.18v-5.081l12.72-1.817   l-9.624-27.56h-48.76l-9.54,27.56l13.174,1.817v5.081H266.078z M298.871,285.119h44.049l-16.186-46.421l-5.62-17.633   L298.871,285.119z"/>
</g>
<g>
	<path d="M157.2,655.011v-4.257l39.254-21.654v5.788l-33.987,18.003l33.987,17.885v5.838L157.2,655.011z"/>
</g>
<g>
	<path d="M220.986,655.011v-4.257L260.24,629.1v5.788l-33.987,18.003l33.987,17.885v5.838L220.986,655.011z"/>
	<path d="M281.843,684.489v-2.86l12.266-0.875v-41.946c-3.449,1.296-7.201,2.473-11.256,3.584l-0.606-3.247   c2.356-0.757,5.3-2.036,8.867-3.819c3.567-1.8,5.855-3.13,6.848-4.004l2.154,0.639l-0.084,48.794l11.626,0.875v2.86   L281.843,684.489L281.843,684.489z"/>
	<path d="M328.248,657.905c0.034-3.197,0.454-6.192,1.262-8.951c0.808-2.793,1.918-5.199,3.315-7.269   c1.413-2.053,3.045-3.836,4.913-5.317c1.851-1.481,3.87-2.608,6.04-3.365c2.187-0.757,4.425-1.144,6.747-1.178   c3.803-0.034,7.1,0.623,9.893,1.952c2.776,1.329,4.947,3.23,6.511,5.704s2.709,5.25,3.416,8.345   c0.724,3.096,1.06,6.579,1.043,10.449c-0.034,3.988-0.623,7.689-1.767,11.105c-1.144,3.432-2.692,6.326-4.661,8.682   c-1.952,2.356-4.274,4.206-6.932,5.569c-2.675,1.363-5.519,2.036-8.514,2.036s-5.704-0.505-8.144-1.514   c-2.423-1.01-4.459-2.372-6.074-4.105c-1.615-1.716-2.978-3.769-4.072-6.158s-1.868-4.913-2.322-7.571   C328.45,663.659,328.231,660.849,328.248,657.905z M349.549,682.133c3.55,0.05,6.495-0.892,8.884-2.844   c2.372-1.952,4.089-4.644,5.149-8.11c1.077-3.466,1.615-7.656,1.615-12.569c0-4.509-0.505-8.446-1.481-11.828   c-0.993-3.382-2.608-6.124-4.863-8.211s-5.064-3.163-8.446-3.214c-5.3-0.084-9.271,1.834-11.929,5.754   c-2.658,3.937-3.988,9.439-3.988,16.539c0,4.375,0.505,8.345,1.531,11.929c1.026,3.567,2.709,6.545,5.031,8.917   C343.374,680.871,346.201,682.083,349.549,682.133z"/>
	<path d="M394.919,698.656c3.668-1.11,7.1-2.759,10.297-4.947s5.939-4.644,8.194-7.37s4.19-5.653,5.838-8.783   c1.649-3.146,2.877-6.276,3.668-9.372c0.808-3.096,1.228-6.074,1.279-8.934c0.05-3.365-0.151-6.427-0.623-9.187   c-0.471-2.759-1.262-5.3-2.339-7.605c-1.077-2.288-2.608-4.089-4.577-5.384c-1.969-1.279-4.307-1.918-7.05-1.918   c-1.884,0-3.617,0.37-5.216,1.111c-1.598,0.74-2.928,1.699-3.988,2.894c-1.077,1.195-1.969,2.557-2.709,4.089   c-0.757,1.531-1.296,3.062-1.632,4.593c-0.337,1.548-0.505,3.045-0.505,4.509c0,5.182,1.077,9.271,3.247,12.249   c2.154,2.961,4.795,4.442,7.942,4.442c2.019,0,3.853-0.303,5.485-0.909c1.632-0.623,2.877-1.312,3.735-2.07l1.43,2.608   c-1.094,1.296-2.743,2.389-4.964,3.298c-2.238,0.909-4.577,1.38-7.033,1.38c-2.49,0-4.728-0.555-6.747-1.632   c-2.002-1.077-3.634-2.507-4.879-4.29c-1.228-1.784-2.187-3.735-2.844-5.889c-0.673-2.137-0.993-4.341-0.993-6.629   c0-2.187,0.286-4.375,0.858-6.562c0.589-2.187,1.464-4.274,2.642-6.259s2.557-3.752,4.173-5.3c1.598-1.548,3.533-2.776,5.788-3.685   s4.644-1.363,7.184-1.363s4.896,0.437,7.05,1.296c2.154,0.875,4.004,2.07,5.552,3.601c1.531,1.531,2.86,3.331,3.954,5.418   c1.094,2.07,1.901,4.307,2.423,6.73c0.522,2.406,0.791,4.913,0.791,7.521c0,5.435-1.01,10.802-3.012,16.068   c-2.019,5.266-4.644,9.893-7.857,13.831c-3.23,3.971-6.898,7.302-11.004,10.045c-4.105,2.726-8.228,4.492-12.384,5.266   L394.919,698.656z"/>
	<path d="M464.004,653.564c-4.694,0.034-8.531-1.565-11.492-4.812c-2.944-3.231-4.391-7.656-4.307-13.258   c0.05-3.029,0.589-5.737,1.598-8.127s2.339-4.274,3.971-5.653c1.632-1.396,3.399-2.44,5.3-3.163c1.918-0.707,3.87-1.06,5.906-1.06   c5.014,0,8.934,1.615,11.744,4.846c2.81,3.247,4.173,7.773,4.122,13.561c-0.017,2.423-0.387,4.627-1.094,6.629   s-1.615,3.685-2.726,5.014c-1.127,1.329-2.423,2.457-3.887,3.382c-1.481,0.925-2.978,1.598-4.526,2.019   C467.083,653.362,465.535,653.564,464.004,653.564z M464.038,650.198c3.651-0.017,6.377-1.144,8.177-3.365   c1.817-2.204,2.726-5.687,2.726-10.432c0-4.846-0.875-8.648-2.642-11.441c-1.75-2.759-4.307-4.139-7.689-4.105   c-3.432,0.017-6.04,1.296-7.824,3.803c-1.784,2.507-2.658,5.973-2.658,10.398c-0.034,4.61,0.875,8.278,2.709,11.038   C458.671,648.836,461.077,650.198,464.038,650.198z"/>
</g>
<line fill="none" stroke="#000000" stroke-width="10.3376" stroke-miterlimit="100" x1="173.127" y1="93.911" x2="264.2" y2="210.123"/>
<path fill="none" stroke="#000000" stroke-width="11.1473" stroke-miterlimit="100" d="M451.967,480.788  c-33.27,47.915-83.752,65.006-132.2,65.23c-63.421,0.31-102.532-20.779-133.837-65.23"/>
<g>
	<path d="M530.886,582.156v-5.081l13.477-1.884V471.462l-13.174-1.127v-5.754h18.256c2.053-0.05,6.293-0.252,12.72-0.572   c6.394-0.337,11.929-0.471,16.573-0.421c11.812,0.05,20.897,2.406,27.257,7.083c6.36,4.661,9.54,11.122,9.54,19.349   c0,7.37-1.935,13.713-5.788,19.03c-3.87,5.334-9.641,8.8-17.297,10.415c8.665,0,15.984,2.541,21.907,7.605   c5.939,5.081,8.901,11.879,8.901,20.409c0,10.802-4.139,19.467-12.417,25.962c-8.278,6.528-20.477,9.776-36.562,9.776   c-3.449,0-8.396-0.185-14.891-0.522c-6.478-0.37-9.776-0.538-9.877-0.538L530.886,582.156L530.886,582.156z M555.501,516.806   c1.245,0.219,3.012,0.353,5.25,0.421c2.255,0.084,4.274,0.118,6.057,0.118c1.8,0,3.971-0.017,6.511-0.034   c2.557-0.034,4.122-0.034,4.728-0.034c3.803,0,7.285-0.505,10.499-1.481c3.197-0.993,6.04-2.473,8.514-4.476   c2.473-1.985,4.408-4.61,5.788-7.874c1.397-3.247,2.086-7.016,2.086-11.307c0-3.887-0.757-7.302-2.271-10.23   s-3.617-5.25-6.326-6.966c-2.692-1.716-5.704-2.995-9.035-3.819c-3.331-0.841-6.999-1.262-10.987-1.262   c-10.6,0-17.482,0.387-20.679,1.144L555.501,516.806z M555.569,574.349c1.767,0.673,4.913,1.211,9.422,1.683   c4.526,0.438,8.514,0.673,12.013,0.673c3.567,0,6.966-0.252,10.129-0.757c3.197-0.505,6.31-1.396,9.355-2.692   c3.062-1.279,5.67-2.928,7.841-4.913c2.17-2.002,3.904-4.593,5.216-7.757c1.312-3.197,1.985-6.831,1.985-10.903   c0-16.91-10.331-25.373-30.976-25.373c-14.184,0-22.512,0.101-24.986,0.303v49.736H555.569z"/>
</g>
<line fill="none" stroke="#000000" stroke-width="10.3376" stroke-miterlimit="100" x1="393.766" y1="356.103" x2="498.365" y2="456.102"/>
<line fill="none" stroke="#000000" stroke-width="10.3376" stroke-miterlimit="100" x1="140.107" y1="464.787" x2="250.15" y2="355.933"/>
<path fill-rule="evenodd" clip-rule="evenodd" d="M451.933,19.46c4.445-4.445,4.445-11.664,0-16.126  c-4.462-4.445-11.682-4.445-16.127,0c-4.445,4.462-4.445,11.681,0,16.126C440.251,23.906,447.47,23.906,451.933,19.46"/>
<path fill-rule="evenodd" clip-rule="evenodd" d="M499.549,19.46c4.445-4.445,4.445-11.664,0-16.126  c-4.446-4.445-11.664-4.445-16.127,0c-4.428,4.462-4.428,11.681,0,16.126C487.885,23.906,495.104,23.906,499.549,19.46"/>
<path fill-rule="evenodd" clip-rule="evenodd" d="M142.664,47.911c4.445-4.445,4.445-11.664,0-16.126  c-4.446-4.445-11.664-4.445-16.127,0c-4.428,4.462-4.428,11.681,0,16.126C130.999,52.356,138.218,52.356,142.664,47.911"/>
<path fill-rule="evenodd" clip-rule="evenodd" d="M190.289,47.911c4.445-4.445,4.445-11.664,0-16.126  c-4.446-4.445-11.664-4.445-16.127,0c-4.428,4.462-4.428,11.681,0,16.126C178.624,52.356,185.843,52.356,190.289,47.911"/>
<line fill="none" stroke="#000000" stroke-width="10.3376" stroke-miterlimit="100" x1="437.732" y1="69.725" x2="366.61" y2="200.599"/>
</svg>