<?xml version="1.0" encoding="UTF-8"?>
<!-- Generator: Adobe Illustrator 25.0.0, SVG Export Plug-In . SVG Version: 6.00 Build 0)  -->
<svg version="1.1" id="Layer_1" xmlns="http://www.w3.org/2000/svg" xmlns:xlink="http://www.w3.org/1999/xlink" x="0px" y="0px" viewBox="0 0 524.1 1000" enable-background="new 0 0 524.1 1000" xml:space="preserve">
<g>
	<defs>
		<polyline id="SVGID_1_" points="428.1,464.8 342.3,464.8 342.3,486.9 454.7,486.9 454.7,486.9 428.1,486.9 428.1,464.8   "/>
	</defs>
	<clipPath id="SVGID_2_">
		<use xlink:href="#SVGID_1_" overflow="visible"/>
	</clipPath>
	<g clip-path="url(#SVGID_2_)">
		
			<image overflow="visible" width="27" height="127" xlink:href="data:image/jpeg;base64,/9j/4AAQSkZJRgABAgEASABIAAD/7AARRHVja3kAAQAEAAAAHgAA/+4AIUFkb2JlAGTAAAAAAQMA EAMCAwYAAAIiAAACnAAAA93/2wCEABALCwsMCxAMDBAXDw0PFxsUEBAUGx8XFxcXFx8eFxoaGhoX Hh4jJSclIx4vLzMzLy9AQEBAQEBAQEBAQEBAQEABEQ8PERMRFRISFRQRFBEUGhQWFhQaJhoaHBoa JjAjHh4eHiMwKy4nJycuKzU1MDA1NUBAP0BAQEBAQEBAQEBAQP/CABEIAH8AGwMBIgACEQEDEQH/ xAChAAADAQEBAAAAAAAAAAAAAAAFBgcABAMBAQEBAQAAAAAAAAAAAAAAAAADAQQQAAAFAwQCAgMA AAAAAAAAAAACBDUGEAMFAUEyQxEhEhMjFBYRAAECAgcEBwkAAAAAAAAAAAECBAADEBExwXKycyFB EjORIkJSEyMFUXGBoTKCgxQ0EgACAQQBBQAAAAAAAAAAAAAAAXERMcGCITBhoQIS/9oADAMBAAIR AxEAAACgTKmzLbvJQWUT0ypsyUeSgsonplTZko8lBZRPTKmzJR5KCyiemVNmSjyUFlE9MqbMlHko LKJryY2o+9DYUSqcz0mNQX8lyNfN0s//2gAIAQIAAQUAKNyjco3KNyjco30HrzpqPPv/2gAIAQMA AQUAT8uxPy7E/LsT8uxPy7E/Lss6F8akJpcsn+Jvs/J//9oACAEBAAEFABI3uNMdJG9xpjpI3uNM dJG9xpjpI3uNMdJG9xpjpI3uNMdJG9xpjpI3uNMdJG9xpjpI3uNMdJG9xpjCqYJ0d/Kq7a3I4mXo kOO/qiCaYr70oxSC5kV/6qcHIW4TN4w+MyEHxutuzSWIUayxj7SWyiH/2gAIAQICBj8A69T/2gAI AQMCBj8AcG+Rwb5HBvkcG+Rwb5HBvk+lezPVU5dWc2Z99/B//9oACAEBAQY/AIealwhngOY0vNS4 QzwHMaXmpcIZ4DmNLzUuEM8BzGl5qXCGeA5jS81LhDPAcxpealwhngOY0vNS4QzwHMaXmpcIZ4Dm NLzUuEM8BzGl5qXCGeA5jS81LhDPAcxoU3ctJ8uamolJ4N4rHahw7lAplzVcSQqriqq31VxIaTJE 1S5SaipPDUdpOysx/C45X7HY5Pf+qyB6jKB8VuOGYBvlk2/aTRJaIsWrrq7qBtUrojljl+F+Pu+6 FIWApCgQpJsINoiY3I8skrkq9ssnZ0WRN9SmWzh4cnAk9c/FQ+VMkTXMps4QryzNUE8SVEJXbtqF sSZTNQW3QkJlrSQoKA38SdhrNtH/2Q==" transform="matrix(0 0.8818 -0.8986 0 455.5559 463.9498)">
		</image>
	</g>
</g>
<g>
	<defs>
		<polyline id="SVGID_3_" points="512.5,464.8 428.1,464.8 454.7,464.8 454.7,486.9 501.2,486.9 501.2,472.2 512.5,472.2     512.5,464.8   "/>
	</defs>
	<clipPath id="SVGID_4_">
		<use xlink:href="#SVGID_3_" overflow="visible"/>
	</clipPath>
	<g clip-path="url(#SVGID_4_)">
		
			<image overflow="visible" width="27" height="96" xlink:href="data:image/jpeg;base64,/9j/4AAQSkZJRgABAgEASABIAAD/7AARRHVja3kAAQAEAAAAHgAA/+4AIUFkb2JlAGTAAAAAAQMA EAMCAwYAAAHRAAACDwAAAo3/2wCEABALCwsMCxAMDBAXDw0PFxsUEBAUGx8XFxcXFx8eFxoaGhoX Hh4jJSclIx4vLzMzLy9AQEBAQEBAQEBAQEBAQEABEQ8PERMRFRISFRQRFBEUGhQWFhQaJhoaHBoa JjAjHh4eHiMwKy4nJycuKzU1MDA1NUBAP0BAQEBAQEBAQEBAQP/CABEIAGAAGwMBIgACEQEDEQH/ xAB1AAEBAQEAAAAAAAAAAAAAAAAHBQYAAQEBAQAAAAAAAAAAAAAAAAADAAEQAAIBBQEAAAAAAAAA AAAAADUGEABBAjJDBBEAAQQDAAAAAAAAAAAAAAAAAQAQwQRysnMSAAIDAQAAAAAAAAAAAAAAAAAB ccGCMP/aAAwDAQACEQMRAAAAQDJNMtfc1JdSPjJNMpNzUl1I+Mk0yk3NSXUj4yTTKTc1JdSPjJNM pNzUl1I+Mk0yk3NSXUj/AP/aAAgBAgABBQDGr41fGr41fGr41f8A/9oACAEDAAEFAPPt08+3Tz7d PPt08+3Tz7dP/9oACAEBAAEFAKYza0DhjNrQOGM2tA4Yza0DhjNrQOGM2tA4Yza0DhjNrQOGM2tA 4Yza0DhjNrQOGM2tA6//2gAIAQICBj8A6f/aAAgBAwIGPwBwbscG7HBuxwbscG7HBuz/2gAIAQEB Bj8AVzpAVPA7F7nSAqeB2L3OkBU8DsXudICp4HYvc6QFTwOxe50gKngdi9zpAVPA7F7nSAqeB2L3 OkBU8DsXudICp4HYvc6QFTwOxe50gKngdi3/2Q==" transform="matrix(0 0.8818 -0.8986 0 513.4438 463.9498)">
		</image>
	</g>
</g>
<g>
	<defs>
		<polyline id="SVGID_5_" points="454.7,464.8 428.1,464.8 428.1,486.9 454.7,486.9 454.7,464.8   "/>
	</defs>
	<clipPath id="SVGID_6_">
		<use xlink:href="#SVGID_5_" overflow="visible"/>
	</clipPath>
	<g clip-path="url(#SVGID_6_)">
		
			<image overflow="visible" width="27" height="32" xlink:href="data:image/jpeg;base64,/9j/4AAQSkZJRgABAgEASABIAAD/7AARRHVja3kAAQAEAAAAHgAA/+4AIUFkb2JlAGTAAAAAAQMA EAMCAwYAAAGbAAABuAAAAfr/2wCEABALCwsMCxAMDBAXDw0PFxsUEBAUGx8XFxcXFx8eFxoaGhoX Hh4jJSclIx4vLzMzLy9AQEBAQEBAQEBAQEBAQEABEQ8PERMRFRISFRQRFBEUGhQWFhQaJhoaHBoa JjAjHh4eHiMwKy4nJycuKzU1MDA1NUBAP0BAQEBAQEBAQEBAQP/CABEIACAAGwMBIgACEQEDEQH/ xAB3AAEBAQEAAAAAAAAAAAAAAAAHBQYAAQEBAQEAAAAAAAAAAAAAAAAAAgEDEAABAwUBAAAAAAAA AAAAAAA1AAUGEEECMkMEEQABBAMAAAAAAAAAAAAAAAACABBxBLFzsxIAAQUAAAAAAAAAAAAAAAAA ACABccGC/9oADAMBAAIRAxEAAABAL1Av3vua8iuji9QL17mvIro//9oACAECAAEFAMVfFX//2gAI AQMAAQUA8+3Xz7df/9oACAEBAAEFAE/GYsAo/GYsAo/GYsAo/GYsAX//2gAIAQICBj8AR//aAAgB AwIGPwB4N2PBuz//2gAIAQEBBj8AV3ceVUg+hvd3HlVIPob3dx5VSD6G93ceVUg+ht//2Q==" transform="matrix(0 0.8818 -0.8986 0 455.5559 463.9498)">
		</image>
	</g>
</g>
<g>
	<defs>
		<polyline id="SVGID_7_" points="523.3,472.2 512.5,472.2 512.5,486.9 501.2,486.9 501.2,556.6 501.2,556.6 501.2,550.7     523.3,550.7 523.3,472.2   "/>
	</defs>
	<clipPath id="SVGID_8_">
		<use xlink:href="#SVGID_7_" overflow="visible"/>
	</clipPath>
	<g clip-path="url(#SVGID_8_)">
		
			<image overflow="visible" width="27" height="96" xlink:href="data:image/jpeg;base64,/9j/4AAQSkZJRgABAgEASABIAAD/7AARRHVja3kAAQAEAAAAHgAA/+4AIUFkb2JlAGTAAAAAAQMA EAMCAwYAAAHRAAACDwAAAo3/2wCEABALCwsMCxAMDBAXDw0PFxsUEBAUGx8XFxcXFx8eFxoaGhoX Hh4jJSclIx4vLzMzLy9AQEBAQEBAQEBAQEBAQEABEQ8PERMRFRISFRQRFBEUGhQWFhQaJhoaHBoa JjAjHh4eHiMwKy4nJycuKzU1MDA1NUBAP0BAQEBAQEBAQEBAQP/CABEIAGAAGwMBIgACEQEDEQH/ xAB1AAEBAQEAAAAAAAAAAAAAAAAHBQYAAQEBAQAAAAAAAAAAAAAAAAADAAEQAAIBBQEAAAAAAAAA AAAAADUGEABBAjJDBBEAAQQDAAAAAAAAAAAAAAAAAQAQwQRysnMSAAIDAQAAAAAAAAAAAAAAAAAB ccGCMP/aAAwDAQACEQMRAAAAQDJNMtfc1JdSPjJNMpNzUl1I+Mk0yk3NSXUj4yTTKTc1JdSPjJNM pNzUl1I+Mk0yk3NSXUj/AP/aAAgBAgABBQDGr41fGr41fGr41f8A/9oACAEDAAEFAPPt08+3Tz7d PPt08+3Tz7dP/9oACAEBAAEFAKYza0DhjNrQOGM2tA4Yza0DhjNrQOGM2tA4Yza0DhjNrQOGM2tA 4Yza0DhjNrQOGM2tA6//2gAIAQICBj8A6f/aAAgBAwIGPwBwbscG7HBuxwbscG7HBuz/2gAIAQEB Bj8AVzpAVPA7F7nSAqeB2L3OkBU8DsXudICp4HYvc6QFTwOxe50gKngdi9zpAVPA7F7nSAqeB2L3 OkBU8DsXudICp4HYvc6QFTwOxe50gKngdi3/2Q==" transform="matrix(-0.8818 0 0 -0.8986 524.1454 557.4963)">
		</image>
	</g>
</g>
<g>
	<defs>
		<polyline id="SVGID_9_" points="512.5,472.2 501.2,472.2 501.2,486.9 512.5,486.9 512.5,472.2   "/>
	</defs>
	<clipPath id="SVGID_10_">
		<use xlink:href="#SVGID_9_" overflow="visible"/>
	</clipPath>
	<g transform="matrix(1 0 0 1 0 -3.051758e-05)" clip-path="url(#SVGID_10_)">
		
			<image overflow="visible" width="19" height="15" xlink:href="data:image/jpeg;base64,/9j/4AAQSkZJRgABAgEASABIAAD/7AARRHVja3kAAQAEAAAAHgAA/+4AIUFkb2JlAGTAAAAAAQMA EAMCAwYAAAGXAAABsgAAAfb/2wCEABALCwsMCxAMDBAXDw0PFxsUEBAUGx8XFxcXFx8eFxoaGhoX Hh4jJSclIx4vLzMzLy9AQEBAQEBAQEBAQEBAQEABEQ8PERMRFRISFRQRFBEUGhQWFhQaJhoaHBoa JjAjHh4eHiMwKy4nJycuKzU1MDA1NUBAP0BAQEBAQEBAQEBAQP/CABEIAA8AEwMBIgACEQEDEQH/ xAB+AAADAQEAAAAAAAAAAAAAAAAABQYEBwEAAwEAAAAAAAAAAAAAAAAAAQIDBBAAAAYCAwAAAAAA AAAAAAAAAAECAwQFNQYRExYRAAEEAAUFAAAAAAAAAAAAAAEAEQIDECExsgQScoIzkxIAAwEAAAAA AAAAAAAAAAAAAAFBEP/aAAwDAQACEQMRAAAASMs182uQOhgl/9oACAECAAEFADMcmP/aAAgBAwAB BQBxZpT3rH//2gAIAQEAAQUAkMOR3omsW8yP468FxkdawY//2gAIAQICBj8Az//aAAgBAwIGPwBN Uh//2gAIAQEBBj8AlTY3XFnbMZh1Dk0VxNVgeJMwCztovVD6RV3jsiuH2HccP//Z" transform="matrix(0 0.8818 -0.8986 0 513.4438 471.0043)">
		</image>
	</g>
</g>
<g>
	<defs>
		<polyline id="SVGID_11_" points="523.3,550.7 523.3,550.7 523.3,556.6 501.2,556.6 501.2,635.1 501.2,635.1 501.2,628.8     523.3,628.8 523.3,550.7   "/>
	</defs>
	<clipPath id="SVGID_12_">
		<use xlink:href="#SVGID_11_" overflow="visible"/>
	</clipPath>
	<g clip-path="url(#SVGID_12_)">
		
			<image overflow="visible" width="27" height="96" xlink:href="data:image/jpeg;base64,/9j/4AAQSkZJRgABAgEASABIAAD/7AARRHVja3kAAQAEAAAAHgAA/+4AIUFkb2JlAGTAAAAAAQMA EAMCAwYAAAHRAAACDwAAAo3/2wCEABALCwsMCxAMDBAXDw0PFxsUEBAUGx8XFxcXFx8eFxoaGhoX Hh4jJSclIx4vLzMzLy9AQEBAQEBAQEBAQEBAQEABEQ8PERMRFRISFRQRFBEUGhQWFhQaJhoaHBoa JjAjHh4eHiMwKy4nJycuKzU1MDA1NUBAP0BAQEBAQEBAQEBAQP/CABEIAGAAGwMBIgACEQEDEQH/ xAB1AAEBAQEAAAAAAAAAAAAAAAAHBQYAAQEBAQAAAAAAAAAAAAAAAAADAAEQAAIBBQEAAAAAAAAA AAAAADUGEABBAjJDBBEAAQQDAAAAAAAAAAAAAAAAAQAQwQRysnMSAAIDAQAAAAAAAAAAAAAAAAAB ccGCMP/aAAwDAQACEQMRAAAAQDJNMtfc1JdSPjJNMpNzUl1I+Mk0yk3NSXUj4yTTKTc1JdSPjJNM pNzUl1I+Mk0yk3NSXUj/AP/aAAgBAgABBQDGr41fGr41fGr41f8A/9oACAEDAAEFAPPt08+3Tz7d PPt08+3Tz7dP/9oACAEBAAEFAKYza0DhjNrQOGM2tA4Yza0DhjNrQOGM2tA4Yza0DhjNrQOGM2tA 4Yza0DhjNrQOGM2tA6//2gAIAQICBj8A6f/aAAgBAwIGPwBwbscG7HBuxwbscG7HBuz/2gAIAQEB Bj8AVzpAVPA7F7nSAqeB2L3OkBU8DsXudICp4HYvc6QFTwOxe50gKngdi9zpAVPA7F7nSAqeB2L3 OkBU8DsXudICp4HYvc6QFTwOxe50gKngdi3/2Q==" transform="matrix(-0.8818 0 0 -0.8986 524.1454 635.9889)">
		</image>
	</g>
</g>
<g>
	<defs>
		<polyline id="SVGID_13_" points="523.3,550.7 501.2,550.7 501.2,556.6 523.3,556.6 523.3,550.7   "/>
	</defs>
	<clipPath id="SVGID_14_">
		<use xlink:href="#SVGID_13_" overflow="visible"/>
	</clipPath>
	<g clip-path="url(#SVGID_14_)">
		
			<image overflow="visible" width="27" height="9" xlink:href="data:image/jpeg;base64,/9j/4AAQSkZJRgABAgEASABIAAD/7AARRHVja3kAAQAEAAAAHgAA/+4AIUFkb2JlAGTAAAAAAQMA EAMCAwYAAAGMAAABoAAAAdH/2wCEABALCwsMCxAMDBAXDw0PFxsUEBAUGx8XFxcXFx8eFxoaGhoX Hh4jJSclIx4vLzMzLy9AQEBAQEBAQEBAQEBAQEABEQ8PERMRFRISFRQRFBEUGhQWFhQaJhoaHBoa JjAjHh4eHiMwKy4nJycuKzU1MDA1NUBAP0BAQEBAQEBAQEBAQP/CABEIAAkAGwMBIgACEQEDEQH/ xAB2AAEBAQAAAAAAAAAAAAAAAAAHBQYBAAMBAAAAAAAAAAAAAAAAAAABAgMQAAECBwAAAAAAAAAA AAAAADUABRBBAjJDBAYRAAEEAwAAAAAAAAAAAAAAAAIAEHEEsXOzEgABBQAAAAAAAAAAAAAAAAAA EAFxwYL/2gAMAwEAAhEDEQAAAEAvUC977mvIrkf/2gAIAQIAAQUApU//2gAIAQMAAQUA17sv/9oA CAEBAAEFAE/GeWAQfjPLAF//2gAIAQICBj8AT//aAAgBAwIGPwB4N2f/2gAIAQEBBj8AV3ceVUg+ hvd3HlVIPobf/9k=" transform="matrix(-0.8818 0 0 -0.8986 524.1454 557.4963)">
		</image>
	</g>
</g>
<g>
	<defs>
		<polyline id="SVGID_15_" points="523.3,628.8 523.3,628.8 523.3,635.1 501.2,635.1 501.2,713.2 501.2,707.3 523.3,707.3     523.3,628.8   "/>
	</defs>
	<clipPath id="SVGID_16_">
		<use xlink:href="#SVGID_15_" overflow="visible"/>
	</clipPath>
	<g clip-path="url(#SVGID_16_)">
		
			<image overflow="visible" width="27" height="96" xlink:href="data:image/jpeg;base64,/9j/4AAQSkZJRgABAgEASABIAAD/7AARRHVja3kAAQAEAAAAHgAA/+4AIUFkb2JlAGTAAAAAAQMA EAMCAwYAAAHRAAACDwAAAo3/2wCEABALCwsMCxAMDBAXDw0PFxsUEBAUGx8XFxcXFx8eFxoaGhoX Hh4jJSclIx4vLzMzLy9AQEBAQEBAQEBAQEBAQEABEQ8PERMRFRISFRQRFBEUGhQWFhQaJhoaHBoa JjAjHh4eHiMwKy4nJycuKzU1MDA1NUBAP0BAQEBAQEBAQEBAQP/CABEIAGAAGwMBIgACEQEDEQH/ xAB1AAEBAQEAAAAAAAAAAAAAAAAHBQYAAQEBAQAAAAAAAAAAAAAAAAADAAEQAAIBBQEAAAAAAAAA AAAAADUGEABBAjJDBBEAAQQDAAAAAAAAAAAAAAAAAQAQwQRysnMSAAIDAQAAAAAAAAAAAAAAAAAB ccGCMP/aAAwDAQACEQMRAAAAQDJNMtfc1JdSPjJNMpNzUl1I+Mk0yk3NSXUj4yTTKTc1JdSPjJNM pNzUl1I+Mk0yk3NSXUj/AP/aAAgBAgABBQDGr41fGr41fGr41f8A/9oACAEDAAEFAPPt08+3Tz7d PPt08+3Tz7dP/9oACAEBAAEFAKYza0DhjNrQOGM2tA4Yza0DhjNrQOGM2tA4Yza0DhjNrQOGM2tA 4Yza0DhjNrQOGM2tA6//2gAIAQICBj8A6f/aAAgBAwIGPwBwbscG7HBuxwbscG7HBuz/2gAIAQEB Bj8AVzpAVPA7F7nSAqeB2L3OkBU8DsXudICp4HYvc6QFTwOxe50gKngdi9zpAVPA7F7nSAqeB2L3 OkBU8DsXudICp4HYvc6QFTwOxe50gKngdi3/2Q==" transform="matrix(-0.8818 0 0 -0.8986 524.1454 714.0904)">
		</image>
	</g>
</g>
<g>
	<defs>
		<polyline id="SVGID_17_" points="523.3,628.8 501.2,628.8 501.2,635.1 523.3,635.1 523.3,628.8   "/>
	</defs>
	<clipPath id="SVGID_18_">
		<use xlink:href="#SVGID_17_" overflow="visible"/>
	</clipPath>
	<g clip-path="url(#SVGID_18_)">
		
			<image overflow="visible" width="27" height="9" xlink:href="data:image/jpeg;base64,/9j/4AAQSkZJRgABAgEASABIAAD/7AARRHVja3kAAQAEAAAAHgAA/+4AIUFkb2JlAGTAAAAAAQMA EAMCAwYAAAGMAAABoAAAAdH/2wCEABALCwsMCxAMDBAXDw0PFxsUEBAUGx8XFxcXFx8eFxoaGhoX Hh4jJSclIx4vLzMzLy9AQEBAQEBAQEBAQEBAQEABEQ8PERMRFRISFRQRFBEUGhQWFhQaJhoaHBoa JjAjHh4eHiMwKy4nJycuKzU1MDA1NUBAP0BAQEBAQEBAQEBAQP/CABEIAAkAGwMBIgACEQEDEQH/ xAB2AAEBAQAAAAAAAAAAAAAAAAAHBQYBAAMBAAAAAAAAAAAAAAAAAAABAgMQAAECBwAAAAAAAAAA AAAAADUABRBBAjJDBAYRAAEEAwAAAAAAAAAAAAAAAAIAEHEEsXOzEgABBQAAAAAAAAAAAAAAAAAA EAFxwYL/2gAMAwEAAhEDEQAAAEAvUC977mvIrkf/2gAIAQIAAQUApU//2gAIAQMAAQUA17sv/9oA CAEBAAEFAE/GeWAQfjPLAF//2gAIAQICBj8AT//aAAgBAwIGPwB4N2f/2gAIAQEBBj8AV3ceVUg+ hvd3HlVIPobf/9k=" transform="matrix(-0.8818 0 0 -0.8986 524.1454 635.9889)">
		</image>
	</g>
</g>
<g>
	<defs>
		<polyline id="SVGID_19_" points="523.3,707.3 523.3,707.3 523.3,713.2 501.2,713.2 501.2,791.7 501.2,779.7 523.3,779.7     523.3,707.3   "/>
	</defs>
	<clipPath id="SVGID_20_">
		<use xlink:href="#SVGID_19_" overflow="visible"/>
	</clipPath>
	<g clip-path="url(#SVGID_20_)">
		
			<image overflow="visible" width="27" height="96" xlink:href="data:image/jpeg;base64,/9j/4AAQSkZJRgABAgEASABIAAD/7AARRHVja3kAAQAEAAAAHgAA/+4AIUFkb2JlAGTAAAAAAQMA EAMCAwYAAAHRAAACDwAAAo3/2wCEABALCwsMCxAMDBAXDw0PFxsUEBAUGx8XFxcXFx8eFxoaGhoX Hh4jJSclIx4vLzMzLy9AQEBAQEBAQEBAQEBAQEABEQ8PERMRFRISFRQRFBEUGhQWFhQaJhoaHBoa JjAjHh4eHiMwKy4nJycuKzU1MDA1NUBAP0BAQEBAQEBAQEBAQP/CABEIAGAAGwMBIgACEQEDEQH/ xAB1AAEBAQEAAAAAAAAAAAAAAAAHBQYAAQEBAQAAAAAAAAAAAAAAAAADAAEQAAIBBQEAAAAAAAAA AAAAADUGEABBAjJDBBEAAQQDAAAAAAAAAAAAAAAAAQAQwQRysnMSAAIDAQAAAAAAAAAAAAAAAAAB ccGCMP/aAAwDAQACEQMRAAAAQDJNMtfc1JdSPjJNMpNzUl1I+Mk0yk3NSXUj4yTTKTc1JdSPjJNM pNzUl1I+Mk0yk3NSXUj/AP/aAAgBAgABBQDGr41fGr41fGr41f8A/9oACAEDAAEFAPPt08+3Tz7d PPt08+3Tz7dP/9oACAEBAAEFAKYza0DhjNrQOGM2tA4Yza0DhjNrQOGM2tA4Yza0DhjNrQOGM2tA 4Yza0DhjNrQOGM2tA6//2gAIAQICBj8A6f/aAAgBAwIGPwBwbscG7HBuxwbscG7HBuz/2gAIAQEB Bj8AVzpAVPA7F7nSAqeB2L3OkBU8DsXudICp4HYvc6QFTwOxe50gKngdi9zpAVPA7F7nSAqeB2L3 OkBU8DsXudICp4HYvc6QFTwOxe50gKngdi3/2Q==" transform="matrix(-0.8818 0 0 -0.8986 524.1454 792.5833)">
		</image>
	</g>
</g>
<g>
	<defs>
		<polyline id="SVGID_21_" points="523.3,707.3 501.2,707.3 501.2,713.2 523.3,713.2 523.3,707.3   "/>
	</defs>
	<clipPath id="SVGID_22_">
		<use xlink:href="#SVGID_21_" overflow="visible"/>
	</clipPath>
	<g clip-path="url(#SVGID_22_)">
		
			<image overflow="visible" width="27" height="9" xlink:href="data:image/jpeg;base64,/9j/4AAQSkZJRgABAgEASABIAAD/7AARRHVja3kAAQAEAAAAHgAA/+4AIUFkb2JlAGTAAAAAAQMA EAMCAwYAAAGMAAABoAAAAdH/2wCEABALCwsMCxAMDBAXDw0PFxsUEBAUGx8XFxcXFx8eFxoaGhoX Hh4jJSclIx4vLzMzLy9AQEBAQEBAQEBAQEBAQEABEQ8PERMRFRISFRQRFBEUGhQWFhQaJhoaHBoa JjAjHh4eHiMwKy4nJycuKzU1MDA1NUBAP0BAQEBAQEBAQEBAQP/CABEIAAkAGwMBIgACEQEDEQH/ xAB2AAEBAQAAAAAAAAAAAAAAAAAHBQYBAAMBAAAAAAAAAAAAAAAAAAABAgMQAAECBwAAAAAAAAAA AAAAADUABRBBAjJDBAYRAAEEAwAAAAAAAAAAAAAAAAIAEHEEsXOzEgABBQAAAAAAAAAAAAAAAAAA EAFxwYL/2gAMAwEAAhEDEQAAAEAvUC977mvIrkf/2gAIAQIAAQUApU//2gAIAQMAAQUA17sv/9oA CAEBAAEFAE/GeWAQfjPLAF//2gAIAQICBj8AT//aAAgBAwIGPwB4N2f/2gAIAQEBBj8AV3ceVUg+ hvd3HlVIPobf/9k=" transform="matrix(-0.8818 0 0 -0.8986 524.1454 714.0904)">
		</image>
	</g>
</g>
<g>
	<defs>
		<polyline id="SVGID_23_" points="523.3,779.7 523.3,779.7 523.3,791.7 501.2,791.7 501.2,864.1 501.2,858.1 523.3,858.1     523.3,779.7   "/>
	</defs>
	<clipPath id="SVGID_24_">
		<use xlink:href="#SVGID_23_" overflow="visible"/>
	</clipPath>
	<g clip-path="url(#SVGID_24_)">
		
			<image overflow="visible" width="27" height="96" xlink:href="data:image/jpeg;base64,/9j/4AAQSkZJRgABAgEASABIAAD/7AARRHVja3kAAQAEAAAAHgAA/+4AIUFkb2JlAGTAAAAAAQMA EAMCAwYAAAHRAAACDwAAAo3/2wCEABALCwsMCxAMDBAXDw0PFxsUEBAUGx8XFxcXFx8eFxoaGhoX Hh4jJSclIx4vLzMzLy9AQEBAQEBAQEBAQEBAQEABEQ8PERMRFRISFRQRFBEUGhQWFhQaJhoaHBoa JjAjHh4eHiMwKy4nJycuKzU1MDA1NUBAP0BAQEBAQEBAQEBAQP/CABEIAGAAGwMBIgACEQEDEQH/ xAB1AAEBAQEAAAAAAAAAAAAAAAAHBQYAAQEBAQAAAAAAAAAAAAAAAAADAAEQAAIBBQEAAAAAAAAA AAAAADUGEABBAjJDBBEAAQQDAAAAAAAAAAAAAAAAAQAQwQRysnMSAAIDAQAAAAAAAAAAAAAAAAAB ccGCMP/aAAwDAQACEQMRAAAAQDJNMtfc1JdSPjJNMpNzUl1I+Mk0yk3NSXUj4yTTKTc1JdSPjJNM pNzUl1I+Mk0yk3NSXUj/AP/aAAgBAgABBQDGr41fGr41fGr41f8A/9oACAEDAAEFAPPt08+3Tz7d PPt08+3Tz7dP/9oACAEBAAEFAKYza0DhjNrQOGM2tA4Yza0DhjNrQOGM2tA4Yza0DhjNrQOGM2tA 4Yza0DhjNrQOGM2tA6//2gAIAQICBj8A6f/aAAgBAwIGPwBwbscG7HBuxwbscG7HBuz/2gAIAQEB Bj8AVzpAVPA7F7nSAqeB2L3OkBU8DsXudICp4HYvc6QFTwOxe50gKngdi9zpAVPA7F7nSAqeB2L3 OkBU8DsXudICp4HYvc6QFTwOxe50gKngdi3/2Q==" transform="matrix(-0.8818 0 0 -0.8986 524.1454 864.951)">
		</image>
	</g>
</g>
<g>
	<defs>
		<polyline id="SVGID_25_" points="523.3,779.7 501.2,779.7 501.2,791.7 523.3,791.7 523.3,779.7   "/>
	</defs>
	<clipPath id="SVGID_26_">
		<use xlink:href="#SVGID_25_" overflow="visible"/>
	</clipPath>
	<g clip-path="url(#SVGID_26_)">
		
			<image overflow="visible" width="27" height="15" xlink:href="data:image/jpeg;base64,/9j/4AAQSkZJRgABAgEASABIAAD/7AARRHVja3kAAQAEAAAAHgAA/+4AIUFkb2JlAGTAAAAAAQMA EAMCAwYAAAGMAAABoAAAAdH/2wCEABALCwsMCxAMDBAXDw0PFxsUEBAUGx8XFxcXFx8eFxoaGhoX Hh4jJSclIx4vLzMzLy9AQEBAQEBAQEBAQEBAQEABEQ8PERMRFRISFRQRFBEUGhQWFhQaJhoaHBoa JjAjHh4eHiMwKy4nJycuKzU1MDA1NUBAP0BAQEBAQEBAQEBAQP/CABEIAA8AGwMBIgACEQEDEQH/ xAB2AAEBAQAAAAAAAAAAAAAAAAAHBQYBAAMBAAAAAAAAAAAAAAAAAAABAgMQAAECBwAAAAAAAAAA AAAAADUABRBBAjJDBAYRAAEEAwAAAAAAAAAAAAAAAAIAEHEEsXOzEgABBQAAAAAAAAAAAAAAAAAA EAFxwYL/2gAMAwEAAhEDEQAAAEAvUC977mvIrkf/2gAIAQIAAQUApU//2gAIAQMAAQUA17sv/9oA CAEBAAEFAE/GeWAQfjPLAF//2gAIAQICBj8AT//aAAgBAwIGPwB4N2f/2gAIAQEBBj8AV3ceVUg+ hvd3HlVIPobf/9k=" transform="matrix(-0.8818 0 0 -0.8986 524.1454 792.5833)">
		</image>
	</g>
</g>
<g>
	<defs>
		<polyline id="SVGID_27_" points="523.3,858.1 523.3,858.1 523.3,864.1 501.2,864.1 501.2,928.3 512.5,928.3 512.5,942.5     523.3,942.5 523.3,858.1   "/>
	</defs>
	<clipPath id="SVGID_28_">
		<use xlink:href="#SVGID_27_" overflow="visible"/>
	</clipPath>
	<g transform="matrix(1 0 0 1 0 6.103516e-05)" clip-path="url(#SVGID_28_)">
		
			<image overflow="visible" width="27" height="96" xlink:href="data:image/jpeg;base64,/9j/4AAQSkZJRgABAgEASABIAAD/7AARRHVja3kAAQAEAAAAHgAA/+4AIUFkb2JlAGTAAAAAAQMA EAMCAwYAAAHRAAACDwAAAo3/2wCEABALCwsMCxAMDBAXDw0PFxsUEBAUGx8XFxcXFx8eFxoaGhoX Hh4jJSclIx4vLzMzLy9AQEBAQEBAQEBAQEBAQEABEQ8PERMRFRISFRQRFBEUGhQWFhQaJhoaHBoa JjAjHh4eHiMwKy4nJycuKzU1MDA1NUBAP0BAQEBAQEBAQEBAQP/CABEIAGAAGwMBIgACEQEDEQH/ xAB1AAEBAQEAAAAAAAAAAAAAAAAHBQYAAQEBAQAAAAAAAAAAAAAAAAADAAEQAAIBBQEAAAAAAAAA AAAAADUGEABBAjJDBBEAAQQDAAAAAAAAAAAAAAAAAQAQwQRysnMSAAIDAQAAAAAAAAAAAAAAAAAB ccGCMP/aAAwDAQACEQMRAAAAQDJNMtfc1JdSPjJNMpNzUl1I+Mk0yk3NSXUj4yTTKTc1JdSPjJNM pNzUl1I+Mk0yk3NSXUj/AP/aAAgBAgABBQDGr41fGr41fGr41f8A/9oACAEDAAEFAPPt08+3Tz7d PPt08+3Tz7dP/9oACAEBAAEFAKYza0DhjNrQOGM2tA4Yza0DhjNrQOGM2tA4Yza0DhjNrQOGM2tA 4Yza0DhjNrQOGM2tA6//2gAIAQICBj8A6f/aAAgBAwIGPwBwbscG7HBuxwbscG7HBuz/2gAIAQEB Bj8AVzpAVPA7F7nSAqeB2L3OkBU8DsXudICp4HYvc6QFTwOxe50gKngdi9zpAVPA7F7nSAqeB2L3 OkBU8DsXudICp4HYvc6QFTwOxe50gKngdi3/2Q==" transform="matrix(-0.8818 0 0 -0.8986 524.1454 943.4436)">
		</image>
	</g>
</g>
<g>
	<defs>
		<polyline id="SVGID_29_" points="523.3,858.1 501.2,858.1 501.2,864.1 523.3,864.1 523.3,858.1   "/>
	</defs>
	<clipPath id="SVGID_30_">
		<use xlink:href="#SVGID_29_" overflow="visible"/>
	</clipPath>
	<g clip-path="url(#SVGID_30_)">
		
			<image overflow="visible" width="27" height="9" xlink:href="data:image/jpeg;base64,/9j/4AAQSkZJRgABAgEASABIAAD/7AARRHVja3kAAQAEAAAAHgAA/+4AIUFkb2JlAGTAAAAAAQMA EAMCAwYAAAGMAAABoAAAAdH/2wCEABALCwsMCxAMDBAXDw0PFxsUEBAUGx8XFxcXFx8eFxoaGhoX Hh4jJSclIx4vLzMzLy9AQEBAQEBAQEBAQEBAQEABEQ8PERMRFRISFRQRFBEUGhQWFhQaJhoaHBoa JjAjHh4eHiMwKy4nJycuKzU1MDA1NUBAP0BAQEBAQEBAQEBAQP/CABEIAAkAGwMBIgACEQEDEQH/ xAB2AAEBAQAAAAAAAAAAAAAAAAAHBQYBAAMBAAAAAAAAAAAAAAAAAAABAgMQAAECBwAAAAAAAAAA AAAAADUABRBBAjJDBAYRAAEEAwAAAAAAAAAAAAAAAAIAEHEEsXOzEgABBQAAAAAAAAAAAAAAAAAA EAFxwYL/2gAMAwEAAhEDEQAAAEAvUC977mvIrkf/2gAIAQIAAQUApU//2gAIAQMAAQUA17sv/9oA CAEBAAEFAE/GeWAQfjPLAF//2gAIAQICBj8AT//aAAgBAwIGPwB4N2f/2gAIAQEBBj8AV3ceVUg+ hvd3HlVIPobf/9k=" transform="matrix(-0.8818 0 0 -0.8986 524.1454 864.951)">
		</image>
	</g>
</g>
<g>
	<defs>
		<polyline id="SVGID_31_" points="501.2,928.3 428.1,928.3 428.1,950.3 512.5,950.3 512.5,942.5 501.2,942.5 501.2,928.3   "/>
	</defs>
	<clipPath id="SVGID_32_">
		<use xlink:href="#SVGID_31_" overflow="visible"/>
	</clipPath>
	<g transform="matrix(1 0 0 1 0 6.103516e-05)" clip-path="url(#SVGID_32_)">
		
			<image overflow="visible" width="27" height="96" xlink:href="data:image/jpeg;base64,/9j/4AAQSkZJRgABAgEASABIAAD/7AARRHVja3kAAQAEAAAAHgAA/+4AIUFkb2JlAGTAAAAAAQMA EAMCAwYAAAHRAAACDwAAAo3/2wCEABALCwsMCxAMDBAXDw0PFxsUEBAUGx8XFxcXFx8eFxoaGhoX Hh4jJSclIx4vLzMzLy9AQEBAQEBAQEBAQEBAQEABEQ8PERMRFRISFRQRFBEUGhQWFhQaJhoaHBoa JjAjHh4eHiMwKy4nJycuKzU1MDA1NUBAP0BAQEBAQEBAQEBAQP/CABEIAGAAGwMBIgACEQEDEQH/ xAB1AAEBAQEAAAAAAAAAAAAAAAAHBQYAAQEBAQAAAAAAAAAAAAAAAAADAAEQAAIBBQEAAAAAAAAA AAAAADUGEABBAjJDBBEAAQQDAAAAAAAAAAAAAAAAAQAQwQRysnMSAAIDAQAAAAAAAAAAAAAAAAAB ccGCMP/aAAwDAQACEQMRAAAAQDJNMtfc1JdSPjJNMpNzUl1I+Mk0yk3NSXUj4yTTKTc1JdSPjJNM pNzUl1I+Mk0yk3NSXUj/AP/aAAgBAgABBQDGr41fGr41fGr41f8A/9oACAEDAAEFAPPt08+3Tz7d PPt08+3Tz7dP/9oACAEBAAEFAKYza0DhjNrQOGM2tA4Yza0DhjNrQOGM2tA4Yza0DhjNrQOGM2tA 4Yza0DhjNrQOGM2tA6//2gAIAQICBj8A6f/aAAgBAwIGPwBwbscG7HBuxwbscG7HBuz/2gAIAQEB Bj8AVzpAVPA7F7nSAqeB2L3OkBU8DsXudICp4HYvc6QFTwOxe50gKngdi9zpAVPA7F7nSAqeB2L3 OkBU8DsXudICp4HYvc6QFTwOxe50gKngdi3/2Q==" transform="matrix(0 0.8818 -0.8986 0 513.4438 927.3665)">
		</image>
	</g>
</g>
<g>
	<defs>
		<polyline id="SVGID_33_" points="512.5,928.3 501.2,928.3 501.2,942.5 512.5,942.5 512.5,928.3   "/>
	</defs>
	<clipPath id="SVGID_34_">
		<use xlink:href="#SVGID_33_" overflow="visible"/>
	</clipPath>
	<g transform="matrix(1 0 0 1 0 6.103516e-05)" clip-path="url(#SVGID_34_)">
		
			<image overflow="visible" width="15" height="18" xlink:href="data:image/jpeg;base64,/9j/4AAQSkZJRgABAgEASABIAAD/7AARRHVja3kAAQAEAAAAHgAA/+4AIUFkb2JlAGTAAAAAAQMA EAMCAwYAAAGYAAABsQAAAfD/2wCEABALCwsMCxAMDBAXDw0PFxsUEBAUGx8XFxcXFx8eFxoaGhoX Hh4jJSclIx4vLzMzLy9AQEBAQEBAQEBAQEBAQEABEQ8PERMRFRISFRQRFBEUGhQWFhQaJhoaHBoa JjAjHh4eHiMwKy4nJycuKzU1MDA1NUBAP0BAQEBAQEBAQEBAQP/CABEIABIADwMBIgACEQEDEQH/ xACAAAADAQEAAAAAAAAAAAAAAAAABQYCBwEAAwEAAAAAAAAAAAAAAAAAAQIDBBAAAQMEAwAAAAAA AAAAAAAAAgABAzEEFAYyBTURAAIBAgQHAAAAAAAAAAAAAAECABEDEBKSMyFRYdEycrISAAIDAAAA AAAAAAAAAAAAAAARECGB/9oADAMBAAIRAxEAAABDttftrguhgJf/2gAIAQIAAQUAd09f/9oACAED AAEFAJJWF5+f/9oACAEBAAEFABIgfIuFqIBJ3eJarTvcX//aAAgBAgIGPwCP/9oACAEDAgY/AEnR h//aAAgBAQEGPwDMhKnmDQzdfUZaV1DLkfgwqPHrNm3pHaWvS584f//Z" transform="matrix(-0.8818 0 0 -0.8986 513.5637 943.4436)">
		</image>
	</g>
</g>
<rect x="113.4" y="216" fill-rule="evenodd" clip-rule="evenodd" fill="#A6D7BC" width="217.3" height="86.1"/>
<polygon fill="#231F20" points="330.7,302.1 330.7,303.2 112.3,303.2 112.3,214.9 331.8,214.9 331.8,303.2 330.7,303.2 330.7,302.1   329.6,302.1 329.6,217.1 114.5,217.1 114.5,301 330.7,301 330.7,302.1 329.6,302.1 "/>
<rect x="113.4" y="432.8" fill-rule="evenodd" clip-rule="evenodd" fill="#A6D7BC" width="217.3" height="86.1"/>
<polygon fill="#231F20" points="330.7,518.9 330.7,520 112.3,520 112.3,431.7 331.8,431.7 331.8,520 330.7,520 330.7,518.9   329.6,518.9 329.6,433.9 114.5,433.9 114.5,517.8 330.7,517.8 330.7,518.9 329.6,518.9 "/>
<rect x="51.5" y="649.1" fill-rule="evenodd" clip-rule="evenodd" fill="#A6D7BC" width="343.3" height="120.7"/>
<polygon fill="#231F20" points="394.8,769.8 394.8,770.9 50.4,770.9 50.4,648 395.9,648 395.9,770.9 394.8,770.9 394.8,769.8   393.7,769.8 393.7,650.2 52.6,650.2 52.6,768.7 394.8,768.7 394.8,769.8 393.7,769.8 "/>
<rect x="1.1" y="877.4" fill-rule="evenodd" clip-rule="evenodd" fill="#A6D7BC" width="211" height="121.2"/>
<polygon fill="#231F20" points="212.1,998.6 212.1,999.7 0,999.7 0,876.3 213.2,876.3 213.2,999.7 212.1,999.7 212.1,998.6   211,998.6 211,878.5 2.2,878.5 2.2,997.6 212.1,997.6 212.1,998.6 211,998.6 "/>
<rect x="231" y="877.7" fill-rule="evenodd" clip-rule="evenodd" fill="#A6D7BC" width="211" height="121.2"/>
<polygon fill="#231F20" points="442,998.9 442,1000 229.9,1000 229.9,876.6 443.1,876.6 443.1,1000 442,1000 442,998.9 440.9,998.9   440.9,878.8 232.1,878.8 232.1,997.8 442,997.8 442,998.9 440.9,998.9 "/>
<g>
	<defs>
		<polyline id="SVGID_35_" points="243.6,47.5 203.2,47.5 203.2,208.2 243.6,208.2 243.6,47.5   "/>
	</defs>
	<clipPath id="SVGID_36_">
		<use xlink:href="#SVGID_35_" overflow="visible"/>
	</clipPath>
	<g clip-path="url(#SVGID_36_)">
		
			<image overflow="visible" width="47" height="181" xlink:href="data:image/jpeg;base64,/9j/4AAQSkZJRgABAgEAUABQAAD/7AARRHVja3kAAQAEAAAAHgAA/+4AIUFkb2JlAGTAAAAAAQMA EAMCAwYAAAKGAAADaQAABXL/2wCEABALCwsMCxAMDBAXDw0PFxsUEBAUGx8XFxcXFx8eFxoaGhoX Hh4jJSclIx4vLzMzLy9AQEBAQEBAQEBAQEBAQEABEQ8PERMRFRISFRQRFBEUGhQWFhQaJhoaHBoa JjAjHh4eHiMwKy4nJycuKzU1MDA1NUBAP0BAQEBAQEBAQEBAQP/CABEIALUAMAMBIgACEQEDEQH/ xACpAAEBAQADAQEAAAAAAAAAAAAABQYDBAcCAQEAAwEBAAAAAAAAAAAAAAAAAAIEAQMQAAAFBAIB BAMBAAAAAAAAAAECBAUGABADNSARQSESMxUxExRCEQACAQIDBgIIBQUAAAAAAAABAgMAESBzBCEx QbESwhBRYaEiQhMzFAVxgZHBcuEygqIjEgABAwMDBQAAAAAAAAAAAAABABARMQISQVGBMEDwITL/ 2gAMAwEAAhEDEQAAAPQI/wBecb2scUo1HoF7yHdLwiQL0Fu4DO50+yZvPO/XoqzedLfy1Ebb8mjX h+jOHF9YqrvTRjOYBh6sqq1GjCzgGHqyqrUaMLOAYerKqtRows4Bh6sqq1GjCzgGHqyqrUaMLOIR sSrkew1XpKbSWV1e0M8l5NKazW8gsYB0+EGpAX//2gAIAQIAAQUAAK6oQoPxYBrsKEbdelvFvFvF vFvFuvS3fpbxX//aAAgBAwABBQDFi91ewvWXEABj69lD11iy+2veSsuUBChx9Esb4LG+Cxvgsb4L G+CilEwjjMOMQ6EB6H9gfrt/iv/aAAgBAQABBQCniSImsV8qc1lIZI5ojtEtRrz1I3b6tAc58h7f iog8nWYJguFU48GheDc4S9EKVz4NyIzgtk7SLkgMUxTXhzMKfDTxGETkKiIPWE2KJveQzRD0qQQA AC2RQnxDjy4speE5EfsIRquE62EI1XCdbCEarhOthCNVwnWwhGq4TrYQjVcJ1sIRquE62EI1XCdb CEarhOthCNVwnWwhGq4TrYQjVXkrs5NRXZ3Uu2Zrki5qTsK1avQWcUONwRqU+VNnb0Z1y3DiJgw3 mrUBRg7d2bg7/wA31se/n+nt/9oACAECAgY/AOlPdf/aAAgBAwIGPwCTRRAhZW01CEbMZpHtY3UX 0FjbyWF81cOHDhw0BC3VEbKQsvJfX64b/9oACAEBAQY/AK+Gby6i1xGvD+RordYo73VVG0f5V1I4 kX3le5uKEE6/Tzndc+wx8gfAunz5rpF6Dxb8qLuxZ2Nyx2knxuN9NotQ3VNALoxO1k/pQi3LpwyW 9IY7cMOrYFljJ6lU2LAgi1fEvcagGT8CWOzDFo0YI0pIDHaBYFv2q8QvqILsg4sOK0VYEMNhB3jA fuGoW0suyJWG1V8/z8DMt4dSR/eu5v5CrJGsw4FGHdarGARjzdhb1XpZ9YfjzrtC+4p/erDd4gSy pGTtAZgp9ddUTrIu66kMPVhgyu40+aeQwwZXcafNPIYYMruNPmnkMMGV3GnzTyGGDK7jT5p5DDBl dxp808hhgyu40+aeQwwZXcafNPIYYMruNPmnkMMGV3GnzTyGGDK7jT5p5DDBldxp808hgim0scbw P7Ll1YlX4bVYbxSTalUVkXpAQEC178SaOn06RMhYsS4Ym5/BhS6vWKiNISY1QEeyNm3qJ8ZdLJuk Gw+TDcaeCVSskbFWB9FQ6VAbyMASOC8T+lJDGLJGoVR6BgT7nCLBvYnA8/dapfuMgFh/ziv/ALHD qfqvk9B6t2/ha/G9ab6b5fTxtfq969uN/H//2Q==" transform="matrix(0.8981 0 0 0.8973 202.2786 46.6455)">
		</image>
	</g>
</g>
<image overflow="visible" width="27" height="127" xlink:href="data:image/jpeg;base64,/9j/4AAQSkZJRgABAgEAUgBSAAD/7AARRHVja3kAAQAEAAAAHgAA/+4AIUFkb2JlAGTAAAAAAQMA EAMCAwYAAAIkAAACqQAAA7j/2wCEABALCwsMCxAMDBAXDw0PFxsUEBAUGx8XFxcXFx8eFxoaGhoX Hh4jJSclIx4vLzMzLy9AQEBAQEBAQEBAQEBAQEABEQ8PERMRFRISFRQRFBEUGhQWFhQaJhoaHBoa JjAjHh4eHiMwKy4nJycuKzU1MDA1NUBAP0BAQEBAQEBAQEBAQP/CABEIAIMAHAMBIgACEQEDEQH/ xACiAAEBAQEAAwEAAAAAAAAAAAAGAAUHAQIDBAEBAQEBAQAAAAAAAAAAAAAAAQACAwQQAAAEBAYB BQEAAAAAAAAAAAEDNQYQAgQFABExQTJDIRITMxQWFREAAgAEBAQEBQUAAAAAAAAAAQIAEQNzEDGx EyFBEgRRYYFCkaHB0TKSIxQ0BRIAAQMEAgMAAAAAAAAAAAAAAAGBghEhMQIQQFFhEv/aAAwDAQAC EQMRAAAA6ADeAXruIjiOYC+AxtoziOYC+AxtoziOYC+AxtoziOYC+AxtoziOYC+AxtoziOfzhtYW 7b73KmtpPy/qZ04mOkYO+7vnWfP596r/2gAIAQIAAQUADXcNdw13DXcNdw13AMZeQHGfmH//2gAI AQMAAQUAI59xHPuI59xHPuI59xHPuJkDAlgBhM/pmGcBOh//2gAIAQEAAQUAw9DDJbsyppprVB7K zISoPZWZCVB7KzISoPZWZCVB7KzISoPZWZCVB7KzISoPZWZCVB7KzISoPZWZCVB7KzISsT19EXM8 TijrozqylItn9K34eNmlmJh+aK/OGlSHFXa3z26vbNB927ZBlh42sKqiZ9uGktsKjL2Cvjx//9oA CAECAgY/AOl//9oACAEDAgY/AGJDEhiQxIYkMSPtF9UE2rfZcFFxsJ4S3P8A/9oACAEBAQY/AIAV iBtrwBIhyxJO6eJ48hiLaw906DEW1h7p0GItrD3ToMRbWHunQYi2sPdOgxFtYe6dBiLaw906DEW1 h7p0GItrD3ToMRbWHunQYi2sPdOgwKPXRWUyILAEGFek4ddteKmYh0rVUptuEyYgHIR/Yp/qED/Q 7anJ0J35cwfcfXHp2h/O29zq93V+XT9IelUE0cFWHkYq9q3EKZo3ip4gxSVl6qVL9ypPKQy+cS5e GA7yks6/b5yHEoc/hG/UWVXuT1+fR7fvjUnKXS2eWXOULlkPxy9MP//Z" transform="matrix(0.8818 0 0 0.8986 210.1682 310.6648)">
</image>
<image overflow="visible" width="27" height="127" xlink:href="data:image/jpeg;base64,/9j/4AAQSkZJRgABAgEAUgBSAAD/7AARRHVja3kAAQAEAAAAHgAA/+4AIUFkb2JlAGTAAAAAAQMA EAMCAwYAAAIjAAACpQAAA7b/2wCEABALCwsMCxAMDBAXDw0PFxsUEBAUGx8XFxcXFx8eFxoaGhoX Hh4jJSclIx4vLzMzLy9AQEBAQEBAQEBAQEBAQEABEQ8PERMRFRISFRQRFBEUGhQWFhQaJhoaHBoa JjAjHh4eHiMwKy4nJycuKzU1MDA1NUBAP0BAQEBAQEBAQEBAQP/CABEIAIMAHAMBIgACEQEDEQH/ xACgAAEBAQEAAwAAAAAAAAAAAAAGAAUHAQIDAQEBAQEBAAAAAAAAAAAAAAABAAIDBBAAAAQFBQAD AQAAAAAAAAAAAQM1BgAQAgQFETFBMkMhNBYTEQACAAQDBgMIAwAAAAAAAAABAgAQA3MRMbEhQRIy EwRRYZHR4SJCUpIjMxQkBRIAAQMCBwEAAAAAAAAAAAAAAAGBghExECAwIVFhAhL/2gAMAwEAAhED EQAAAOgB3AF67++cRzAXwGNtGcRzAXwGNtGcRzAXwGNtGcRzAXwGNtGcRzAXwGNtGcRz6A9Ae7dI eSMJV8u6qZORrpR5E7vjWfP5+tT/AP/aAAgBAgABBQAN+Q35DfkN+Q35DfkAjT5AY1+Zf//aAAgB AwABBQAjv7Ed/Yjv7Ed/Yjv7Ed/YmgIEsAMJr0qGvU4I5//aAAgBAQABBQCHjeXZOUZpxx+Mk9lZ kJUnsrMhKk9lZkJUnsrMhKk9lZkJUnsrMhKk9lZkJUnsrMhKk9lZkJUnsrMhKk9lZkJUCcUAvQQq yzKMLpxX9yYeOGoCiX5gr86eSXcE5OxMx963LAL/ACugaQ88XSfaM3HDbY+V39W1+vH/2gAIAQIC Bj8A1K5v/9oACAEDAgY/AGJDEhiQxIYkMSPtF6oJ6rdbFFt6E4TbH//aAAgBAQEGPwCAlGvUpr01 PCjso9AYd61RqjdQjicljhgPGYtrD3ToJi2sPdOgmLaw906CYtrD3ToJi2sPdOgmLaw906CYtrD3 ToJi2sPdOgmLaw906CYtrD3ToJi2sPdOglgXUEZgkQpBBHTXaIcMwU9U7CQNwj9i/cIH+j2yYHE/ yMPM48Rn1On/AHun1cd/1cPpsh6FQYpUUqw8jFXtXzQ/CfFTkYo03XipJ+SoN2C++OHDZlhId/TX 81HY+G9D7IPdVFwqdycVxz4Bl65zrZcjc3Llvilyco/XyZfL5S//2Q==" transform="matrix(0.8818 0 0 0.8986 210.1682 526.9198)">
</image>
<g>
	<defs>
		<polyline id="SVGID_37_" points="211.6,776.6 141.2,776.6 141.2,870.6 211.6,870.6 211.6,776.6   "/>
	</defs>
	<clipPath id="SVGID_38_">
		<use xlink:href="#SVGID_37_" overflow="visible"/>
	</clipPath>
	<g clip-path="url(#SVGID_38_)">
		
			<image overflow="visible" width="81" height="107" xlink:href="data:image/jpeg;base64,/9j/4AAQSkZJRgABAgEAUQBRAAD/7AARRHVja3kAAQAEAAAAHgAA/+4AIUFkb2JlAGTAAAAAAQMA EAMCAwYAAAJMAAADEgAABP3/2wCEABALCwsMCxAMDBAXDw0PFxsUEBAUGx8XFxcXFx8eFxoaGhoX Hh4jJSclIx4vLzMzLy9AQEBAQEBAQEBAQEBAQEABEQ8PERMRFRISFRQRFBEUGhQWFhQaJhoaHBoa JjAjHh4eHiMwKy4nJycuKzU1MDA1NUBAP0BAQEBAQEBAQEBAQP/CABEIAG0AUgMBIgACEQEDEQH/ xACoAAEAAgMBAQAAAAAAAAAAAAAABQYBBAcCAwEBAAMBAAAAAAAAAAAAAAAAAAECAwQQAAEEAgED BQEAAAAAAAAAAAECAwQFIAYRMBITABAhMRUWEQABAgMFBAgEBwAAAAAAAAABAgMAEQQwIUFREjFS EzNhcYEiMmIUBSBCJBUQkbHBoiNDEgABAwMCBwEAAAAAAAAAAAABACARMYECMCFAYZESIlJiE//a AAwDAQACEQMRAAAA6AAAADFf04aduhNBGcmFQAEVu82nXx0qOmwIyAAYzVFoiSieiW2zkrzgAD4E fQ83e3TI7RXmAAMBz+Xgp6Ja4+fUYgqABo0K3c9t07fSuZdIRvivOAABVK5b5ud4iayjIFQAAP/a AAgBAgABBQDADED0TicfoYD0cB9HHn4x/9oACAEDAAEFAMENjs4Tg033F1zuPuhJUXVBKcPhpBPO DSAkLWVH3YSCh/nFK1BCu7nD/9oACAEBAAEFAOgSAGtwgGf52ejt96WxrlGq1k/z1V0NguEVcOHF k2k6vgs18XObMYgxrKwkW07WqQVkbNSgkbPeGxkajQ89Hbr4No1ykXZykIShGewXTdXEhxJVrOro DNfFzlymYceynv2k7WaUVsTMkJG0Xn6EnUKLk5EgBKkqG3XpZTrlKq0lttoaRldu+GqrNhsK1MSN KtZ1dAZr4ue4PeKm9QZ0qDIp5sqbDz3t7iPV0c+0VV6tWwB0Lr8n9Vnw+Po//9oACAECAgY/AGb6 caU8D//aAAgBAwIGPwBhyzsqnoyTQKBQMgLsxu36Kks/TKyksMiZKHq0DHEnnGy8pu3/2gAIAQEB Bj8AsCSZAbSYcpne4yFaW38LtuqOYnw8TxDwb3V02J9tpVSUeeoHDdgqdBFK3zDvHIRyE8vhdmfX 02BKT9S4JMp6d7sgNJmpx1U1qyntJhFMyO6gXnEnE2C6l86W0D8zkILqpqKjpaRkMBHEdA9U6JrO 6N2wKlGQF5JjgMkilZJA86t6B7lVJu/xQR/KxPt1KsFahJ9QwG7AW4CKVozcVmd2AhAklIkAMhYH SZ1LgIaTl5oDSO+66dS1HAYkwimZEgkXnM4mwXUPq0obEzP9IU+oElZk23tkMAI4joBqXpFRlekb tgVEyAvJj09Oo+lauu2LVnA9yqU3DkJOPm+MkmQF5MBSSCDsIj7dSrk6of3KGCT8s4CnB9M0ZunP ywltsBKEiSUjYAPjqnJyk2Zdt0KbaVraUCAhWxJOIgNJJW68qa1m+U9qjCKZkABI7x3lYk2C04uK Sn8Ev0qtLguzmMjCXapgsOZHYrpFhTMA+JRUR1CPp0ANjxOrMkj9z2QlbiPUVAvK13pB8qdljS/d NenSeFq08Gc/nxhPA08KXd0S0y6JWX//2Q==" transform="matrix(0.8903 0 0 0.8948 140.3493 775.7222)">
		</image>
	</g>
</g>
<g>
	<defs>
		<polyline id="SVGID_39_" points="304.5,776.1 234.1,776.1 234.1,870 304.5,870 304.5,776.1   "/>
	</defs>
	<clipPath id="SVGID_40_">
		<use xlink:href="#SVGID_39_" overflow="visible"/>
	</clipPath>
	<g clip-path="url(#SVGID_40_)">
		
			<image overflow="visible" width="81" height="107" xlink:href="data:image/jpeg;base64,/9j/4AAQSkZJRgABAgEAUQBRAAD/7AARRHVja3kAAQAEAAAAHgAA/+4AIUFkb2JlAGTAAAAAAQMA EAMCAwYAAAJaAAADDwAABRr/2wCEABALCwsMCxAMDBAXDw0PFxsUEBAUGx8XFxcXFx8eFxoaGhoX Hh4jJSclIx4vLzMzLy9AQEBAQEBAQEBAQEBAQEABEQ8PERMRFRISFRQRFBEUGhQWFhQaJhoaHBoa JjAjHh4eHiMwKy4nJycuKzU1MDA1NUBAP0BAQEBAQEBAQEBAQP/CABEIAG0AUgMBIgACEQEDEQH/ xACoAAEAAwADAQAAAAAAAAAAAAAABQYHAQMEAgEBAAMBAAAAAAAAAAAAAAAAAAECAwQQAAEEAgID AAMBAAAAAAAAAAMBAgQFMAYgEQASFBAhMRMRAAIBAgIHBgIKAwAAAAAAAAECAxEEACEwMUFRcRIi YYHRMkIUIyQQobHBUsITM0MVU5MFEgABAwMCBwEAAAAAAAAAAAABACARITECQRIQMEBRYYEykf/a AAwDAQACEQMRAAAAuSMqU7ac6+yMQAAAOKNeuqb0y8Zhb2lgEYAAAAR+darXJ2lfdmWkq9gjMAAA Ci83XNLdOnq/YK84IAAAR8gTlWkRFXt0aY+PqvNyAAADii3qjzr4pOpzM76MK8YAADxe0mhQmr1a 3RY0crh//9oACAECAAEFAOv1xRfFTki+KnJP3z/qcU8VOXf4/9oACAEDAAEFAGjRzOLHq1xWIqcQ k6Uo/VeI3I9rmq1eCKqK5EKziH29nsT14J320j+uk8//2gAIAQEAAQUAtLeFVhp7QVrCw7XR/dHp Lc1TMAcUgOHbqP5DaheJGNhkAFJBdVJqqZq18lgDDdVIrWGjplVPqLQFrDw7ZRfaCity1M0JhHFh 22hWKbUr5IhMJwCkBuaotVN1S7++LhuqkVrCY+ZVTqmzBaQ8O10KTA0VwWqmCKMwu07wbbRfGas2 WbWwtLmnPZYNm2Gad3mpHQN3gsKmDZMttQmRFiSHwpf+64tlTWlT1l+f/9oACAECAgY/AHzzY6Sv D//aAAgBAwIGPwCR9On9W/Gxu7abFeDZ2zK+iIOjZGikfQdT2siBUiW0mfCjPHKO8K6//9oACAEB AQY/ABJcv1NXkjGbNTcMLcx9LV5ZE18rDZovdwCtzADUV80eZI4jCygkwsQJ4/xL4jCTxNzRyAMp G46L39uvy8x+IoGSOeGw4/rrlqQSn4LHUkh2Hsb7dE9vMvNFICrrvBw0LgmJiTDJ+JfEbce1uXre xDWf5EHq7SNuiaB6LKucMhHlbwO3GRMV1bPQ03j7QcLcxdLeWWPajjWPDRe+tlrdQjqVRnIg+8YE o6oX6Zk3rXXxGEmhYPHIOZGGog6I/wDQtU+WlNZQM+RydfA4/r7pgLaU1iY+hzvO46J4JlDxSDlZ TqIOGgbND1RPsK+Ix7S4at3ANbHORNh7tuiaBqLIOqKSmat4HHMKw3MDUI1cRwIwlxERzUAlTaj0 zHhojfWy/NRD4gHrQfeMCQEm3cgTpvXeO0YSaJg8cgDIw1EHFK5jMjjoffWy0tpT1qB5HO3gcS2k dGrnCzZ/pn1ZHXXF2J5GkeWMOSxrUq1PzaGSwWFre3JoecdcgG3PZ9ENTQSK6HvUkfWNDy3UYYjy uMmHA4aWzrcQDOnrHdiO4UdcLV5T2bMav4v1O/dovjHlua5m3Cs/eCQMfuS/tf44vJ/sx//Z" transform="matrix(0.8903 0 0 0.8948 233.2551 775.1973)">
		</image>
	</g>
</g>
<path fill="#73284E" d="M310.8,31.2h12.3V29l-4.4-0.3V16.1c1.4-1,3-1.5,4.8-1.5c1.1,0,2,0.3,2.8,0.8V9.7c-0.4-0.2-0.9-0.2-1.4-0.2  c-1.2,0-2.3,0.3-3.3,0.9c-1,0.6-1.8,1.2-2.5,2c-0.7,0.7-1.1,1.4-1.3,1.9h-0.1l0.1-3.1v-0.8l-1-0.8h-0.1l-5.9,0.8V13l2.4,0.7v15  l-2.5,0.3V31.2z M294.9,18.6c0.1-2.5,0.5-4.2,1.1-5.2c0.7-1,1.6-1.5,2.9-1.5c2.3,0,3.4,1.7,3.4,5.1c0,0.4,0,0.9-0.1,1.6H294.9z   M299.3,31.6c1.6,0,3.1-0.3,4.7-0.9c1.5-0.6,2.6-1.3,3.3-2l-1-2.1c-0.6,0.5-1.4,0.9-2.5,1.2c-1.1,0.3-2.1,0.5-3.1,0.5  c-1.8,0-3.2-0.6-4.2-1.9c-1-1.3-1.5-3.1-1.6-5.4h12.4c0.2-0.8,0.3-2.1,0.3-3.7c-0.1-2.5-0.8-4.4-2.1-5.7c-1.4-1.3-3.3-2-5.9-2  c-2,0-3.8,0.4-5.4,1.3c-1.5,0.9-2.7,2.2-3.6,3.8c-0.9,1.7-1.3,3.7-1.3,5.9c0,3.4,0.8,6.1,2.5,8C293.4,30.6,295.9,31.6,299.3,31.6z   M265.8,28.6l-2.1,0.3v2.3h9.9v-2.3l-2.3-0.3V14.7c0.6-0.5,1.4-0.9,2.2-1.3c0.8-0.4,1.6-0.6,2.4-0.6c0.9,0,1.6,0.2,2.1,0.5  c0.5,0.4,0.8,0.9,1,1.6c0.2,0.7,0.3,1.8,0.3,3.1v10.5l-2.2,0.3v2.3h10v-2.3l-2.4-0.3V18.1c0-2-0.2-3.7-0.5-4.9  c-0.4-1.2-1-2.1-1.9-2.7c-0.9-0.6-2.1-0.9-3.7-0.9c-1.5,0-2.9,0.3-4.3,0.9c-1.4,0.6-2.4,1.3-3.2,2l0.3-3.3l0-8.5l-1-0.7H270  l-7.1,0.8v2.1l2.9,0.5V28.6z M230.8,28.6l-2.2,0.3v2.3h9.9v-2.3l-2.3-0.3V14.7c1.6-1.2,3.2-1.9,4.6-1.9c0.9,0,1.5,0.2,2,0.5  c0.5,0.3,0.8,0.9,1,1.6c0.2,0.7,0.3,1.8,0.3,3.1v10.5l-2.1,0.3v2.3h9.8v-2.3l-2.3-0.3V18.1c0-2.1-0.2-3.7-0.6-4.9  c-0.4-1.2-1-2.1-1.9-2.7c-0.9-0.6-2.1-0.9-3.6-0.9c-1.4,0-2.9,0.3-4.3,0.9c-1.4,0.6-2.6,1.3-3.5,2.2l0-0.9v-1.5l-1-0.8h-0.1  l-6.3,0.8V13l2.4,0.7V28.6z M204.7,28.6l-2.2,0.3v2.3h9.9v-2.3l-2.3-0.3V14.7c1.6-1.2,3.2-1.9,4.6-1.9c0.9,0,1.5,0.2,2,0.5  c0.5,0.3,0.8,0.9,1,1.6c0.2,0.7,0.3,1.8,0.3,3.1v10.5l-2.1,0.3v2.3h9.8v-2.3l-2.3-0.3V18.1c0-2.1-0.2-3.7-0.6-4.9  c-0.4-1.2-1-2.1-1.9-2.7c-0.9-0.6-2.1-0.9-3.6-0.9c-1.4,0-2.9,0.3-4.3,0.9c-1.4,0.6-2.6,1.3-3.5,2.2l0-0.9v-1.5l-1-0.8h-0.1  l-6.3,0.8V13l2.4,0.7V28.6z M184,40.7c1.4,0,2.7-0.3,3.7-1c1-0.7,1.9-1.6,2.6-2.9c0.7-1.3,1.5-3,2.3-5.1c0.2-0.5,1-2.7,2.4-6.7  c1.4-4,2.8-8.1,4.1-12.3l1.9-0.5V10h-8.3v2.2l2.4,0.5L192,23.3l-1.2,4.5l-1.4-4.5l-3.4-10.5l2.8-0.5V10h-10.5v2.2l1.7,0.5l7.2,18.5  h2.1c-0.7,2-1.5,3.4-2.3,4.2c-0.8,0.8-1.9,1.3-3.1,1.3c-0.4,0-0.9-0.1-1.4-0.2c-0.5-0.1-0.9-0.2-1.1-0.3v4.1  c0.2,0.1,0.6,0.2,1.1,0.3C183,40.6,183.5,40.7,184,40.7z M166.5,38.9c-1.8,0-3-0.4-3.8-1.1c-0.8-0.7-1.1-1.8-1.1-3.2  c0-1.3,0.3-2.4,1-3.3c0.5,0.1,1.1,0.1,1.8,0.1h4.1c1.5,0,2.5,0.2,3.1,0.7c0.6,0.5,0.9,1.3,0.9,2.4c0,1.4-0.6,2.4-1.8,3.2  C169.5,38.5,168.1,38.9,166.5,38.9z M166.2,21.4c-2.5,0-3.8-1.7-3.8-5c0-1.5,0.3-2.7,1-3.5c0.6-0.8,1.6-1.2,2.8-1.2  c1.2,0,2.1,0.4,2.7,1.2c0.6,0.8,0.9,2,0.9,3.6C169.7,19.8,168.6,21.4,166.2,21.4z M165.9,41.5c2.1,0,4-0.3,5.9-1  c1.9-0.7,3.3-1.6,4.5-2.9c1.1-1.2,1.7-2.7,1.7-4.2c0-3.8-2.6-5.6-7.8-5.6h-4.1c-1.5,0-2.6-0.2-3.2-0.5c-0.6-0.3-0.9-0.9-0.9-1.7  l0.2-1l0.6-1c0.8,0.2,1.8,0.3,3,0.3c2.9,0,5.1-0.7,6.8-2.1c1.6-1.4,2.5-3.2,2.4-5.5c0-0.9-0.2-1.8-0.6-2.6h3.9V9.4H177  c-0.8,0-1.6,0.2-2.4,0.6c-0.8,0.4-1.3,0.8-1.7,1.2c-1.4-1.1-3.7-1.7-6.6-1.7c-1.7,0-3.2,0.3-4.7,0.9c-1.4,0.6-2.6,1.4-3.4,2.5  c-0.9,1.1-1.3,2.3-1.3,3.8c0,1.5,0.3,2.8,1,3.9c0.7,1.1,1.7,1.9,3.1,2.4c-0.9,0.4-1.6,1-2.2,1.8c-0.6,0.8-0.8,1.6-0.8,2.5  c0,1.5,0.6,2.6,1.8,3.3c-1,0.5-1.8,1.1-2.5,2.1c-0.7,0.9-1,1.9-1,2.9c0,1.8,0.8,3.3,2.3,4.3S162.5,41.5,165.9,41.5z M140.8,18.6  c0.1-2.5,0.5-4.2,1.1-5.2c0.7-1,1.6-1.5,2.9-1.5c2.3,0,3.4,1.7,3.4,5.1c0,0.4,0,0.9-0.1,1.6H140.8z M145.2,31.6  c1.6,0,3.1-0.3,4.7-0.9c1.5-0.6,2.6-1.3,3.3-2l-1-2.1c-0.6,0.5-1.4,0.9-2.5,1.2c-1.1,0.3-2.1,0.5-3.1,0.5c-1.8,0-3.2-0.6-4.2-1.9  c-1-1.3-1.5-3.1-1.6-5.4h12.4c0.2-0.8,0.3-2.1,0.3-3.7c-0.1-2.5-0.8-4.4-2.1-5.7c-1.4-1.3-3.3-2-5.9-2c-2,0-3.8,0.4-5.4,1.3  c-1.5,0.9-2.7,2.2-3.6,3.8c-0.9,1.7-1.3,3.7-1.3,5.9c0,3.4,0.8,6.1,2.5,8C139.3,30.6,141.8,31.6,145.2,31.6z M116.9,28.7V18  c0.5-0.1,1.9-0.1,4-0.1c1.9,0,3.3,0.4,4.2,1.2c0.9,0.8,1.3,2.1,1.3,4c0,1.9-0.5,3.4-1.4,4.4c-1,1-2.5,1.5-4.7,1.5  C118.6,29,117.5,28.9,116.9,28.7z M116.9,15.3V5.1c1.5-0.1,2.5-0.2,3-0.2c1.8,0,3.1,0.4,3.9,1.1c0.8,0.8,1.2,2,1.2,3.7  c0,1.8-0.4,3.1-1.1,4.1c-0.8,1-1.9,1.4-3.5,1.4h-1.8C117.7,15.3,117.2,15.3,116.9,15.3z M111.4,28.5l-3,0.4v2.3h5.7  c0.6,0,1.3,0,1.9,0.1c0.6,0,1,0.1,1.3,0.1c1,0.1,2,0.1,3.2,0.1c4.3,0,7.4-0.8,9.3-2.4c1.9-1.6,2.8-3.7,2.8-6.4  c0-2.1-0.7-3.7-2.1-4.9c-1.4-1.2-3.4-1.7-5.9-1.7c1.8-0.3,3.3-1,4.4-2.3c1.1-1.3,1.7-2.8,1.7-4.7c0-2.1-0.8-3.7-2.3-4.8  c-1.5-1.1-4.2-1.6-8-1.6c-0.6,0-1.1,0-1.6,0c-0.5,0-0.9,0.1-1.2,0.1c-1.4,0.1-2.5,0.2-3.3,0.2h-5.7v2.4l3,0.5V28.5z"/>
<path fill="#231F20" d="M265.4,272.8h8.2v-1.6l-2.7-0.3v-14.8c0.9-0.7,1.9-1.3,3-1.8c1.2-0.5,2.2-0.7,3.2-0.7c1.2,0,2.1,0.2,2.7,0.7  c0.6,0.5,1,1.1,1.2,2.1c0.2,0.9,0.3,2.2,0.3,3.8v10.8l-2.7,0.3v1.6h8.7v-1.6l-2.9-0.3v-10.7c0-1.9-0.1-3.4-0.4-4.6  c0.7-0.5,1.6-1,2.6-1.4c1-0.4,2-0.6,2.9-0.6c1.3,0,2.2,0.2,2.9,0.7c0.7,0.5,1.1,1.2,1.3,2.1c0.2,0.9,0.3,2.2,0.3,3.8v10.7l-2.6,0.3  v1.6h8.5v-1.6l-2.9-0.3v-10.8c0-2.2-0.2-3.9-0.5-5.1c-0.4-1.3-1-2.2-1.8-2.8c-0.9-0.6-2.1-0.9-3.7-0.9c-1.3,0-2.7,0.3-4.2,0.9  c-1.5,0.6-2.7,1.2-3.4,1.9c-0.4-1-1.1-1.7-1.9-2.1c-0.8-0.5-1.9-0.7-3.3-0.7c-1.2,0-2.6,0.3-4.1,1c-1.5,0.7-2.8,1.4-3.7,2.2l0-1  v-1.7l-0.8-0.6l-4.8,0.6v1.7l2.9,0.6v16.7l-2.4,0.3V272.8z M248.1,260.2c0.3-4.8,2.2-7.2,5.7-7.2c1.6,0,2.8,0.5,3.6,1.5  c0.8,1,1.2,2.3,1.2,4c0,0.6,0,1.1-0.1,1.7H248.1z M253.9,273.2c1.4,0,2.8-0.3,4.2-0.8c1.4-0.5,2.5-1.2,3.2-1.9l-0.6-1.4  c-0.6,0.5-1.5,1-2.6,1.4c-1.1,0.4-2.2,0.6-3.3,0.6c-2.2,0-3.9-0.8-5.1-2.5c-1.2-1.7-1.8-3.9-1.8-6.5h13.5c0.2-0.7,0.2-1.8,0.2-3.3  c-0.1-2.4-0.8-4.3-2-5.6c-1.3-1.3-3-1.9-5.3-1.9c-1.9,0-3.5,0.5-5,1.4c-1.5,0.9-2.6,2.2-3.5,3.9c-0.8,1.7-1.3,3.6-1.3,5.7  c0,3.3,0.8,6,2.4,8C248.7,272.2,251,273.2,253.9,273.2z M235.1,270.9l-3.3,0.3v1.6h10v-1.6l-3.6-0.3v-28.8l-0.7-0.5h0l-5.6,0.6v1.4  l3.2,0.3V270.9z M218.7,253.4c1.8,0,3.3,0.7,4.5,2.1c1.2,1.4,1.8,3.5,1.8,6.3c0,3.1-0.7,5.5-2,7.1c-1.3,1.6-3.1,2.4-5.3,2.4  c-1,0-1.9-0.1-2.8-0.4c-0.8-0.2-1.3-0.6-1.5-1v-14.1c0.6-0.6,1.3-1.2,2.2-1.7C216.7,253.7,217.7,253.4,218.7,253.4z M207.1,243.7  l3.3,0.3v27.7c0.3,0.3,1.2,0.6,2.6,1c1.4,0.3,2.9,0.5,4.5,0.5c2.2,0,4.1-0.5,5.7-1.6c1.6-1,2.9-2.5,3.8-4.2c0.9-1.8,1.3-3.8,1.3-6  c0-2.3-0.4-4.3-1.2-5.8c-0.8-1.5-1.8-2.7-3-3.4c-1.3-0.7-2.6-1.1-4.1-1.1c-1.3,0-2.6,0.3-3.7,0.8c-1.1,0.5-2,1.1-2.8,1.9v-11.6  l-0.7-0.5h-0.1l-5.6,0.6V243.7z M195.7,271.3c-2.1,0-3.6-0.9-4.6-2.6c-1-1.7-1.5-4-1.5-6.8c0-2.9,0.5-5,1.6-6.5  c1.1-1.5,2.6-2.2,4.5-2.2c2.1,0,3.6,0.9,4.6,2.6c1,1.8,1.5,4,1.5,6.7c0,2.9-0.5,5-1.6,6.5C199.2,270.5,197.7,271.3,195.7,271.3z   M186.1,262.1c0,3.2,0.8,5.9,2.3,8c1.5,2.1,3.9,3.1,7.1,3.1c1.6,0,3.2-0.4,4.7-1.3c1.5-0.9,2.7-2.2,3.7-3.8c0.9-1.7,1.4-3.6,1.4-5.8  c0-3.2-0.8-5.9-2.3-8c-1.5-2.1-3.9-3.1-7.1-3.1c-1.6,0-3.2,0.4-4.7,1.3c-1.5,0.9-2.7,2.2-3.7,3.8C186.6,258,186.1,259.9,186.1,262.1  z M169,272.8h11.2v-1.6l-5.1-0.3v-14.4c0.9-0.6,1.8-1.2,2.8-1.6c1-0.4,2.2-0.6,3.7-0.6l1.1,0.1l0.7,0.2v-3.3  c-0.4-0.1-0.7-0.2-1.1-0.2c-1.2,0-2.5,0.3-3.7,1c-1.2,0.7-2.2,1.4-2.8,2.1c-0.6,0.7-1,1.1-1,1.2h-0.1l0.1-2.9v-0.6l-0.7-0.6h-0.1  l-4.8,0.6v1.7l2.9,0.6V271l-3,0.2V272.8z M150.9,260v-13.7c0.3,0,0.8,0,1.5-0.1c1-0.1,1.8-0.2,2.6-0.2c2.6,0,4.4,0.5,5.6,1.4  c1.2,1,1.8,2.5,1.8,4.7c0,2.8-0.7,4.8-2.1,6c-1.4,1.2-3.2,1.8-5.4,1.8C152.9,260.1,151.6,260.1,150.9,260z M147.8,270.8l-3.3,0.3  v1.6h11.7v-1.6l-5.3-0.4v-8.9c0.2,0,0.7,0.1,1.5,0.1c0.8,0,1.7,0.1,2.5,0.1c2,0,3.9-0.4,5.5-1.2c1.6-0.8,3-1.9,3.9-3.4  c1-1.5,1.4-3.2,1.4-5.2c0-2.7-0.7-4.7-2.2-6c-1.5-1.3-4-2-7.6-2c-1.2,0-2.5,0.1-3.8,0.2c-0.3,0-0.7,0-1.2,0.1  c-0.5,0-1.1,0.1-1.7,0.1h-4.6v1.6l3,0.4V270.8z"/>
<path fill="#231F20" d="M294.9,475.9c0.3-4.8,2.2-7.2,5.7-7.2c1.6,0,2.8,0.5,3.6,1.5c0.8,1,1.2,2.3,1.2,4c0,0.6,0,1.1-0.1,1.7H294.9  z M300.8,489c1.4,0,2.8-0.3,4.2-0.8c1.4-0.5,2.5-1.2,3.2-1.9l-0.6-1.4c-0.6,0.5-1.5,1-2.6,1.4c-1.1,0.4-2.2,0.6-3.3,0.6  c-2.2,0-3.9-0.8-5.1-2.5c-1.2-1.7-1.8-3.9-1.8-6.5h13.5c0.2-0.7,0.2-1.8,0.2-3.3c-0.1-2.4-0.8-4.3-2-5.6c-1.3-1.3-3-1.9-5.3-1.9  c-1.9,0-3.5,0.5-5,1.4c-1.5,0.9-2.6,2.2-3.5,3.9c-0.8,1.7-1.3,3.6-1.3,5.7c0,3.3,0.8,6,2.4,8C295.6,488,297.9,489,300.8,489z   M275,482.6H273v4.8c0.7,0.4,1.7,0.7,3.1,1.1c1.4,0.4,2.6,0.5,3.7,0.5c2.4,0,4.3-0.5,5.7-1.6c1.4-1.1,2.2-2.6,2.2-4.4  c0-1.2-0.3-2.2-0.9-3c-0.6-0.8-1.3-1.4-2.2-1.9c-0.9-0.5-2.1-1-3.5-1.6l-0.7-0.3c-1-0.4-1.8-0.8-2.3-1.1c-0.6-0.3-1-0.7-1.4-1.3  c-0.4-0.5-0.6-1.2-0.6-2c0-0.9,0.4-1.6,1.1-2.2c0.8-0.5,1.8-0.8,3-0.8c0.9,0,1.7,0.1,2.4,0.3s1.2,0.5,1.4,0.8l0.7,2.8h1.9v-4.5  c-0.9-0.3-1.7-0.6-2.6-0.8c-0.9-0.2-2-0.3-3.3-0.3c-1.3,0-2.5,0.2-3.7,0.7c-1.1,0.4-2,1.1-2.7,1.9c-0.7,0.8-1,1.8-1,2.9  c0,1.7,0.5,3.1,1.4,4.1c0.9,1,2.4,1.9,4.5,2.6c2.1,0.8,3.6,1.5,4.4,2.2c0.9,0.6,1.3,1.5,1.3,2.5c0,2.3-1.5,3.4-4.6,3.4  c-1,0-2-0.2-2.9-0.5c-0.9-0.3-1.5-0.7-1.8-1.1L275,482.6z M255.1,475.9c0.3-4.8,2.2-7.2,5.7-7.2c1.6,0,2.8,0.5,3.6,1.5  c0.8,1,1.2,2.3,1.2,4c0,0.6,0,1.1-0.1,1.7H255.1z M261,489c1.4,0,2.8-0.3,4.2-0.8c1.4-0.5,2.5-1.2,3.2-1.9l-0.6-1.4  c-0.6,0.5-1.5,1-2.6,1.4c-1.1,0.4-2.2,0.6-3.3,0.6c-2.2,0-3.9-0.8-5.1-2.5c-1.2-1.7-1.8-3.9-1.8-6.5h13.5c0.2-0.7,0.2-1.8,0.2-3.3  c-0.1-2.4-0.8-4.3-2-5.6c-1.3-1.3-3-1.9-5.3-1.9c-1.9,0-3.5,0.5-5,1.4c-1.5,0.9-2.6,2.2-3.5,3.9c-0.8,1.7-1.3,3.6-1.3,5.7  c0,3.3,0.8,6,2.4,8C255.8,488,258,489,261,489z M242.7,489c1,0,2.2-0.2,3.5-0.6c1.3-0.4,2.3-0.9,2.9-1.3l-0.5-1.4  c-0.5,0.2-1.1,0.4-2.1,0.6c-0.9,0.2-1.7,0.3-2.5,0.3c-0.8,0-1.3-0.1-1.6-0.3c-0.3-0.2-0.5-0.6-0.6-1.2c-0.1-0.6-0.2-1.6-0.2-3.1  v-12.3h6.7v-2.2h-6.7V462h-1.8c-0.1,0.6-0.3,1.3-0.6,2.3c-0.3,1-0.5,1.7-0.6,2.1c-0.2,0.6-0.5,1-0.8,1.2c-0.2,0.1-0.9,0.3-2.2,0.6  v1.5h2.9v15c0,1.6,0.3,2.7,1,3.3C240.3,488.7,241.3,489,242.7,489z M222.9,487c-2.1,0-3.6-0.9-4.6-2.6c-1-1.7-1.5-4-1.5-6.8  c0-2.9,0.5-5,1.6-6.5c1.1-1.5,2.6-2.2,4.5-2.2c2.1,0,3.6,0.9,4.6,2.6c1,1.8,1.5,4,1.5,6.7c0,2.9-0.5,5-1.6,6.5  C226.3,486.2,224.8,487,222.9,487z M213.3,477.9c0,3.2,0.8,5.9,2.3,8c1.5,2.1,3.9,3.1,7.1,3.1c1.6,0,3.2-0.4,4.7-1.3  c1.5-0.9,2.7-2.2,3.7-3.8c0.9-1.7,1.4-3.6,1.4-5.8c0-3.2-0.8-5.9-2.3-8c-1.5-2.1-3.9-3.1-7.1-3.1c-1.6,0-3.2,0.4-4.7,1.3  c-1.5,0.9-2.7,2.2-3.7,3.8C213.7,473.7,213.3,475.6,213.3,477.9z M200,469.2c1.8,0,3.3,0.7,4.5,2.1c1.2,1.4,1.8,3.5,1.8,6.3  c0,3.1-0.7,5.5-2,7.1c-1.3,1.6-3.1,2.4-5.3,2.4c-1,0-1.9-0.1-2.7-0.4c-0.8-0.3-1.3-0.6-1.5-0.9v-14.5c0.5-0.6,1.3-1.1,2.2-1.5  C197.9,469.4,198.9,469.2,200,469.2z M209.6,477.2c0-2.3-0.4-4.3-1.2-5.8c-0.8-1.5-1.8-2.7-3.1-3.4c-1.3-0.7-2.6-1.1-4.1-1.1  c-1.4,0-2.8,0.3-3.9,0.9c-1.2,0.6-2.2,1.3-3,2.2v-2.3l-0.7-0.6h-0.1l-4.9,0.6v1.7l3,0.6v25.8l-2.9,0.4v1.7H199v-1.7l-4.2-0.4v-4.1  l-0.1-3.2c0.5,0.2,1.2,0.3,1.9,0.4c0.8,0.1,1.5,0.2,2.2,0.2c2.1,0,4-0.5,5.6-1.6c1.6-1,2.9-2.5,3.8-4.2  C209.2,481.4,209.6,479.4,209.6,477.2z M170.2,498c1.4,0,2.6-0.3,3.5-1c0.9-0.6,1.8-1.6,2.4-2.8c0.7-1.2,1.5-2.9,2.4-5.2  c0.3-0.7,1-2.7,2.1-6c1.1-3.3,2.6-7.8,4.5-13.7l2-0.5v-1.6h-7.3v1.6l2.7,0.5l-3.6,11.6l-1.9,6.2l-2-6.2l-4-11.6l3.1-0.5v-1.6h-8.4  v1.6l1.8,0.5l7.3,19.1h1.7c-0.7,1.9-1.3,3.3-2,4.2c-0.7,1-1.4,1.6-2,1.9c-0.6,0.3-1.4,0.5-2.2,0.5c-1,0-1.6-0.1-1.9-0.2v2.8l0.8,0.2  L170.2,498z M139.4,486.6l-3.2,0.3v1.6h9.7v-1.6l-3.3-0.3V475h14.5v11.5l-3.2,0.3v1.6h9.5v-1.6l-3.1-0.3v-24.2l3.1-0.4v-1.6h-9.4  v1.6l3.2,0.4V473h-14.5v-10.7l3.3-0.4v-1.6h-9.6v1.6l3.1,0.4V486.6z"/>
<path fill="#231F20" d="M355,698.8l-2.5,0.3v1.6h8.4v-1.6l-2.8-0.3V684c0.9-0.7,1.9-1.3,3.1-1.8c1.2-0.5,2.3-0.8,3.3-0.8  c1.2,0,2.1,0.2,2.7,0.7c0.6,0.5,1,1.2,1.3,2.1c0.2,0.9,0.3,2.2,0.3,3.8v10.8l-2.5,0.3v1.6h8.5v-1.6l-2.9-0.3v-10.8  c0-2.2-0.2-3.9-0.5-5.2c-0.3-1.3-1-2.2-1.8-2.9c-0.9-0.6-2.1-0.9-3.7-0.9c-1.3,0-2.8,0.3-4.3,1c-1.5,0.7-2.8,1.4-3.7,2.2l0-1v-1.7  l-0.7-0.6h-0.1l-4.8,0.6v1.7l2.9,0.6V698.8z M335.2,688.1c0.3-4.8,2.2-7.2,5.7-7.2c1.6,0,2.8,0.5,3.6,1.5c0.8,1,1.2,2.3,1.2,4  c0,0.6,0,1.1-0.1,1.7H335.2z M341.1,701.2c1.4,0,2.8-0.3,4.2-0.8c1.4-0.5,2.5-1.2,3.2-1.9l-0.6-1.4c-0.6,0.5-1.5,1-2.6,1.4  c-1.1,0.4-2.2,0.6-3.3,0.6c-2.2,0-3.9-0.8-5.1-2.5c-1.2-1.7-1.8-3.9-1.8-6.5h13.5c0.2-0.7,0.2-1.8,0.2-3.3c-0.1-2.4-0.8-4.3-2-5.6  c-1.3-1.3-3-1.9-5.3-1.9c-1.9,0-3.5,0.5-5,1.4c-1.5,0.9-2.6,2.2-3.5,3.9c-0.8,1.7-1.3,3.6-1.3,5.7c0,3.3,0.8,6,2.4,8  C335.9,700.1,338.1,701.2,341.1,701.2z M315.3,694.8h-2.1v4.8c0.7,0.4,1.7,0.7,3.1,1.1c1.4,0.4,2.6,0.5,3.7,0.5  c2.4,0,4.3-0.5,5.7-1.6c1.4-1.1,2.2-2.6,2.2-4.4c0-1.2-0.3-2.2-0.9-3c-0.6-0.8-1.3-1.4-2.2-1.9c-0.9-0.5-2.1-1-3.5-1.6l-0.7-0.3  c-1-0.4-1.8-0.8-2.3-1.1c-0.6-0.3-1-0.7-1.4-1.3c-0.4-0.5-0.6-1.2-0.6-2c0-0.9,0.4-1.6,1.1-2.2c0.8-0.5,1.8-0.8,3-0.8  c0.9,0,1.7,0.1,2.4,0.3c0.7,0.2,1.2,0.5,1.4,0.8l0.7,2.8h1.9v-4.5c-0.9-0.3-1.7-0.6-2.6-0.8c-0.9-0.2-2-0.3-3.3-0.3  c-1.3,0-2.5,0.2-3.7,0.7c-1.1,0.4-2,1.1-2.7,1.9c-0.7,0.8-1,1.8-1,2.9c0,1.7,0.5,3.1,1.4,4.1c0.9,1,2.4,1.9,4.5,2.6  c2.1,0.8,3.6,1.5,4.4,2.2c0.9,0.6,1.3,1.5,1.3,2.5c0,2.3-1.5,3.4-4.6,3.4c-1,0-2-0.2-2.9-0.5c-0.9-0.3-1.5-0.7-1.8-1.1L315.3,694.8z   M295.4,688.1c0.3-4.8,2.2-7.2,5.7-7.2c1.6,0,2.8,0.5,3.6,1.5c0.8,1,1.2,2.3,1.2,4c0,0.6,0,1.1-0.1,1.7H295.4z M301.3,701.2  c1.4,0,2.8-0.3,4.2-0.8c1.4-0.5,2.5-1.2,3.2-1.9l-0.6-1.4c-0.6,0.5-1.5,1-2.6,1.4c-1.1,0.4-2.2,0.6-3.3,0.6c-2.2,0-3.9-0.8-5.1-2.5  c-1.2-1.7-1.8-3.9-1.8-6.5h13.5c0.2-0.7,0.2-1.8,0.2-3.3c-0.1-2.4-0.8-4.3-2-5.6c-1.3-1.3-3-1.9-5.3-1.9c-1.9,0-3.5,0.5-5,1.4  c-1.5,0.9-2.6,2.2-3.5,3.9c-0.8,1.7-1.3,3.6-1.3,5.7c0,3.3,0.8,6,2.4,8C296.1,700.1,298.3,701.2,301.3,701.2z M283,701.2  c1,0,2.2-0.2,3.5-0.6c1.3-0.4,2.3-0.9,2.9-1.3l-0.5-1.4c-0.5,0.2-1.1,0.4-2.1,0.6c-0.9,0.2-1.7,0.3-2.5,0.3c-0.8,0-1.3-0.1-1.6-0.3  c-0.3-0.2-0.5-0.6-0.6-1.2c-0.1-0.6-0.2-1.6-0.2-3.1v-12.3h6.7v-2.2H282v-5.4h-1.8c-0.1,0.6-0.3,1.3-0.6,2.3c-0.3,1-0.5,1.7-0.6,2.1  c-0.2,0.6-0.5,1-0.8,1.2c-0.2,0.1-0.9,0.3-2.2,0.6v1.5h2.9v15c0,1.6,0.3,2.7,1,3.3C280.6,700.8,281.6,701.2,283,701.2z M263.2,699.2  c-2.1,0-3.6-0.9-4.6-2.6c-1-1.7-1.5-4-1.5-6.8c0-2.9,0.5-5,1.6-6.5c1.1-1.5,2.6-2.2,4.5-2.2c2.1,0,3.6,0.9,4.6,2.6s1.5,4,1.5,6.7  c0,2.9-0.5,5-1.6,6.5C266.6,698.4,265.1,699.2,263.2,699.2z M253.6,690c0,3.2,0.8,5.9,2.3,8c1.5,2.1,3.9,3.1,7.1,3.1  c1.6,0,3.2-0.4,4.7-1.3c1.5-0.9,2.7-2.2,3.7-3.8c0.9-1.7,1.4-3.6,1.4-5.8c0-3.2-0.8-5.9-2.3-8c-1.5-2.1-3.9-3.1-7.1-3.1  c-1.6,0-3.2,0.4-4.7,1.3c-1.5,0.9-2.7,2.2-3.7,3.8C254,685.9,253.6,687.8,253.6,690z M240.3,681.4c1.8,0,3.3,0.7,4.5,2.1  c1.2,1.4,1.8,3.5,1.8,6.3c0,3.1-0.7,5.5-2,7.1c-1.3,1.6-3.1,2.4-5.3,2.4c-1,0-1.9-0.1-2.7-0.4c-0.8-0.3-1.3-0.6-1.5-0.9v-14.5  c0.5-0.6,1.3-1.1,2.2-1.5C238.2,681.6,239.2,681.4,240.3,681.4z M249.9,689.4c0-2.3-0.4-4.3-1.2-5.8c-0.8-1.5-1.8-2.7-3.1-3.4  c-1.3-0.7-2.6-1.1-4.1-1.1c-1.4,0-2.8,0.3-3.9,0.9c-1.2,0.6-2.2,1.3-3,2.2v-2.3l-0.7-0.6h-0.1l-4.9,0.6v1.7l3,0.6v25.8l-2.9,0.4v1.7  h10.2v-1.7l-4.2-0.4v-4.1l-0.1-3.2c0.5,0.2,1.2,0.3,1.9,0.4c0.8,0.1,1.5,0.2,2.2,0.2c2.1,0,4-0.5,5.6-1.6c1.6-1,2.9-2.5,3.8-4.2  C249.5,693.6,249.9,691.6,249.9,689.4z M210.5,710.2c1.4,0,2.6-0.3,3.5-1c0.9-0.6,1.8-1.6,2.4-2.8c0.7-1.2,1.5-2.9,2.4-5.2  c0.3-0.7,1-2.7,2.1-6c1.1-3.3,2.6-7.8,4.5-13.7l2-0.5v-1.6h-7.3v1.6l2.7,0.5l-3.6,11.6l-1.9,6.2l-2-6.2l-4-11.6l3.1-0.5v-1.6H206  v1.6l1.8,0.5l7.3,19.1h1.7c-0.7,1.9-1.3,3.3-2,4.2c-0.7,1-1.4,1.6-2,1.9c-0.6,0.3-1.4,0.5-2.1,0.5c-1,0-1.6-0.1-1.9-0.2v2.8l0.8,0.2  L210.5,710.2z M184.9,698.8l-2.4,0.3v1.6h8.3v-1.6l-2.8-0.3V684c0.9-0.7,1.9-1.3,3.1-1.8c1.2-0.5,2.3-0.7,3.3-0.7  c1.2,0,2.1,0.2,2.8,0.7c0.6,0.5,1.1,1.1,1.3,2.1c0.2,0.9,0.3,2.2,0.3,3.8v10.8l-2.7,0.3v1.6h8.5v-1.6l-2.8-0.3v-10.7  c0-2.2-0.2-3.9-0.5-5.2c-0.4-1.3-1-2.2-1.9-2.8c-0.9-0.6-2.1-0.9-3.7-0.9c-1.4,0-2.9,0.3-4.3,1c-1.5,0.7-2.6,1.4-3.4,2.1l0.1-3.2  v-9.1l-0.7-0.5h-0.1l-5.6,0.6v1.4l3.4,0.3V698.8z M156.1,688.1c0.3-4.8,2.2-7.2,5.7-7.2c1.6,0,2.8,0.5,3.6,1.5c0.8,1,1.2,2.3,1.2,4  c0,0.6,0,1.1-0.1,1.7H156.1z M162,701.2c1.4,0,2.8-0.3,4.2-0.8c1.4-0.5,2.5-1.2,3.2-1.9l-0.6-1.4c-0.6,0.5-1.5,1-2.6,1.4  c-1.1,0.4-2.2,0.6-3.3,0.6c-2.2,0-3.9-0.8-5.1-2.5c-1.2-1.7-1.8-3.9-1.8-6.5h13.5c0.2-0.7,0.2-1.8,0.2-3.3c-0.1-2.4-0.8-4.3-2-5.6  c-1.3-1.3-3-1.9-5.3-1.9c-1.9,0-3.5,0.5-5,1.4c-1.5,0.9-2.6,2.2-3.5,3.9c-0.8,1.7-1.3,3.6-1.3,5.7c0,3.3,0.8,6,2.4,8  C156.8,700.1,159,701.2,162,701.2z M143.7,701.2c1,0,2.2-0.2,3.5-0.6c1.3-0.4,2.3-0.9,2.9-1.3l-0.5-1.4c-0.5,0.2-1.1,0.4-2.1,0.6  c-0.9,0.2-1.7,0.3-2.5,0.3c-0.8,0-1.3-0.1-1.6-0.3c-0.3-0.2-0.5-0.6-0.6-1.2c-0.1-0.6-0.2-1.6-0.2-3.1v-12.3h6.7v-2.2h-6.7v-5.4  h-1.8c-0.1,0.6-0.3,1.3-0.6,2.3c-0.3,1-0.5,1.7-0.6,2.1c-0.2,0.6-0.5,1-0.8,1.2c-0.2,0.1-0.9,0.3-2.2,0.6v1.5h2.9v15  c0,1.6,0.3,2.7,1,3.3C141.3,700.8,142.3,701.2,143.7,701.2z M120.6,694.8h-2.1v4.8c0.7,0.4,1.7,0.7,3.1,1.1c1.4,0.4,2.6,0.5,3.7,0.5  c2.4,0,4.3-0.5,5.7-1.6c1.4-1.1,2.2-2.6,2.2-4.4c0-1.2-0.3-2.2-0.9-3c-0.6-0.8-1.3-1.4-2.2-1.9c-0.9-0.5-2.1-1-3.5-1.6l-0.7-0.3  c-1-0.4-1.8-0.8-2.3-1.1c-0.6-0.3-1-0.7-1.4-1.3c-0.4-0.5-0.6-1.2-0.6-2c0-0.9,0.4-1.6,1.1-2.2c0.8-0.5,1.8-0.8,3-0.8  c0.9,0,1.7,0.1,2.4,0.3c0.7,0.2,1.2,0.5,1.4,0.8l0.7,2.8h1.9v-4.5c-0.9-0.3-1.7-0.6-2.6-0.8c-0.9-0.2-2-0.3-3.3-0.3  c-1.3,0-2.5,0.2-3.7,0.7c-1.1,0.4-2,1.1-2.7,1.9c-0.7,0.8-1,1.8-1,2.9c0,1.7,0.5,3.1,1.4,4.1c0.9,1,2.4,1.9,4.5,2.6  c2.1,0.8,3.6,1.5,4.4,2.2c0.9,0.6,1.3,1.5,1.3,2.5c0,2.3-1.5,3.4-4.6,3.4c-1,0-2-0.2-2.9-0.5c-0.9-0.3-1.5-0.7-1.8-1.1L120.6,694.8z   M100.7,688.1c0.3-4.8,2.2-7.2,5.7-7.2c1.6,0,2.8,0.5,3.6,1.5c0.8,1,1.2,2.3,1.2,4c0,0.6,0,1.1-0.1,1.7H100.7z M106.5,701.2  c1.4,0,2.8-0.3,4.2-0.8c1.4-0.5,2.5-1.2,3.2-1.9l-0.6-1.4c-0.6,0.5-1.5,1-2.6,1.4c-1.1,0.4-2.2,0.6-3.3,0.6c-2.2,0-3.9-0.8-5.1-2.5  c-1.2-1.7-1.8-3.9-1.8-6.5h13.5c0.2-0.7,0.2-1.8,0.2-3.3c-0.1-2.4-0.8-4.3-2-5.6c-1.3-1.3-3-1.9-5.3-1.9c-1.9,0-3.5,0.5-5,1.4  c-1.5,0.9-2.6,2.2-3.5,3.9c-0.8,1.7-1.3,3.6-1.3,5.7c0,3.3,0.8,6,2.4,8C101.3,700.1,103.6,701.2,106.5,701.2z M80.8,698.8l-5,0.3  v1.6h13.7v-1.6l-5.4-0.3v-24.6l7.3,0.2l1.1,7.7h2l-0.4-9.7H70.9l-0.6,9.7h2.1l1.2-7.7l7.2-0.2V698.8z"/>
<path fill="#231F20" d="M347,746.8c1,0,2.2-0.2,3.5-0.6c1.3-0.4,2.3-0.9,2.9-1.3l-0.5-1.4c-0.5,0.2-1.1,0.4-2.1,0.6  c-0.9,0.2-1.7,0.3-2.5,0.3c-0.8,0-1.3-0.1-1.6-0.3c-0.3-0.2-0.5-0.6-0.6-1.2c-0.1-0.6-0.2-1.6-0.2-3.1v-12.3h6.7v-2.2H346v-5.4h-1.8  c-0.1,0.6-0.3,1.3-0.6,2.3c-0.3,1-0.5,1.7-0.6,2.1c-0.2,0.6-0.5,1-0.8,1.2c-0.2,0.1-0.9,0.3-2.2,0.6v1.5h2.9v15c0,1.6,0.3,2.7,1,3.3  C344.6,746.5,345.6,746.8,347,746.8z M330.8,744.5l-3.3,0.3v1.6h10v-1.6l-3.6-0.3v-28.8l-0.7-0.5h0l-5.6,0.6v1.4l3.2,0.3V744.5z   M310.3,733.8c0.3-4.8,2.2-7.2,5.7-7.2c1.6,0,2.8,0.5,3.6,1.5c0.8,1,1.2,2.3,1.2,4c0,0.6,0,1.1-0.1,1.7H310.3z M316.2,746.8  c1.4,0,2.8-0.3,4.2-0.8c1.4-0.5,2.5-1.2,3.2-1.9l-0.6-1.4c-0.6,0.5-1.5,1-2.6,1.4c-1.1,0.4-2.2,0.6-3.3,0.6c-2.2,0-3.9-0.8-5.1-2.5  c-1.2-1.7-1.8-3.9-1.8-6.5h13.5c0.2-0.7,0.2-1.8,0.2-3.3c-0.1-2.4-0.8-4.3-2-5.6c-1.3-1.3-3-1.9-5.3-1.9c-1.9,0-3.5,0.5-5,1.4  c-1.5,0.9-2.6,2.2-3.5,3.9c-0.8,1.7-1.3,3.6-1.3,5.7c0,3.3,0.8,6,2.4,8C311,745.8,313.2,746.8,316.2,746.8z M297.9,746.8  c1,0,2.2-0.2,3.5-0.6c1.3-0.4,2.3-0.9,2.9-1.3l-0.5-1.4c-0.5,0.2-1.1,0.4-2.1,0.6c-0.9,0.2-1.7,0.3-2.5,0.3c-0.8,0-1.3-0.1-1.6-0.3  c-0.3-0.2-0.5-0.6-0.6-1.2c-0.1-0.6-0.2-1.6-0.2-3.1v-12.3h6.7v-2.2h-6.7v-5.4h-1.8c-0.1,0.6-0.3,1.3-0.6,2.3  c-0.3,1-0.5,1.7-0.6,2.1c-0.2,0.6-0.5,1-0.8,1.2c-0.2,0.1-0.9,0.3-2.2,0.6v1.5h2.9v15c0,1.6,0.3,2.7,1,3.3  C295.5,746.5,296.5,746.8,297.9,746.8z M268.6,744.5l-2.5,0.3v1.6h8.4v-1.6l-2.8-0.3v-14.8c0.9-0.7,1.9-1.3,3.1-1.8  c1.2-0.5,2.3-0.8,3.3-0.8c1.2,0,2.1,0.2,2.7,0.7c0.6,0.5,1,1.2,1.3,2.1c0.2,0.9,0.3,2.2,0.3,3.8v10.8l-2.5,0.3v1.6h8.5v-1.6  l-2.9-0.3v-10.8c0-2.2-0.2-3.9-0.5-5.2c-0.3-1.3-1-2.2-1.8-2.9c-0.9-0.6-2.1-0.9-3.7-0.9c-1.3,0-2.8,0.3-4.3,1  c-1.5,0.7-2.8,1.4-3.7,2.2l0-1v-1.7l-0.7-0.6h-0.1l-4.8,0.6v1.7l2.9,0.6V744.5z M248.9,733.8c0.3-4.8,2.2-7.2,5.7-7.2  c1.6,0,2.8,0.5,3.6,1.5c0.8,1,1.2,2.3,1.2,4c0,0.6,0,1.1-0.1,1.7H248.9z M254.7,746.8c1.4,0,2.8-0.3,4.2-0.8  c1.4-0.5,2.5-1.2,3.2-1.9l-0.6-1.4c-0.6,0.5-1.5,1-2.6,1.4c-1.1,0.4-2.2,0.6-3.3,0.6c-2.2,0-3.9-0.8-5.1-2.5  c-1.2-1.7-1.8-3.9-1.8-6.5h13.5c0.2-0.7,0.2-1.8,0.2-3.3c-0.1-2.4-0.8-4.3-2-5.6c-1.3-1.3-3-1.9-5.3-1.9c-1.9,0-3.5,0.5-5,1.4  c-1.5,0.9-2.6,2.2-3.5,3.9c-0.8,1.7-1.3,3.6-1.3,5.7c0,3.3,0.8,6,2.4,8C249.5,745.8,251.8,746.8,254.7,746.8z M207.8,746.4h8.2v-1.6  l-2.7-0.3v-14.8c0.9-0.7,1.9-1.3,3-1.8c1.2-0.5,2.2-0.7,3.2-0.7c1.2,0,2.1,0.2,2.7,0.7c0.6,0.5,1,1.1,1.2,2.1  c0.2,0.9,0.3,2.2,0.3,3.8v10.8l-2.7,0.3v1.6h8.7v-1.6l-2.9-0.3v-10.7c0-1.9-0.1-3.4-0.4-4.6c0.7-0.5,1.6-1,2.6-1.4  c1-0.4,2-0.6,2.9-0.6c1.3,0,2.2,0.2,2.9,0.7c0.7,0.5,1.1,1.2,1.3,2.1c0.2,0.9,0.3,2.2,0.3,3.8v10.7l-2.6,0.3v1.6h8.5v-1.6l-2.9-0.3  v-10.8c0-2.2-0.2-3.9-0.5-5.1c-0.4-1.3-1-2.2-1.8-2.8c-0.9-0.6-2.1-0.9-3.7-0.9c-1.3,0-2.7,0.3-4.2,0.9c-1.5,0.6-2.7,1.2-3.4,1.9  c-0.4-1-1.1-1.7-1.9-2.1c-0.8-0.5-1.9-0.7-3.3-0.7c-1.2,0-2.6,0.3-4.1,1c-1.5,0.7-2.8,1.4-3.7,2.2l0-1v-1.7l-0.8-0.6l-4.8,0.6v1.7  l2.9,0.6v16.7l-2.4,0.3V746.4z M198.6,744.5l-3.3,0.3v1.6h9.7v-1.6l-3.3-0.3v-19.1l-0.8-0.6h-0.1l-5.2,0.6v1.7l3,0.6V744.5z   M199.8,721.3L199.8,721.3c0.8,0,1.4-0.2,1.8-0.7c0.4-0.4,0.6-1.1,0.6-1.8c0-0.6-0.2-1.1-0.5-1.5c-0.3-0.4-0.9-0.6-1.6-0.6  c-0.7,0-1.3,0.2-1.8,0.7c-0.4,0.5-0.6,1.1-0.6,1.8C197.7,720.6,198.4,721.3,199.8,721.3z M178.2,746.4h11.2v-1.6l-5.1-0.3v-14.4  c0.9-0.6,1.8-1.2,2.8-1.6c1-0.4,2.2-0.6,3.7-0.6l1.1,0.1l0.7,0.2v-3.3c-0.4-0.1-0.7-0.2-1.1-0.2c-1.2,0-2.5,0.3-3.7,1  c-1.2,0.7-2.2,1.4-2.8,2.1c-0.6,0.7-1,1.1-1,1.2h-0.1l0.1-2.9v-0.6l-0.7-0.6h-0.1l-4.8,0.6v1.7l2.9,0.6v16.8l-3,0.2V746.4z   M160.7,733.8c0.3-4.8,2.2-7.2,5.7-7.2c1.6,0,2.8,0.5,3.6,1.5c0.8,1,1.2,2.3,1.2,4c0,0.6,0,1.1-0.1,1.7H160.7z M166.5,746.8  c1.4,0,2.8-0.3,4.2-0.8c1.4-0.5,2.5-1.2,3.2-1.9l-0.6-1.4c-0.6,0.5-1.5,1-2.6,1.4c-1.1,0.4-2.2,0.6-3.3,0.6c-2.2,0-3.9-0.8-5.1-2.5  c-1.2-1.7-1.8-3.9-1.8-6.5h13.5c0.2-0.7,0.2-1.8,0.2-3.3c-0.1-2.4-0.8-4.3-2-5.6c-1.3-1.3-3-1.9-5.3-1.9c-1.9,0-3.5,0.5-5,1.4  c-1.5,0.9-2.6,2.2-3.5,3.9c-0.8,1.7-1.3,3.6-1.3,5.7c0,3.3,0.8,6,2.4,8C161.3,745.8,163.6,746.8,166.5,746.8z M144,727  c1.8,0,3.3,0.7,4.5,2.1c1.2,1.4,1.8,3.5,1.8,6.3c0,3.1-0.7,5.5-2,7.1c-1.3,1.6-3.1,2.4-5.3,2.4c-1,0-1.9-0.1-2.7-0.4  c-0.8-0.3-1.3-0.6-1.5-0.9v-14.5c0.5-0.6,1.3-1.1,2.2-1.5C141.9,727.3,143,727,144,727z M153.6,735.1c0-2.3-0.4-4.3-1.2-5.8  c-0.8-1.5-1.8-2.7-3.1-3.4c-1.3-0.7-2.6-1.1-4.1-1.1c-1.4,0-2.8,0.3-3.9,0.9c-1.2,0.6-2.2,1.3-3,2.2v-2.3l-0.7-0.6h-0.1l-4.9,0.6  v1.7l3,0.6v25.8l-2.9,0.4v1.7H143v-1.7l-4.2-0.4v-4.1l-0.1-3.2c0.5,0.2,1.2,0.3,1.9,0.4c0.8,0.1,1.5,0.2,2.2,0.2  c2.1,0,4-0.5,5.6-1.6c1.6-1,2.9-2.5,3.8-4.2C153.2,739.2,153.6,737.2,153.6,735.1z M116.8,740.4h-2.1v4.8c0.7,0.4,1.7,0.7,3.1,1.1  c1.4,0.4,2.6,0.5,3.7,0.5c2.4,0,4.3-0.5,5.7-1.6c1.4-1.1,2.2-2.6,2.2-4.4c0-1.2-0.3-2.2-0.9-3c-0.6-0.8-1.3-1.4-2.2-1.9  c-0.9-0.5-2.1-1-3.5-1.6l-0.7-0.3c-1-0.4-1.8-0.8-2.3-1.1c-0.6-0.3-1-0.7-1.4-1.3c-0.4-0.5-0.6-1.2-0.6-2c0-0.9,0.4-1.6,1.1-2.2  c0.8-0.5,1.8-0.8,3-0.8c0.9,0,1.7,0.1,2.4,0.3c0.7,0.2,1.2,0.5,1.4,0.8l0.7,2.8h1.9V726c-0.9-0.3-1.7-0.6-2.6-0.8  c-0.9-0.2-2-0.3-3.3-0.3c-1.3,0-2.5,0.2-3.7,0.7c-1.1,0.4-2,1.1-2.7,1.9c-0.7,0.8-1,1.8-1,2.9c0,1.7,0.5,3.1,1.4,4.1  c0.9,1,2.4,1.9,4.5,2.6c2.1,0.8,3.6,1.5,4.4,2.2c0.9,0.6,1.3,1.5,1.3,2.5c0,2.3-1.5,3.4-4.6,3.4c-1,0-2-0.2-2.9-0.5  c-0.9-0.3-1.5-0.7-1.8-1.1L116.8,740.4z M94.2,744.5l-2.5,0.3v1.6h8.5v-1.6l-2.9-0.3v-3.2l-0.1-1.9l4.3-4.2l6,9.4l-2.6,0.3v1.6h8.7  v-1.6l-2.5-0.3l-7.6-11.1l6.2-6.1l2.9-0.5v-1.5h-8.8v1.5l2.9,0.5l-9.4,9.7l0.1-2.4v-18.9l-0.7-0.5h0l-5.4,0.6v1.4l3.1,0.3V744.5z   M74.6,733.8c0.3-4.8,2.2-7.2,5.7-7.2c1.6,0,2.8,0.5,3.6,1.5c0.8,1,1.2,2.3,1.2,4c0,0.6,0,1.1-0.1,1.7H74.6z M80.5,746.8  c1.4,0,2.8-0.3,4.2-0.8c1.4-0.5,2.5-1.2,3.2-1.9l-0.6-1.4c-0.6,0.5-1.5,1-2.6,1.4c-1.1,0.4-2.2,0.6-3.3,0.6c-2.2,0-3.9-0.8-5.1-2.5  c-1.2-1.7-1.8-3.9-1.8-6.5h13.5c0.2-0.7,0.2-1.8,0.2-3.3c-0.1-2.4-0.8-4.3-2-5.6c-1.3-1.3-3-1.9-5.3-1.9c-1.9,0-3.5,0.5-5,1.4  c-1.5,0.9-2.6,2.2-3.5,3.9c-0.8,1.7-1.3,3.6-1.3,5.7c0,3.3,0.8,6,2.4,8C75.3,745.8,77.6,746.8,80.5,746.8z"/>
<path fill="#231F20" d="M152.2,926.3c1,0,2.2-0.2,3.5-0.6c1.3-0.4,2.3-0.9,2.9-1.3l-0.5-1.4c-0.5,0.2-1.1,0.4-2.1,0.6  c-0.9,0.2-1.7,0.3-2.5,0.3c-0.8,0-1.3-0.1-1.6-0.3c-0.3-0.2-0.5-0.6-0.6-1.2c-0.1-0.6-0.2-1.6-0.2-3.1V907h6.7v-2.2h-6.7v-5.4h-1.8  c-0.1,0.6-0.3,1.3-0.6,2.3c-0.3,1-0.5,1.7-0.6,2.1c-0.2,0.6-0.5,1-0.8,1.2c-0.2,0.1-0.9,0.3-2.2,0.6v1.5h2.9v15c0,1.6,0.3,2.7,1,3.3  C149.8,926,150.8,926.3,152.2,926.3z M128.2,913.3c0.3-4.8,2.2-7.2,5.7-7.2c1.6,0,2.8,0.5,3.6,1.5c0.8,1,1.2,2.3,1.2,4  c0,0.6,0,1.1-0.1,1.7H128.2z M134.1,926.3c1.4,0,2.8-0.3,4.2-0.8s2.5-1.2,3.2-1.9l-0.6-1.4c-0.6,0.5-1.5,1-2.6,1.4  c-1.1,0.4-2.2,0.6-3.3,0.6c-2.2,0-3.9-0.8-5.1-2.5c-1.2-1.7-1.8-3.9-1.8-6.5h13.5c0.2-0.7,0.2-1.8,0.2-3.3c-0.1-2.4-0.8-4.3-2-5.6  c-1.3-1.3-3-1.9-5.3-1.9c-1.9,0-3.5,0.5-5,1.4c-1.5,0.9-2.6,2.2-3.5,3.9c-0.8,1.7-1.3,3.6-1.3,5.7c0,3.3,0.8,6,2.4,8  C128.9,925.3,131.1,926.3,134.1,926.3z M104.7,924l-2.5,0.3v1.6h8.5v-1.6l-2.9-0.3v-3.2l-0.1-1.9l4.3-4.2l6,9.4l-2.6,0.3v1.6h8.7  v-1.6l-2.5-0.3l-7.6-11.1l6.2-6.1l2.9-0.5v-1.5h-8.8v1.5l2.9,0.5l-9.4,9.7l0.1-2.4v-18.9l-0.7-0.5h0l-5.4,0.6v1.4l3.1,0.3V924z   M85.4,925.9h11.2v-1.6l-5.1-0.3v-14.4c0.9-0.6,1.8-1.2,2.8-1.6c1-0.4,2.2-0.6,3.7-0.6l1.1,0.1l0.7,0.2v-3.3  c-0.4-0.1-0.7-0.2-1.1-0.2c-1.2,0-2.5,0.3-3.7,1c-1.2,0.7-2.2,1.4-2.8,2.1c-0.6,0.7-1,1.1-1,1.2H91l0.1-2.9v-0.6l-0.7-0.6h-0.1  l-4.8,0.6v1.7l2.9,0.6v16.8l-3,0.2V925.9z M66.1,935.4c1.4,0,2.6-0.3,3.5-1c0.9-0.6,1.8-1.6,2.4-2.8c0.7-1.2,1.5-2.9,2.4-5.2  c0.3-0.7,1-2.7,2.1-6c1.1-3.3,2.6-7.8,4.5-13.7l2-0.5v-1.6h-7.3v1.6l2.7,0.5l-3.6,11.6l-1.9,6.2l-2-6.2l-4-11.6l3.1-0.5v-1.6h-8.4  v1.6l1.8,0.5l7.3,19.1h1.7c-0.7,1.9-1.3,3.3-2,4.2c-0.7,1-1.4,1.6-2,1.9c-0.6,0.3-1.4,0.5-2.1,0.5c-1,0-1.6-0.1-1.9-0.2v2.8l0.8,0.2  L66.1,935.4z M54.2,926.3c1,0,2.2-0.2,3.5-0.6c1.3-0.4,2.3-0.9,2.9-1.3l-0.5-1.4c-0.5,0.2-1.1,0.4-2.1,0.6c-0.9,0.2-1.7,0.3-2.5,0.3  c-0.8,0-1.3-0.1-1.6-0.3c-0.3-0.2-0.5-0.6-0.6-1.2c-0.1-0.6-0.2-1.6-0.2-3.1V907h6.7v-2.2h-6.7v-5.4h-1.8c-0.1,0.6-0.3,1.3-0.6,2.3  c-0.3,1-0.5,1.7-0.6,2.1c-0.2,0.6-0.5,1-0.8,1.2c-0.2,0.1-0.9,0.3-2.2,0.6v1.5h2.9v15c0,1.6,0.3,2.7,1,3.3  C51.8,926,52.9,926.3,54.2,926.3z M34.2,926.3c2,0,3.8-0.4,5.3-1.1c1.5-0.8,2.6-1.8,3.4-3c0.8-1.2,1.2-2.5,1.2-3.9  c0-1.4-0.4-2.6-1.2-3.6c-0.8-1-1.7-1.8-2.7-2.4c-1-0.6-2.5-1.4-4.3-2.2c-1.8-0.8-3-1.5-3.9-1.9c-0.8-0.5-1.5-1.1-2.1-1.8  c-0.5-0.7-0.8-1.6-0.8-2.6c0-1.5,0.5-2.7,1.5-3.4c1-0.8,2.4-1.2,4.3-1.2c1,0,1.9,0.1,2.8,0.4c0.9,0.2,1.5,0.5,1.8,0.7l0.7,4.7h1.9  l0.2-6.2c-0.1,0-0.5-0.1-1.2-0.3c-1.3-0.4-2.3-0.6-3.1-0.8c-0.8-0.2-1.8-0.2-2.8-0.2c-1.8,0-3.3,0.3-4.7,0.9  c-1.4,0.6-2.4,1.4-3.2,2.5c-0.8,1.1-1.1,2.3-1.1,3.7c0,1.5,0.4,2.8,1.2,3.9c0.8,1.1,1.7,1.9,2.8,2.6c1.1,0.6,2.3,1.3,3.8,1.9  c1.6,0.7,2.8,1.3,3.7,1.8c0.9,0.5,1.6,1.1,2.2,1.9c0.6,0.7,0.9,1.6,0.9,2.7c0,1.6-0.5,2.9-1.6,3.9c-1.1,0.9-2.7,1.4-4.7,1.4  c-1.2,0-2.4-0.2-3.4-0.5c-1.1-0.3-1.8-0.7-2.3-1.2l-0.6-5h-2l-0.3,6.8c0.2,0,0.7,0.2,1.6,0.5c1.3,0.4,2.4,0.7,3.4,1  C31.8,926.2,32.9,926.3,34.2,926.3z"/>
<path fill="#231F20" d="M177.6,959c0.3-4.8,2.2-7.2,5.7-7.2c1.6,0,2.8,0.5,3.6,1.5c0.8,1,1.2,2.3,1.2,4c0,0.6,0,1.1-0.1,1.7H177.6z   M183.5,972c1.4,0,2.8-0.3,4.2-0.8c1.4-0.5,2.5-1.2,3.2-1.9l-0.6-1.4c-0.6,0.5-1.5,1-2.6,1.4c-1.1,0.4-2.2,0.6-3.3,0.6  c-2.2,0-3.9-0.8-5.1-2.5c-1.2-1.7-1.8-3.9-1.8-6.5h13.5c0.2-0.7,0.2-1.8,0.2-3.3c-0.1-2.4-0.8-4.3-2-5.6c-1.3-1.3-3-1.9-5.3-1.9  c-1.9,0-3.5,0.5-5,1.4c-1.5,0.9-2.6,2.2-3.5,3.9c-0.8,1.7-1.3,3.6-1.3,5.7c0,3.3,0.8,6,2.4,8C178.3,971,180.5,972,183.5,972z   M157.7,965.6h-2.1v4.8c0.7,0.4,1.7,0.7,3.1,1.1c1.4,0.4,2.6,0.5,3.7,0.5c2.4,0,4.3-0.5,5.7-1.6c1.4-1.1,2.2-2.6,2.2-4.4  c0-1.2-0.3-2.2-0.9-3c-0.6-0.8-1.3-1.4-2.2-1.9c-0.9-0.5-2.1-1-3.5-1.6l-0.7-0.3c-1-0.4-1.8-0.8-2.3-1.1c-0.6-0.3-1-0.7-1.4-1.3  c-0.4-0.5-0.6-1.2-0.6-2c0-0.9,0.4-1.6,1.1-2.2c0.8-0.5,1.8-0.8,3-0.8c0.9,0,1.7,0.1,2.4,0.3c0.7,0.2,1.2,0.5,1.4,0.8l0.7,2.8h1.9  v-4.5c-0.9-0.3-1.7-0.6-2.6-0.8c-0.9-0.2-2-0.3-3.3-0.3c-1.3,0-2.5,0.2-3.7,0.7c-1.1,0.4-2,1.1-2.7,1.9c-0.7,0.8-1,1.8-1,2.9  c0,1.7,0.5,3.1,1.4,4.1c0.9,1,2.4,1.9,4.5,2.6c2.1,0.8,3.6,1.5,4.4,2.2c0.9,0.6,1.3,1.5,1.3,2.5c0,2.3-1.5,3.4-4.6,3.4  c-1,0-2-0.2-2.9-0.5c-0.9-0.3-1.5-0.7-1.8-1.1L157.7,965.6z M137.8,959c0.3-4.8,2.2-7.2,5.7-7.2c1.6,0,2.8,0.5,3.6,1.5  c0.8,1,1.2,2.3,1.2,4c0,0.6,0,1.1-0.1,1.7H137.8z M143.7,972c1.4,0,2.8-0.3,4.2-0.8c1.4-0.5,2.5-1.2,3.2-1.9l-0.6-1.4  c-0.6,0.5-1.5,1-2.6,1.4c-1.1,0.4-2.2,0.6-3.3,0.6c-2.2,0-3.9-0.8-5.1-2.5c-1.2-1.7-1.8-3.9-1.8-6.5h13.5c0.2-0.7,0.2-1.8,0.2-3.3  c-0.1-2.4-0.8-4.3-2-5.6c-1.3-1.3-3-1.9-5.3-1.9c-1.9,0-3.5,0.5-5,1.4c-1.5,0.9-2.6,2.2-3.5,3.9c-0.8,1.7-1.3,3.6-1.3,5.7  c0,3.3,0.8,6,2.4,8C138.5,971,140.7,972,143.7,972z M125.4,972c1,0,2.2-0.2,3.5-0.6c1.3-0.4,2.3-0.9,2.9-1.3l-0.5-1.4  c-0.5,0.2-1.1,0.4-2.1,0.6c-0.9,0.2-1.7,0.3-2.5,0.3c-0.8,0-1.3-0.1-1.6-0.3c-0.3-0.2-0.5-0.6-0.6-1.2c-0.1-0.6-0.2-1.6-0.2-3.1  v-12.3h6.7v-2.2h-6.7V945h-1.8c-0.1,0.6-0.3,1.3-0.6,2.3c-0.3,1-0.5,1.7-0.6,2.1c-0.2,0.6-0.5,1-0.8,1.2c-0.2,0.1-0.9,0.3-2.2,0.6  v1.5h2.9v15c0,1.6,0.3,2.7,1,3.3C123,971.7,124,972,125.4,972z M105.5,970c-2.1,0-3.6-0.9-4.6-2.6c-1-1.7-1.5-4-1.5-6.8  c0-2.9,0.5-5,1.6-6.5c1.1-1.5,2.6-2.2,4.5-2.2c2.1,0,3.6,0.9,4.6,2.6c1,1.8,1.5,4,1.5,6.7c0,2.9-0.5,5-1.6,6.5  C109,969.3,107.5,970,105.5,970z M95.9,960.9c0,3.2,0.8,5.9,2.3,8c1.5,2.1,3.9,3.1,7.1,3.1c1.6,0,3.2-0.4,4.7-1.3  c1.5-0.9,2.7-2.2,3.7-3.8c0.9-1.7,1.4-3.6,1.4-5.8c0-3.2-0.8-5.9-2.3-8c-1.5-2.1-3.9-3.1-7.1-3.1c-1.6,0-3.2,0.4-4.7,1.3  c-1.5,0.9-2.7,2.2-3.7,3.8C96.4,956.7,95.9,958.7,95.9,960.9z M82.7,952.2c1.8,0,3.3,0.7,4.5,2.1c1.2,1.4,1.8,3.5,1.8,6.3  c0,3.1-0.7,5.5-2,7.1c-1.3,1.6-3.1,2.4-5.3,2.4c-1,0-1.9-0.1-2.7-0.4c-0.8-0.3-1.3-0.6-1.5-0.9v-14.5c0.5-0.6,1.3-1.1,2.2-1.5  C80.6,952.4,81.6,952.2,82.7,952.2z M92.3,960.2c0-2.3-0.4-4.3-1.2-5.8c-0.8-1.5-1.8-2.7-3.1-3.4c-1.3-0.7-2.6-1.1-4.1-1.1  c-1.4,0-2.8,0.3-3.9,0.9c-1.2,0.6-2.2,1.3-3,2.2v-2.3l-0.7-0.6h-0.1l-4.9,0.6v1.7l3,0.6v25.8l-2.9,0.4v1.7h10.2v-1.7l-4.2-0.4v-4.1  l-0.1-3.2c0.5,0.2,1.2,0.3,1.9,0.4c0.8,0.1,1.5,0.2,2.2,0.2c2.1,0,4-0.5,5.6-1.6c1.6-1,2.9-2.5,3.8-4.2  C91.8,964.4,92.3,962.4,92.3,960.2z M52.9,981c1.4,0,2.6-0.3,3.5-1c0.9-0.6,1.8-1.6,2.4-2.8c0.7-1.2,1.5-2.9,2.4-5.2  c0.3-0.7,1-2.7,2.1-6c1.1-3.3,2.6-7.8,4.5-13.7l2-0.5v-1.6h-7.3v1.6l2.7,0.5l-3.6,11.6l-1.9,6.2l-2-6.2l-4-11.6l3.1-0.5v-1.6h-8.4  v1.6l1.8,0.5l7.3,19.1h1.7c-0.7,1.9-1.3,3.3-2,4.2c-0.7,1-1.4,1.6-2,1.9c-0.6,0.3-1.4,0.5-2.2,0.5c-1,0-1.6-0.1-1.9-0.2v2.8l0.8,0.2  L52.9,981z M27.3,969.7l-2.4,0.3v1.6h8.3v-1.6l-2.8-0.3v-14.8c0.9-0.7,1.9-1.3,3.1-1.8c1.2-0.5,2.3-0.7,3.3-0.7  c1.2,0,2.1,0.2,2.8,0.7c0.6,0.5,1.1,1.1,1.3,2.1c0.2,0.9,0.3,2.2,0.3,3.8v10.8l-2.7,0.3v1.6h8.5v-1.6l-2.8-0.3v-10.7  c0-2.2-0.2-3.9-0.5-5.2c-0.4-1.3-1-2.2-1.9-2.8c-0.9-0.6-2.1-0.9-3.7-0.9c-1.4,0-2.9,0.3-4.3,1c-1.5,0.7-2.6,1.4-3.4,2.1l0.1-3.2  v-9.1l-0.7-0.5h-0.1l-5.6,0.6v1.4l3.4,0.3V969.7z"/>
<path fill="#231F20" d="M427.2,926.9c1,0,2.2-0.2,3.5-0.6c1.3-0.4,2.3-0.9,2.9-1.3l-0.5-1.4c-0.5,0.2-1.1,0.4-2.1,0.6  c-0.9,0.2-1.7,0.3-2.5,0.3c-0.8,0-1.3-0.1-1.6-0.3c-0.3-0.2-0.5-0.6-0.6-1.2c-0.1-0.6-0.2-1.6-0.2-3.1v-12.3h6.7v-2.2h-6.7v-5.4  h-1.8c-0.1,0.6-0.3,1.3-0.6,2.3c-0.3,1-0.5,1.7-0.6,2.1c-0.2,0.6-0.5,1-0.8,1.2c-0.2,0.1-0.9,0.3-2.2,0.6v1.5h2.9v15  c0,1.6,0.3,2.7,1,3.3C424.8,926.5,425.8,926.9,427.2,926.9z M403.4,926.4h11.2v-1.6l-5.1-0.3v-14.4c0.9-0.6,1.8-1.2,2.8-1.6  c1-0.4,2.2-0.6,3.7-0.6l1.1,0.1l0.7,0.2v-3.3c-0.4-0.1-0.7-0.2-1.1-0.2c-1.2,0-2.5,0.3-3.7,1c-1.2,0.7-2.2,1.4-2.8,2.1  c-0.6,0.7-1,1.1-1,1.2h-0.1l0.1-2.9v-0.6l-0.7-0.6h-0.1l-4.8,0.6v1.7l2.9,0.6v16.8l-3,0.2V926.4z M385.9,913.8  c0.3-4.8,2.2-7.2,5.7-7.2c1.6,0,2.8,0.5,3.6,1.5c0.8,1,1.2,2.3,1.2,4c0,0.6,0,1.1-0.1,1.7H385.9z M391.8,926.9  c1.4,0,2.8-0.3,4.2-0.8c1.4-0.5,2.5-1.2,3.2-1.9l-0.6-1.4c-0.6,0.5-1.5,1-2.6,1.4c-1.1,0.4-2.2,0.6-3.3,0.6c-2.2,0-3.9-0.8-5.1-2.5  c-1.2-1.7-1.8-3.9-1.8-6.5h13.5c0.2-0.7,0.2-1.8,0.2-3.3c-0.1-2.4-0.8-4.3-2-5.6c-1.3-1.3-3-1.9-5.3-1.9c-1.9,0-3.5,0.5-5,1.4  c-1.5,0.9-2.6,2.2-3.5,3.9c-0.8,1.7-1.3,3.6-1.3,5.7c0,3.3,0.8,6,2.4,8C386.6,925.8,388.8,926.9,391.8,926.9z M366,920.5H364v4.8  c0.7,0.4,1.7,0.7,3.1,1.1c1.4,0.4,2.6,0.5,3.7,0.5c2.4,0,4.3-0.5,5.7-1.6c1.4-1.1,2.1-2.6,2.1-4.4c0-1.2-0.3-2.2-0.9-3  c-0.6-0.8-1.3-1.4-2.2-1.9c-0.9-0.5-2.1-1-3.5-1.6l-0.7-0.3c-1-0.4-1.8-0.8-2.3-1.1c-0.6-0.3-1-0.7-1.4-1.3c-0.4-0.5-0.6-1.2-0.6-2  c0-0.9,0.4-1.6,1.1-2.2c0.8-0.5,1.8-0.8,3-0.8c0.9,0,1.7,0.1,2.4,0.3c0.7,0.2,1.2,0.5,1.4,0.8l0.7,2.8h1.9V906  c-0.9-0.3-1.7-0.6-2.6-0.8c-0.9-0.2-2-0.3-3.3-0.3c-1.3,0-2.5,0.2-3.7,0.7c-1.1,0.4-2,1.1-2.7,1.9c-0.7,0.8-1,1.8-1,2.9  c0,1.7,0.5,3.1,1.4,4.1c0.9,1,2.4,1.9,4.5,2.6c2.1,0.8,3.6,1.5,4.4,2.2c0.9,0.6,1.3,1.5,1.3,2.5c0,2.3-1.5,3.4-4.6,3.4  c-1,0-2-0.2-2.9-0.5c-0.9-0.3-1.5-0.7-1.8-1.1L366,920.5z M354.2,924.5l-3.3,0.3v1.6h9.7v-1.6l-3.3-0.3v-19.1l-0.8-0.6h-0.1  l-5.2,0.6v1.7l3,0.6V924.5z M355.4,901.3L355.4,901.3c0.8,0,1.4-0.2,1.8-0.7c0.4-0.4,0.6-1.1,0.6-1.8c0-0.6-0.2-1.1-0.5-1.5  c-0.3-0.4-0.9-0.6-1.6-0.6c-0.7,0-1.3,0.2-1.8,0.7c-0.4,0.5-0.6,1.1-0.6,1.8C353.3,900.6,354,901.3,355.4,901.3z M339.2,924.5  l-3.3,0.3v1.6h10.8v-1.6l-4.3-0.3v-16.9h5.5v-2.2h-5.5v-2.9c0-1.7,0.3-2.9,0.9-3.6c0.6-0.7,1.6-1.1,2.9-1.1c0.8,0,1.5,0.1,2.1,0.2  c0.6,0.2,1,0.3,1.2,0.5v-3.1c-0.6-0.2-1.3-0.3-2.1-0.3c-1.4,0-2.7,0.4-3.9,1.1c-1.3,0.8-2.3,1.8-3.1,3.1c-0.8,1.3-1.2,2.7-1.2,4.2  v1.9l-3.8,0.7v1.5h3.8V924.5z M326.6,924.5l-3.3,0.3v1.6h9.7v-1.6l-3.3-0.3v-19.1l-0.8-0.6h-0.1l-5.2,0.6v1.7l3,0.6V924.5z   M327.9,901.3L327.9,901.3c0.8,0,1.4-0.2,1.8-0.7c0.4-0.4,0.6-1.1,0.6-1.8c0-0.6-0.2-1.1-0.5-1.5c-0.3-0.4-0.9-0.6-1.6-0.6  c-0.7,0-1.3,0.2-1.8,0.7c-0.4,0.5-0.6,1.1-0.6,1.8C325.8,900.6,326.5,901.3,327.9,901.3z M306.9,920.5h-2.1v4.8  c0.7,0.4,1.7,0.7,3.1,1.1c1.4,0.4,2.6,0.5,3.7,0.5c2.4,0,4.3-0.5,5.7-1.6c1.4-1.1,2.1-2.6,2.1-4.4c0-1.2-0.3-2.2-0.9-3  c-0.6-0.8-1.3-1.4-2.2-1.9c-0.9-0.5-2.1-1-3.5-1.6l-0.7-0.3c-1-0.4-1.8-0.8-2.3-1.1c-0.6-0.3-1-0.7-1.4-1.3c-0.4-0.5-0.6-1.2-0.6-2  c0-0.9,0.4-1.6,1.1-2.2c0.8-0.5,1.8-0.8,3-0.8c0.9,0,1.7,0.1,2.4,0.3c0.7,0.2,1.2,0.5,1.4,0.8l0.7,2.8h1.9V906  c-0.9-0.3-1.7-0.6-2.6-0.8c-0.9-0.2-2-0.3-3.3-0.3c-1.3,0-2.5,0.2-3.7,0.7c-1.1,0.4-2,1.1-2.7,1.9c-0.7,0.8-1,1.8-1,2.9  c0,1.7,0.5,3.1,1.4,4.1c0.9,1,2.4,1.9,4.5,2.6c2.1,0.8,3.6,1.5,4.4,2.2c0.9,0.6,1.3,1.5,1.3,2.5c0,2.3-1.5,3.4-4.6,3.4  c-1,0-2-0.2-2.9-0.5c-0.9-0.3-1.5-0.7-1.8-1.1L306.9,920.5z M294.7,924.5l-3.3,0.3v1.6h10v-1.6l-3.6-0.3v-28.8l-0.7-0.5h0l-5.6,0.6  v1.4l3.2,0.3V924.5z M278,924.6c-1.3,0-2.3-0.3-3-1c-0.7-0.6-1.1-1.7-1.1-3.1c0-1.5,0.8-2.7,2.4-3.6c1.6-0.9,3.9-1.3,7-1.4v6.7  c-0.8,0.6-1.7,1.2-2.7,1.6S278.7,924.6,278,924.6z M270.5,920.9c0,2,0.6,3.4,1.8,4.5c1.2,1,2.7,1.5,4.5,1.5c1.4,0,2.6-0.3,3.7-0.9  c1.1-0.6,2.1-1.3,3-2.2v1.4c0,0.7,0.1,1.1,0.3,1.3c0.2,0.2,0.6,0.3,1.3,0.3c1,0,2.1-0.2,3.5-0.6v-1.4h-2.4v-12.6  c0-1.8-0.2-3.2-0.7-4.3c-0.4-1.1-1.2-1.8-2.2-2.3c-1-0.5-2.4-0.7-4.1-0.7c-1.1,0-2.2,0.2-3.3,0.5c-1.1,0.4-2.2,0.8-3,1.2  c-0.9,0.5-1.5,0.8-1.8,1.1l0.8,1.7c1-0.6,2-1,3.1-1.4c1.1-0.4,2.2-0.6,3.5-0.6c1.2,0,2.1,0.2,2.8,0.5c0.7,0.3,1.1,0.9,1.4,1.6  c0.3,0.7,0.4,1.8,0.4,3.1v1.2c-3.6,0.1-6.7,0.7-9.1,1.8C271.7,916.6,270.5,918.4,270.5,920.9z M250,924.5l-3.1,0.3v1.6h12.2v-1.6  l-6-0.3V913l7.6,0.2l0.6,3.2h1.8V908h-1.8l-0.6,3.1l-7.6,0.1v-11.3l10.7,0.2l1,4.3h2.1l-0.4-6.2h-19.9v1.6l3.3,0.4V924.5z"/>
<path fill="#231F20" d="M399.1,959.5c0.3-4.8,2.2-7.2,5.7-7.2c1.6,0,2.8,0.5,3.6,1.5c0.8,1,1.2,2.3,1.2,4c0,0.6,0,1.1-0.1,1.7H399.1  z M405,972.5c1.4,0,2.8-0.3,4.2-0.8s2.5-1.2,3.2-1.9l-0.6-1.4c-0.6,0.5-1.5,1-2.6,1.4c-1.1,0.4-2.2,0.6-3.3,0.6  c-2.2,0-3.9-0.8-5.1-2.5c-1.2-1.7-1.8-3.9-1.8-6.5h13.5c0.2-0.7,0.2-1.8,0.2-3.3c-0.1-2.4-0.8-4.3-2-5.6c-1.3-1.3-3-1.9-5.3-1.9  c-1.9,0-3.5,0.5-5,1.4c-1.5,0.9-2.6,2.2-3.5,3.9c-0.8,1.7-1.3,3.6-1.3,5.7c0,3.3,0.8,6,2.4,8C399.8,971.5,402,972.5,405,972.5z   M379.2,966.1h-2.1v4.8c0.7,0.4,1.7,0.7,3.1,1.1c1.4,0.4,2.6,0.5,3.7,0.5c2.4,0,4.3-0.5,5.7-1.6c1.4-1.1,2.1-2.6,2.1-4.4  c0-1.2-0.3-2.2-0.9-3c-0.6-0.8-1.3-1.4-2.2-1.9c-0.9-0.5-2.1-1-3.5-1.6l-0.7-0.3c-1-0.4-1.8-0.8-2.3-1.1c-0.6-0.3-1-0.7-1.4-1.3  c-0.4-0.5-0.6-1.2-0.6-2c0-0.9,0.4-1.6,1.1-2.2c0.8-0.5,1.8-0.8,3-0.8c0.9,0,1.7,0.1,2.4,0.3c0.7,0.2,1.2,0.5,1.4,0.8l0.7,2.8h1.9  v-4.5c-0.9-0.3-1.7-0.6-2.6-0.8c-0.9-0.2-2-0.3-3.3-0.3c-1.3,0-2.5,0.2-3.7,0.7c-1.1,0.4-2,1.1-2.7,1.9c-0.7,0.8-1,1.8-1,2.9  c0,1.7,0.5,3.1,1.4,4.1c0.9,1,2.4,1.9,4.5,2.6c2.1,0.8,3.6,1.5,4.4,2.2c0.9,0.6,1.3,1.5,1.3,2.5c0,2.3-1.5,3.4-4.6,3.4  c-1,0-2-0.2-2.9-0.5c-0.9-0.3-1.5-0.7-1.8-1.1L379.2,966.1z M359.3,959.5c0.3-4.8,2.2-7.2,5.7-7.2c1.6,0,2.8,0.5,3.6,1.5  c0.8,1,1.2,2.3,1.2,4c0,0.6,0,1.1-0.1,1.7H359.3z M365.2,972.5c1.4,0,2.8-0.3,4.2-0.8s2.5-1.2,3.2-1.9l-0.6-1.4  c-0.6,0.5-1.5,1-2.6,1.4c-1.1,0.4-2.2,0.6-3.3,0.6c-2.2,0-3.9-0.8-5.1-2.5c-1.2-1.7-1.8-3.9-1.8-6.5h13.5c0.2-0.7,0.2-1.8,0.2-3.3  c-0.1-2.4-0.8-4.3-2-5.6c-1.3-1.3-3-1.9-5.3-1.9c-1.9,0-3.5,0.5-5,1.4c-1.5,0.9-2.6,2.2-3.5,3.9c-0.8,1.7-1.3,3.6-1.3,5.7  c0,3.3,0.8,6,2.4,8C360,971.5,362.2,972.5,365.2,972.5z M346.9,972.5c1,0,2.2-0.2,3.5-0.6c1.3-0.4,2.3-0.9,2.9-1.3l-0.5-1.4  c-0.5,0.2-1.1,0.4-2.1,0.6c-0.9,0.2-1.7,0.3-2.5,0.3c-0.8,0-1.3-0.1-1.6-0.3c-0.3-0.2-0.5-0.6-0.6-1.2c-0.1-0.6-0.2-1.6-0.2-3.1  v-12.3h6.7V951h-6.7v-5.4h-1.8c-0.1,0.6-0.3,1.3-0.6,2.3c-0.3,1-0.5,1.7-0.6,2.1c-0.2,0.6-0.5,1-0.8,1.2c-0.2,0.1-0.9,0.3-2.2,0.6  v1.5h2.9v15c0,1.6,0.3,2.7,1,3.3C344.5,972.2,345.5,972.5,346.9,972.5z M327.1,970.5c-2.1,0-3.6-0.9-4.6-2.6c-1-1.7-1.5-4-1.5-6.8  c0-2.9,0.5-5,1.6-6.5c1.1-1.5,2.6-2.2,4.5-2.2c2.1,0,3.6,0.9,4.6,2.6c1,1.8,1.5,4,1.5,6.7c0,2.9-0.5,5-1.6,6.5  C330.5,969.8,329,970.5,327.1,970.5z M317.5,961.4c0,3.2,0.8,5.9,2.3,8c1.5,2.1,3.9,3.1,7.1,3.1c1.6,0,3.2-0.4,4.7-1.3  c1.5-0.9,2.7-2.2,3.7-3.8c0.9-1.7,1.4-3.6,1.4-5.8c0-3.2-0.8-5.9-2.3-8c-1.5-2.1-3.9-3.1-7.1-3.1c-1.6,0-3.2,0.4-4.7,1.3  c-1.5,0.9-2.7,2.2-3.7,3.8C317.9,957.3,317.5,959.2,317.5,961.4z M304.2,952.7c1.8,0,3.3,0.7,4.5,2.1c1.2,1.4,1.8,3.5,1.8,6.3  c0,3.1-0.7,5.5-2,7.1c-1.3,1.6-3.1,2.4-5.3,2.4c-1,0-1.9-0.1-2.7-0.4c-0.8-0.3-1.3-0.6-1.5-0.9v-14.5c0.5-0.6,1.3-1.1,2.2-1.5  C302.1,953,303.1,952.7,304.2,952.7z M313.8,960.8c0-2.3-0.4-4.3-1.2-5.8c-0.8-1.5-1.8-2.7-3.1-3.4c-1.3-0.7-2.6-1.1-4.1-1.1  c-1.4,0-2.8,0.3-3.9,0.9c-1.2,0.6-2.2,1.3-3,2.2v-2.3l-0.7-0.6h-0.1l-4.9,0.6v1.7l3,0.6v25.8l-2.9,0.4v1.7h10.2v-1.7l-4.2-0.4v-4.1  l-0.1-3.2c0.5,0.2,1.2,0.3,1.9,0.4c0.8,0.1,1.5,0.2,2.2,0.2c2.1,0,4-0.5,5.6-1.6c1.6-1,2.9-2.5,3.8-4.2  C313.4,964.9,313.8,962.9,313.8,960.8z M274.4,981.6c1.4,0,2.6-0.3,3.5-1c0.9-0.6,1.8-1.6,2.4-2.8c0.7-1.2,1.5-2.9,2.4-5.2  c0.3-0.7,1-2.7,2.1-6c1.1-3.3,2.6-7.8,4.5-13.7l2-0.5V951H284v1.6l2.7,0.5l-3.6,11.6l-1.9,6.2l-2-6.2l-4-11.6l3.1-0.5V951h-8.4v1.6  l1.8,0.5l7.3,19.1h1.7c-0.7,1.9-1.3,3.3-2,4.2c-0.7,1-1.4,1.6-2,1.9c-0.6,0.3-1.4,0.5-2.2,0.5c-1,0-1.6-0.1-1.9-0.2v2.8l0.8,0.2  L274.4,981.6z M248.8,970.2l-2.4,0.3v1.6h8.3v-1.6l-2.8-0.3v-14.8c0.9-0.7,1.9-1.3,3.1-1.8c1.2-0.5,2.3-0.7,3.3-0.7  c1.2,0,2.1,0.2,2.8,0.7c0.6,0.5,1.1,1.1,1.3,2.1c0.2,0.9,0.3,2.2,0.3,3.8v10.8l-2.7,0.3v1.6h8.5v-1.6l-2.8-0.3v-10.7  c0-2.2-0.2-3.9-0.5-5.2c-0.4-1.3-1-2.2-1.9-2.8c-0.9-0.6-2.1-0.9-3.7-0.9c-1.4,0-2.9,0.3-4.3,1c-1.5,0.7-2.6,1.4-3.4,2.1l0.1-3.2  v-9.1l-0.7-0.5H251l-5.6,0.6v1.4l3.4,0.3V970.2z"/>
<g>
</g>
<g>
</g>
<g>
</g>
<g>
</g>
<g>
</g>
<g>
</g>
</svg>