<?xml version="1.0" encoding="UTF-8"?>
<!-- Generator: Adobe Illustrator 25.0.0, SVG Export Plug-In . SVG Version: 6.00 Build 0)  -->
<svg version="1.1" id="Layer_1" xmlns="http://www.w3.org/2000/svg" xmlns:xlink="http://www.w3.org/1999/xlink" x="0px" y="0px" viewBox="0 0 1201.7 1000" enable-background="new 0 0 1201.7 1000" xml:space="preserve">
<path d="M212.7,38.1c5.9,0,9.8-3,9.8-7.8c0-5.4-5-7.1-8.8-8.4c-3.1-1.1-5.6-1.9-5.6-4.3c0-2,1.8-3.5,4.5-3.5c2.9,0,4.7,1.6,4.7,3.6  v0.4l0.5,0.4h3.8l0.5-0.5v-0.1c0-4.6-3.7-7.8-9.6-7.8c-5.6,0-9.4,2.9-9.4,7.8c0,5.4,4.7,7.2,8.5,8.4c3,1,5.6,1.8,5.6,4.3  c0,2-1.8,3.6-4.5,3.6c-2.9,0-4.9-1.7-4.9-3.6v-0.4l-0.5-0.4h-3.9l-0.5,0.5v0.5C202.9,35,206.8,38.1,212.7,38.1z M189.3,9.9  c-2.4,0-4.6,0.8-6.2,2.6l-0.3-0.1v-1.7l-0.5-0.5h-4.1l-0.5,0.5v26.4l0.5,0.5h4.1l0.5-0.5V19.9c0-3.3,1.9-5.4,4.9-5.4  c2.9,0,4.7,2.1,4.7,5.4v17.4l0.5,0.5h4.1l0.5-0.5V19C197.6,13.4,194.5,9.9,189.3,9.9z M160.6,33.8c-2.4,0-4.4-1.2-4.4-4  c0-3.1,2.4-4.6,5.9-4.6h4.2l0.2,0.2v3.5C166.4,31.9,163.6,33.8,160.6,33.8z M161.7,9.9c-5.4,0-9.4,3.1-9.8,7.5l0.5,0.5l4.4,0.3  l0.6-0.5c0.3-2,1.9-3.3,4.4-3.3c3,0,4.7,1.9,4.7,5v1.5l-0.2,0.2h-4.6c-6.4,0-10.7,2.9-10.7,9c0,6.3,4.4,8.1,8.4,8.1  c2.8,0,5.2-0.9,6.9-2.6l0.3,0.1v1.6l0.5,0.5h4.1l0.5-0.5V18.9C171.6,13.6,167.7,9.9,161.7,9.9z M140.6,29.9  c-0.6,2.3-2.1,3.8-4.5,3.8c-2.4,0-3.7-1.5-4.3-3.7c-0.5-1.6-0.6-3.7-0.6-6s0.2-4.4,0.7-6c0.6-2.2,1.9-3.6,4.2-3.6  c2.3,0,3.7,1.4,4.4,3.5c0.6,1.7,0.8,3.7,0.8,6.2C141.3,26.3,141.1,28.3,140.6,29.9z M146,18c-1-5.3-3.9-8.1-8.7-8.1  c-2.7,0-4.6,0.9-5.8,2.8l-0.3-0.1v-12L130.6,0h-4.1L126,0.5v36.7l0.5,0.5h4.1l0.5-0.5v-1.8l0.3-0.1c1.3,1.9,3.3,2.9,6,2.9  c4.5,0,7.2-2.6,8.4-7.9c0.5-2.1,0.6-4.1,0.6-6.2C146.5,22.1,146.4,19.9,146,18z M118.9,10c-2.8,0-4.6,1.6-5.8,3.9l-0.2-0.1v-3  l-0.5-0.5h-4.1l-0.5,0.5v26.4l0.5,0.5h4.1l0.5-0.5V21.5c0-3.3,2.1-5.8,4.9-6c1.1-0.2,2.1,0,2.7,0.3l0.6-0.3l0.8-4.1l-0.3-0.7  C121,10.3,120.1,10,118.9,10z M91.2,33.7c-2.8,0-4.7-1.8-5.1-4.5c-0.2-1.5-0.3-3.3-0.3-5.2s0.1-3.7,0.3-5.1c0.4-2.8,2.4-4.5,5.1-4.5  s4.6,1.8,5.1,4.5c0.2,1.5,0.3,3.3,0.3,5.1c0,1.8-0.1,3.7-0.3,5.2C95.7,31.9,93.8,33.7,91.2,33.7z M91.2,38.2c5.4,0,9.2-3.1,10-8.1  c0.3-1.8,0.5-4.2,0.5-6.2s-0.2-4.3-0.5-6c-0.9-4.9-4.6-8-10-8c-5.6,0-9.4,3.2-10.2,8.1c-0.3,1.7-0.4,4-0.4,6c0,2,0.2,4.4,0.5,6.1  C81.9,35.1,85.7,38.2,91.2,38.2z M66.4,38.1c5.9,0,9.8-3,9.8-7.8c0-5.4-5-7.1-8.8-8.4c-3.1-1.1-5.6-1.9-5.6-4.3c0-2,1.8-3.5,4.5-3.5  c2.9,0,4.7,1.6,4.7,3.6v0.4l0.5,0.4h3.8l0.5-0.5v-0.1c0-4.6-3.7-7.8-9.6-7.8c-5.6,0-9.4,2.9-9.4,7.8c0,5.4,4.7,7.2,8.5,8.4  c3,1,5.6,1.8,5.6,4.3c0,2-1.8,3.6-4.5,3.6c-2.9,0-4.9-1.7-4.9-3.6v-0.4L61,29.7h-3.9l-0.5,0.5v0.5C56.6,35,60.4,38.1,66.4,38.1z   M46,29.9c-0.6,2.3-2.1,3.8-4.5,3.8c-2.4,0-3.7-1.5-4.3-3.7c-0.5-1.6-0.6-3.7-0.6-6s0.2-4.4,0.7-6c0.6-2.2,1.9-3.6,4.2-3.6  c2.3,0,3.7,1.4,4.4,3.5c0.6,1.7,0.8,3.7,0.8,6.2C46.6,26.3,46.5,28.3,46,29.9z M51.3,18c-1-5.3-3.9-8.1-8.7-8.1  c-2.7,0-4.6,0.9-5.8,2.8l-0.3-0.1v-12L35.9,0h-4.1l-0.5,0.5v36.7l0.5,0.5h4.1l0.5-0.5v-1.8l0.3-0.1c1.3,1.9,3.3,2.9,6,2.9  c4.5,0,7.2-2.6,8.4-7.9c0.5-2.1,0.6-4.1,0.6-6.2C51.9,22.1,51.7,19.9,51.3,18z M8,26.5l5-19.4h0.2l4.9,19.4L18,26.8H8.3L8,26.5z   M21.5,37.8h4.3l0.5-0.6l-10-36.7L15.6,0h-5.1L10,0.5L0,37.2l0.5,0.6h4.2l0.6-0.5L6.9,31l0.3-0.2h11.9l0.3,0.2l1.6,6.3L21.5,37.8z"/>
<g>
	<path d="M1190.6,889.6l4,30.9c1,7.6,2.7,9,5.5,9c0.6,0,1.2-0.1,1.6-0.2l-1.5,6.4c-0.9,0.3-2,0.4-3.1,0.4c-5.9,0-8.7-2-9.9-12.2   l-3.1-25.8h-0.2l-14.8,21.3l-11.3,16.2h-9.4l33.2-46.9c-1.2-9.8-3.4-12.7-8.8-12.7c-1.8,0-3.2,0.3-4.5,0.7l1.6-6.5   c1.5-0.6,3.1-0.8,5.2-0.8C1183.8,869.4,1188.6,874.1,1190.6,889.6"/>
	<polygon points="94.7,65.9 78.1,94.6 111.3,94.6  "/>
	<polygon points="94.7,65.9 96.8,67.1 82.3,92.1 107,92.1 92.5,67.1 94.7,65.9 96.8,67.1 94.7,65.9 96.8,64.6 115.5,97.1 73.8,97.1    94.7,61 96.8,64.6  "/>
	<path d="M93.4,905.4h1018.4c1.4,0,2.5,1.1,2.5,2.5s-1.1,2.5-2.5,2.5H93.4c-1.4,0-2.5-1.1-2.5-2.5S92,905.4,93.4,905.4"/>
	<path d="M92.1,907.9l0-811.7c0-1.4,1.1-2.5,2.5-2.5s2.5,1.1,2.5,2.5l0,811.7c0,1.4-1.1,2.5-2.5,2.5   C93.2,910.3,92.1,909.2,92.1,907.9"/>
	<polygon points="1133.2,907.6 1104.5,891 1104.5,924.2  "/>
	<polygon points="1133.2,907.6 1132,909.7 1106.9,895.3 1106.9,919.9 1132,905.5 1133.2,907.6 1132,909.7 1133.2,907.6    1134.4,909.7 1102,928.4 1102,886.8 1138.1,907.6 1134.4,909.7  "/>
	<rect x="98.1" y="966.8" fill="#C25D8C" width="26.4" height="26.4"/>
	<polygon fill="#17191E" points="124.5,993.2 124.5,994.4 96.9,994.4 96.9,965.6 125.7,965.6 125.7,994.4 124.5,994.4 124.5,993.2    123.3,993.2 123.3,968 99.3,968 99.3,992 124.5,992 124.5,993.2 123.3,993.2  "/>
</g>
<path d="M145.9,992.7c4.7,0,7.9-3.1,7.9-7.9V967l-0.4-0.4h-2.8l-0.4,0.4v18c0,2.7-1.7,4.6-4.3,4.6c-2.6,0-4.3-1.9-4.3-4.6v-18  l-0.4-0.4h-2.8L138,967v17.8C138,989.6,141.2,992.7,145.9,992.7z"/>
<path d="M303.5,969.6h0.6l0.4-0.4l0-2.3l-0.4-0.4h-0.8c-4.5,0-6.1,1.6-6.1,6.2v0.8l-0.1,0.1h-1.9l-0.4,0.4v2.2l0.4,0.4h1.9l0.1,0.1  V992l0.4,0.4h2.8l0.4-0.4v-15.3l0.1-0.1h3.2l0.4-0.4V974l-0.4-0.4h-3.2l-0.1-0.1v-0.6C300.8,970.5,301.5,969.6,303.5,969.6z   M291.5,969.6h0.6l0.4-0.4l0-2.3l-0.4-0.4h-0.8c-4.5,0-6.1,1.6-6.1,6.2v0.8l-0.1,0.1h-1.9l-0.4,0.4v2.2l0.4,0.4h1.9l0.1,0.1V992  l0.4,0.4h2.8l0.4-0.4v-15.3l0.1-0.1h3.2l0.4-0.4V974l-0.4-0.4h-3.2l-0.1-0.1v-0.6C288.8,970.5,289.5,969.6,291.5,969.6z   M272.9,989.6c-1.9,0-3.2-1.2-3.5-3.1c-0.1-1-0.2-2.3-0.2-3.5c0-1.2,0.1-2.5,0.2-3.5c0.3-1.9,1.6-3.1,3.5-3.1c1.8,0,3.2,1.2,3.5,3.1  c0.1,1,0.2,2.2,0.2,3.5c0,1.2-0.1,2.5-0.2,3.5C276,988.4,274.7,989.6,272.9,989.6z M272.9,992.7c3.7,0,6.2-2.1,6.8-5.5  c0.2-1.2,0.3-2.8,0.3-4.2s-0.1-2.9-0.3-4.1c-0.6-3.3-3.1-5.5-6.8-5.5c-3.8,0-6.4,2.2-6.9,5.5c-0.2,1.1-0.3,2.7-0.3,4.1  c0,1.4,0.1,3,0.3,4.2C266.6,990.6,269.2,992.7,272.9,992.7z M262.8,976v-2l-0.4-0.4h-3.3l-0.1-0.1v-4.2l-0.4-0.4h-2.7l-0.4,0.4v4.2  l-0.1,0.1h-1.8l-0.4,0.4v2l0.4,0.4h1.8l0.1,0.1v11.2c0,3.8,2.1,4.6,5.2,4.6l1.4,0l0.4-0.4v-2.3l-0.4-0.4h-0.7  c-1.7,0-2.5-0.7-2.5-2.8v-10l0.1-0.1h3.3L262.8,976z M244.4,992.6c4,0,6.7-2.1,6.7-5.3c0-3.7-3.4-4.9-6-5.7  c-2.1-0.7-3.8-1.3-3.8-2.9c0-1.4,1.2-2.4,3.1-2.4c2,0,3.2,1.1,3.2,2.5v0.3l0.4,0.3h2.6l0.4-0.4v-0.1c0-3.2-2.5-5.3-6.5-5.3  c-3.8,0-6.4,2-6.4,5.3c0,3.7,3.2,4.9,5.8,5.7c2,0.7,3.8,1.2,3.8,2.9c0,1.4-1.2,2.4-3.1,2.4c-1.9,0-3.3-1.1-3.3-2.5v-0.3l-0.4-0.3  h-2.6l-0.4,0.4v0.4C237.7,990.5,240.3,992.6,244.4,992.6z M227.5,976v-2l-0.4-0.4h-3.3l-0.1-0.1v-4.2l-0.4-0.4h-2.7l-0.4,0.4v4.2  l-0.1,0.1h-1.8L218,974v2l0.4,0.4h1.8l0.1,0.1v11.2c0,3.8,2.1,4.6,5.2,4.6l1.4,0l0.4-0.4v-2.3l-0.4-0.4h-0.7c-1.7,0-2.5-0.7-2.5-2.8  v-10l0.1-0.1h3.3L227.5,976z M209.2,973.4c-1.7,0-3.2,0.5-4.2,1.8l-0.2,0V974l-0.4-0.4h-2.8l-0.4,0.4v18l0.4,0.4h2.8l0.4-0.4v-11.8  c0-2.2,1.3-3.7,3.3-3.7c2,0,3.2,1.4,3.2,3.7V992l0.4,0.4h2.8l0.4-0.4v-12.4C214.9,975.8,212.7,973.4,209.2,973.4z M190.3,976.4  c1.9,0,3.2,1.2,3.5,3.1c0.1,0.5,0.1,1.2,0.1,1.9l-0.1,0.1H187l-0.1-0.1c0-0.7,0.1-1.4,0.1-2C187.2,977.6,188.4,976.4,190.3,976.4z   M190.6,989.6c-2,0-3.4-1.2-3.6-3.1c-0.1-0.6-0.1-1.2-0.1-2l0.1-0.1h10.1l0.4-0.4c0-1.2,0-2.9-0.1-4.2c-0.3-3.9-2.6-6.4-7-6.4  c-3.8,0-6.4,2.2-6.8,5.7c-0.1,1.1-0.2,2.5-0.2,3.9c0,1.6,0.1,3.2,0.5,4.6c0.6,3.2,2.9,5.1,6.6,5.1c3.5,0,5.8-1.8,6.6-4.5l-0.3-0.5  l-2.2-0.6l-0.4,0.2C193.5,988.7,192.3,989.6,190.6,989.6z M172.2,1000c5.6,0,7-2.2,7-6.6V974l-0.4-0.4h-2.8l-0.4,0.4v19.4  c0,2.3-1,3.5-3.5,3.5l-0.4,0.4v2.3L172.2,1000z M177.5,970.9c1.4,0,2.4-1,2.4-2.3c0-1.4-1.1-2.3-2.4-2.3c-1.2,0-2.3,1-2.3,2.3  C175.1,969.9,176.1,970.9,177.5,970.9z M158.8,992.4h2.8l0.4-0.4v-5.9l0.1-0.2l2.8-3.5l0.2,0l3.7,9.6l0.4,0.3h2.9l0.3-0.4l-5-12.1  l0-0.2l4.3-5.6l-0.2-0.4h-3.1l-0.5,0.2l-5.7,7.2l-0.2-0.1v-14l-0.4-0.4h-2.8l-0.4,0.4v25L158.8,992.4z"/>
<rect x="367.2" y="966.7" fill="#60AB90" width="26.4" height="26.4"/>
<polygon points="393.5,993.1 393.5,994.9 365.3,994.9 365.3,964.8 395.4,964.8 395.4,994.9 393.5,994.9 393.5,993.1 391.7,993.1   391.7,968.5 369,968.5 369,991.2 393.5,991.2 393.5,993.1 391.7,993.1 "/>
<path d="M414.2,992.5c4.7,0,7.7-2.7,7.7-6.9c0-4-2.9-5.6-6.8-7.8c-3.6-1.8-5.1-2.8-5.1-5s1.5-3.5,3.8-3.5c2.8,0,4.4,1.7,4.4,4.1v0.8  l0.4,0.4h2.8l0.4-0.4v-0.8c0-4.2-3.1-7.1-7.8-7.1c-4.4,0-7.4,2.5-7.4,6.6c0,4.2,3.2,6,6.7,7.8c3.5,1.8,5.2,2.9,5.2,5.2  c0,2.1-1.5,3.7-4.1,3.7c-2.7,0-4.4-1.7-4.4-4v-0.8l-0.4-0.4h-2.7l-0.4,0.4v1C406.4,989.8,409.5,992.5,414.2,992.5z"/>
<path d="M491,984.6l3.4-13.2h0.1l3.3,13.2l-0.1,0.1h-6.6L491,984.6z M500.2,992.2h2.9l0.3-0.4l-6.8-25l-0.4-0.3h-3.5l-0.4,0.3  l-6.8,25l0.3,0.4h2.9l0.4-0.3l1.1-4.3l0.2-0.1h8.1l0.2,0.1l1.1,4.3L500.2,992.2z M474.7,969.4h0.6l0.4-0.4l0-2.3l-0.4-0.4h-0.8  c-4.5,0-6.1,1.6-6.1,6.2v0.8l-0.1,0.1h-1.9l-0.4,0.4v2.2l0.4,0.4h1.9l0.1,0.1v15.3l0.4,0.4h2.8l0.4-0.4v-15.3l0.1-0.1h3.2l0.4-0.4  v-2.2l-0.4-0.4h-3.2l-0.1-0.1v-0.6C472,970.4,472.7,969.4,474.7,969.4z M462.7,969.4h0.6l0.4-0.4l0-2.3l-0.4-0.4h-0.8  c-4.5,0-6.1,1.6-6.1,6.2v0.8l-0.1,0.1h-1.9l-0.4,0.4v2.2l0.4,0.4h1.9l0.1,0.1v15.3l0.4,0.4h2.8l0.4-0.4v-15.3l0.1-0.1h3.2l0.4-0.4  v-2.2l-0.4-0.4h-3.2l-0.1-0.1v-0.6C460,970.4,460.7,969.4,462.7,969.4z M444.1,989.5c-1.9,0-3.2-1.2-3.5-3.1c-0.1-1-0.2-2.3-0.2-3.5  c0-1.2,0.1-2.5,0.2-3.5c0.3-1.9,1.6-3.1,3.5-3.1c1.8,0,3.2,1.2,3.5,3.1c0.1,1,0.2,2.2,0.2,3.5c0,1.2-0.1,2.5-0.2,3.5  C447.2,988.3,445.9,989.5,444.1,989.5z M444.1,992.5c3.7,0,6.2-2.1,6.8-5.5c0.2-1.2,0.3-2.8,0.3-4.2s-0.1-2.9-0.3-4.1  c-0.6-3.3-3.1-5.5-6.8-5.5c-3.8,0-6.4,2.2-6.9,5.5c-0.2,1.1-0.3,2.7-0.3,4.1c0,1.4,0.1,3,0.3,4.2  C437.8,990.4,440.4,992.5,444.1,992.5z M434,975.9v-2l-0.4-0.4h-3.3l-0.1-0.1v-4.2l-0.4-0.4h-2.7l-0.4,0.4v4.2l-0.1,0.1h-1.8  l-0.4,0.4v2l0.4,0.4h1.8l0.1,0.1v11.2c0,3.8,2.1,4.6,5.2,4.6l1.4,0l0.4-0.4v-2.3l-0.4-0.4h-0.7c-1.7,0-2.5-0.7-2.5-2.8v-10l0.1-0.1  h3.3L434,975.9z"/>
<rect x="566.7" y="965.4" fill="#0F88A7" width="26.4" height="26.4"/>
<polygon fill="#17191E" points="593.1,991.8 593.1,993.1 565.5,993.1 565.5,964.2 594.3,964.2 594.3,993.1 593.1,993.1 593.1,991.8   591.9,991.8 591.9,966.7 567.9,966.7 567.9,990.6 593.1,990.6 593.1,991.8 591.9,991.8 "/>
<path d="M613.8,991.3c4.7,0,7.7-2.7,7.7-6.9c0-4-2.9-5.6-6.8-7.8c-3.6-1.8-5.1-2.8-5.1-5s1.5-3.5,3.8-3.5c2.8,0,4.4,1.7,4.4,4.1v0.8  l0.4,0.4h2.8l0.4-0.4V972c0-4.2-3.1-7.1-7.8-7.1c-4.4,0-7.4,2.5-7.4,6.6c0,4.2,3.2,6,6.7,7.8c3.5,1.8,5.2,2.9,5.2,5.2  c0,2.1-1.5,3.7-4.1,3.7c-2.7,0-4.4-1.7-4.4-4v-0.8l-0.4-0.4h-2.7l-0.4,0.4v1C606,988.6,609,991.3,613.8,991.3z"/>
<path d="M694.4,987.9h-4.2l-0.1-0.1v-8.5l0.1-0.1h4.2c2.5,0,4.1,1.7,4.1,4.4S696.9,987.9,694.4,987.9z M690.2,968.3h4  c2.6,0,4.1,1.5,4.1,4.1c0,2.5-1.5,3.9-4.1,3.9h-4l-0.1-0.1v-7.8L690.2,968.3z M702,984c0-3-1.3-5-3.5-6.2v-0.2  c2.1-1,3.2-2.8,3.2-5.5c0-4.6-2.9-6.8-7.6-6.8h-7.2l-0.4,0.4v25l0.4,0.4h7.6C698.9,991,702,988.6,702,984z M674.2,968.2h0.6l0.4-0.4  l0-2.3l-0.4-0.4H674c-4.5,0-6.1,1.6-6.1,6.2v0.8l-0.1,0.1h-1.9l-0.4,0.4v2.2l0.4,0.4h1.9l0.1,0.1v15.3l0.4,0.4h2.8l0.4-0.4v-15.3  l0.1-0.1h3.2l0.4-0.4v-2.2l-0.4-0.4h-3.2l-0.1-0.1v-0.6C671.5,969.1,672.2,968.2,674.2,968.2z M662.2,968.2h0.6l0.4-0.4l0-2.3  l-0.4-0.4H662c-4.5,0-6.1,1.6-6.1,6.2v0.8l-0.1,0.1h-1.9l-0.4,0.4v2.2l0.4,0.4h1.9l0.1,0.1v15.3l0.4,0.4h2.8l0.4-0.4v-15.3l0.1-0.1  h3.2l0.4-0.4v-2.2l-0.4-0.4h-3.2l-0.1-0.1v-0.6C659.5,969.1,660.2,968.2,662.2,968.2z M643.7,988.3c-1.9,0-3.2-1.2-3.5-3.1  c-0.1-1-0.2-2.3-0.2-3.5c0-1.2,0.1-2.5,0.2-3.5c0.3-1.9,1.6-3.1,3.5-3.1s3.2,1.2,3.5,3.1c0.1,1,0.2,2.2,0.2,3.5  c0,1.2-0.1,2.5-0.2,3.5C646.8,987,645.4,988.3,643.7,988.3z M643.7,991.3c3.7,0,6.2-2.1,6.8-5.5c0.2-1.2,0.3-2.8,0.3-4.2  c0-1.4-0.1-2.9-0.3-4.1c-0.6-3.3-3.1-5.5-6.8-5.5c-3.8,0-6.4,2.2-6.9,5.5c-0.2,1.1-0.3,2.7-0.3,4.1c0,1.4,0.1,3,0.3,4.2  C637.3,989.2,639.9,991.3,643.7,991.3z M633.5,974.7v-2l-0.4-0.4h-3.3l-0.1-0.1v-4.2l-0.4-0.4h-2.7l-0.4,0.4v4.2l-0.1,0.1h-1.8  l-0.4,0.4v2l0.4,0.4h1.8l0.1,0.1v11.2c0,3.8,2.1,4.6,5.2,4.6l1.4,0l0.4-0.4v-2.3l-0.4-0.4h-0.7c-1.7,0-2.5-0.7-2.5-2.8v-10l0.1-0.1  h3.3L633.5,974.7z"/>
<rect x="777.7" y="964.2" fill="#E55C58" width="26.4" height="26.4"/>
<polygon points="804.1,990.6 804.1,992.4 775.8,992.4 775.8,962.4 805.9,962.4 805.9,992.4 804.1,992.4 804.1,990.6 802.2,990.6   802.2,966.1 779.5,966.1 779.5,988.8 804.1,988.8 804.1,990.6 802.2,990.6 "/>
<path d="M824.7,990.1c4.7,0,7.7-2.7,7.7-6.9c0-4-2.9-5.6-6.8-7.8c-3.6-1.8-5.1-2.8-5.1-5s1.5-3.5,3.8-3.5c2.8,0,4.4,1.7,4.4,4.1v0.8  l0.4,0.4h2.8l0.4-0.4v-0.8c0-4.2-3.1-7.1-7.8-7.1c-4.4,0-7.4,2.5-7.4,6.6c0,4.2,3.2,6,6.7,7.8c3.5,1.8,5.2,2.9,5.2,5.2  c0,2.1-1.5,3.7-4.1,3.7c-2.7,0-4.4-1.7-4.4-4v-0.8l-0.4-0.4h-2.7l-0.4,0.4v1C817,987.3,820,990.1,824.7,990.1z"/>
<path d="M904.7,990.1c4.7,0,7.8-2.9,7.8-7.4v-0.3l-0.4-0.3l-2.8-0.1l-0.4,0.4v0.5c0,2.5-1.7,4.3-4.3,4.3c-2.6,0-4.3-1.7-4.3-4.3  v-11.7c0-2.5,1.7-4.3,4.3-4.3c2.5,0,4.3,1.7,4.3,4.3v0.6l0.4,0.4l2.8-0.1l0.4-0.4v-0.3c0-4.5-3.1-7.4-7.8-7.4  c-4.7,0-7.8,2.9-7.8,7.5v11.3C896.9,987.1,900,990.1,904.7,990.1z M885.2,967h0.6l0.4-0.4l0-2.3l-0.4-0.4H885  c-4.5,0-6.1,1.6-6.1,6.2v0.8l-0.1,0.1h-1.9l-0.4,0.4v2.2l0.4,0.4h1.9l0.1,0.1v15.3l0.4,0.4h2.8l0.4-0.4v-15.3l0.1-0.1h3.2l0.4-0.4  v-2.2l-0.4-0.4h-3.2l-0.1-0.1v-0.6C882.5,967.9,883.2,967,885.2,967z M873.2,967h0.6l0.4-0.4l0-2.3l-0.4-0.4H873  c-4.5,0-6.1,1.6-6.1,6.2v0.8l-0.1,0.1h-1.9l-0.4,0.4v2.2l0.4,0.4h1.9l0.1,0.1v15.3l0.4,0.4h2.8l0.4-0.4v-15.3l0.1-0.1h3.2l0.4-0.4  v-2.2l-0.4-0.4h-3.2l-0.1-0.1v-0.6C870.5,967.9,871.2,967,873.2,967z M854.7,987c-1.9,0-3.2-1.2-3.5-3.1c-0.1-1-0.2-2.3-0.2-3.5  c0-1.2,0.1-2.5,0.2-3.5c0.3-1.9,1.6-3.1,3.5-3.1c1.8,0,3.2,1.2,3.5,3.1c0.1,1,0.2,2.2,0.2,3.5c0,1.2-0.1,2.5-0.2,3.5  C857.8,985.8,856.4,987,854.7,987z M854.7,990.1c3.7,0,6.2-2.1,6.8-5.5c0.2-1.2,0.3-2.8,0.3-4.2c0-1.4-0.1-2.9-0.3-4.1  c-0.6-3.3-3.1-5.5-6.8-5.5c-3.8,0-6.4,2.2-6.9,5.5c-0.2,1.1-0.3,2.7-0.3,4.1c0,1.4,0.1,3,0.3,4.2C848.3,988,850.9,990.1,854.7,990.1  z M844.5,973.4v-2l-0.4-0.4h-3.3l-0.1-0.1v-4.2l-0.4-0.4h-2.7l-0.4,0.4v4.2l-0.1,0.1h-1.8l-0.4,0.4v2l0.4,0.4h1.8l0.1,0.1v11.2  c0,3.8,2.1,4.6,5.2,4.6l1.4,0l0.4-0.4v-2.3l-0.4-0.4h-0.7c-1.7,0-2.5-0.7-2.5-2.8v-10l0.1-0.1h3.3L844.5,973.4z"/>
<g>
	<path fill="#E55C58" d="M121.4,666.3c4.2-49.2,16-97.7,34.7-143.4c9.3-22.8,20.4-44.9,33.1-66.1c11.4-19.1,23.8-37.9,39.8-53.4   c15.8-15.2,35.2-26,57.4-27.5c22-1.4,43.8,4,65.5,6.5c19.6,2.3,40.4,2.1,57.7-8.7c17.5-11,26.5-29.9,35.7-47.6   c10.1-19.3,22.9-36.2,41.9-47.6c18.4-11.1,40.3-15.8,61.4-11.4c20.1,4.2,38.7,15.7,48.9,33.9c9.7,17.3,12.4,38,24,54.3   c11.5,16.1,30.2,23.4,49.7,21.3c19.9-2.1,37.7-12.1,50.9-27c14.6-16.6,23.4-37.2,31.3-57.6c9.9-25.4,19.6-50.9,29.4-76.3   c7.3-19,15.1-40.7,32.5-52.9c19.5-13.6,46.7-11.9,69.4-13.6c50-3.7,100.3-8.2,150.4-4.3c12,0.9,23.9,2.4,35.8,4.6   c4.6,0.9,6.6-6.2,2-7.1c-49.6-9.2-100.7-6.8-150.8-3.3c-24.8,1.7-50,2.7-74.7,5.7c-11.1,1.3-22.3,3.7-32.1,9.4   c-8.7,5.1-15.6,12.4-21.2,20.6c-12.9,19-19.6,42.4-27.8,63.6c-9.4,24.4-17.9,49.6-29,73.3c-9.2,19.8-21.8,39.4-41.7,49.9   c-17.7,9.4-41.6,12.1-58.5-0.6c-16.6-12.5-20.5-35-28.1-53.1c-7.8-18.6-21-33.3-39.5-41.7c-39.8-18.1-85.7-3.5-113.1,29.1   c-13.5,16.1-20.4,36.1-32,53.4c-6,8.9-13.6,16.6-23.3,21.4c-9.4,4.6-19.9,6.1-30.3,6.1c-21.9,0-43.3-5.6-65.1-7.4   c-21.9-1.8-43,1.7-61.9,13.5c-17.9,11.2-32,27.5-44.1,44.6c-13.9,19.6-25.9,40.8-36.5,62.4c-21.8,44.5-37,92.1-44.7,141.1   c-1.9,11.9-3.3,23.8-4.3,35.8C113.6,671.1,121,671,121.4,666.3"/>
	<path fill="#C25D8C" d="M136,769.2c28.4-81.7,72.4-158,129.7-222.9c25.7-29.1,61.9-66.5,105.1-53.8c33.4,9.8,42.5,49.1,56.6,76.4   c7.2,13.8,16.5,27,30.2,34.9c17,9.8,37.3,10.2,56.3,7.4c22.6-3.3,44-11.9,66.7-14.4c21.8-2.4,42.2,2.6,59.4,16.4   c32.8,26.4,46.1,68.1,68.4,102.4c23.3,35.7,59.1,60.2,99.6,72.7c20.9,6.4,43,9.5,64.9,8.4c22.8-1.1,45-7.9,68-6.3   c41.5,2.9,79.8,23.8,121.6,24.4c9.6,0.1,19.2-1,28.5-3.4c4.6-1.2,2.6-8.3-2-7.1c-41.6,10.8-82.8-9.2-122.9-17.6   c-10.1-2.1-20.4-3.6-30.7-3.9c-11.3-0.3-22.5,1.2-33.7,3.1c-23,3.7-45.5,5.1-68.5,1c-43-7.6-85.6-29.9-111.9-65.5   c-24.9-33.6-37.2-75.5-67.4-105.4c-13.8-13.8-30.9-24-50.5-26.4c-23.3-2.9-46.3,4.2-68.5,9.8c-19.6,5-40.9,9.1-60.8,3.5   c-17.4-4.9-29.2-17.5-37.8-32.8c-15.1-26.8-22.4-62.7-51-79.2c-17-9.8-38.1-9.8-56.3-3.7c-19.6,6.6-36,19.9-50.4,34.3   c-30.1,30.2-56.4,64.9-79.4,100.7C176,658.4,156.2,697,140.2,737c-4,10-7.7,20-11.3,30.2C127.4,771.7,134.5,773.6,136,769.2"/>
	<path fill="#60AB90" d="M131,807.3c38.6,1.8,69.2-29.1,86.5-60.5c10.4-18.9,17.8-39.3,26.3-59.1c8.2-19.1,17.2-39.6,32.6-54.1   c14.6-13.8,34.2-17.5,53.3-12c18.8,5.4,34.1,18.3,45,34.3c11.7,17.2,18.8,37.1,24.3,57.1c4.7,17.2,9,37.8,26.5,46.5   c15.7,7.8,35.1,3.9,49.3-5.4c17.2-11.3,28.6-28.6,42-43.8c13-14.7,29.6-28.8,50.5-27.8c19.3,0.9,36,14,48.3,28   c25.9,29.5,35.8,70.7,67.8,95.3c29.7,22.9,68.5,25,104.2,29.4c19.6,2.4,39.1,5.8,57.6,12.9c10.3,4,20.3,8.6,30.9,11.6   c10.9,3.1,22.3,4.5,33.6,4.8c23.5,0.6,47.2-2.9,70.6-5.2c24.6-2.5,49.3-5,73.9-7.4c12-1.2,24-2.4,36-3.6c4.7-0.5,4.7-7.8,0-7.4   c-49,4.9-98.1,10.3-147.2,14.8c-22.8,2.1-46.1,3.1-68.2-4c-11-3.5-21.5-8.5-32.4-12.4c-8.9-3.2-18.1-5.5-27.4-7.3   c-36.4-6.9-76.1-5.1-110.1-21.5c-18-8.7-31.6-22.5-42.5-39.1c-10.9-16.7-19.3-34.9-30.4-51.5c-19.8-29.5-55.3-57-91.7-38.5   c-18,9.2-30.3,25.8-42.9,41c-12.6,15.2-27.2,31-47.8,33.7c-9.3,1.2-19.1-0.6-26.3-6.8c-7.3-6.4-10.8-15.9-13.5-25   c-5.7-19.5-10.6-39-19.9-57.2c-16.4-32.3-49-60.8-87.7-54.4c-41.4,6.8-58.1,55.4-71.9,88.9c-15,36.4-33.3,78.7-72.8,94.2   c-8.5,3.3-17.3,4.8-26.4,4.4C126.3,799.7,126.3,807.1,131,807.3"/>
	<path fill="#0F88A7" d="M138.8,681c7.4-38.7,28.4-72.7,52.8-103.1c12.3-15.3,25.4-29.9,38.6-44.4c13.8-15.2,27.7-30.5,43.5-43.7   c62.3-52.3,147.6-51,223.7-39.1c37.3,5.8,75.5,13.8,108.4,33c16.7,9.7,31,22.4,43,37.6c12.4,15.6,22.5,32.9,34.4,48.9   c10.7,14.4,23.3,30.1,40.8,36.5c20.3,7.4,41.2-2.8,60.4-9c36.6-11.8,77.3-17.9,114.8-6.6c76.4,22.9,93.1,118.1,165.5,147   c8,3.2,16.4,5.1,24.9,5.9c4.7,0.4,4.7-6.9,0-7.4c-38.8-3.6-67.4-35.1-89.4-64.3c-22.7-30.2-44.6-63.6-79.6-80.7   c-34.8-17-75.1-16.3-112.2-8c-9.8,2.2-19.4,4.9-28.9,8.1c-10.3,3.4-20.4,7.6-31.1,9.5c-11,1.9-21.5,0.2-30.9-5.8   c-8.4-5.4-15.3-13-21.6-20.7c-12.8-15.6-23.1-33.1-35-49.5c-11.3-15.5-24.1-29.4-39.9-40.5c-31.3-21.9-69.3-31.9-106.4-38.5   c-74-13.2-159.2-19.6-225.4,23.1c-17.1,11-32,24.9-46,39.5c-14,14.6-27.6,29.8-40.9,45.1c-25.4,29.3-49.4,60.8-62.9,97.5   c-3.3,9-5.9,18.3-7.6,27.7C130.8,683.6,137.9,685.6,138.8,681"/>
</g>
<g>
</g>
<g>
</g>
<g>
</g>
<g>
</g>
<g>
</g>
<g>
</g>
</svg>