<?xml version="1.0" encoding="UTF-8"?>
<!-- Generator: Adobe Illustrator 25.0.0, SVG Export Plug-In . SVG Version: 6.00 Build 0)  -->
<svg version="1.1" id="Layer_1" xmlns="http://www.w3.org/2000/svg" xmlns:xlink="http://www.w3.org/1999/xlink" x="0px" y="0px" viewBox="0 0 1280 919.5" enable-background="new 0 0 1280 919.5" xml:space="preserve">
<polyline fill="none" points="351.6,0 351.6,0 362.4,0 362.4,378.6 637.4,539.3 958.7,358.8 959,358.2 959.4,358.4 959.8,358.1   960.3,358.9 1280,545.8 1274.5,555.1 959.3,370.9 644.6,547.7 644.6,919.5 633.8,919.5 633.8,549.8 325.1,369.3 5.3,549 0,539.5   286.4,378.6 286.4,0 297.3,0 297.3,372.5 324.5,357.2 324.8,356.6 325.2,356.8 325.6,356.6 326.1,357.3 351.6,372.2 351.6,0 "/>
<polyline fill="#1C1C1B" points="297.3,0 286.4,0 286.4,378.6 297.3,372.5 297.3,0 "/>
<polyline fill="#1C1C1B" points="362.4,0 351.6,0 351.6,372.2 362.4,378.6 362.4,0 "/>
<polyline fill="#1C1C1B" points="644.6,547.7 643.4,548.4 640.3,553.6 640.3,553.6 640.3,553.6 633.8,549.8 633.8,919.5   644.6,919.5 644.6,547.7 "/>
<path fill="#1C1C1B" d="M324.5,357.2l-27.2,15.3l-10.9,6.1L0,539.5l5.3,9.4l319.8-179.6l-5.7-3.3L324.5,357.2 M325.6,356.6l-0.5,0.3  l0.9,0.5L325.6,356.6"/>
<path fill="#1C1C1B" d="M958.7,358.8L637.4,539.3l8.4,4.9l-2.4,4.1l315.9-177.5l-5.7-3.3L958.7,358.8 M959.8,358.1l-0.5,0.3l0.9,0.5  L959.8,358.1"/>
<polyline fill="#FFFFFF" points="319.3,366 319.3,366 325.1,369.3 633.8,549.8 640.3,553.6 640.3,553.6 319.3,366 "/>
<polyline fill="#1C1C1B" points="324.8,356.6 324.5,357.2 319.3,366 640.3,553.6 640.3,553.6 643.4,548.4 645.8,544.2 637.4,539.3   362.4,378.6 351.6,372.2 326.1,357.3 325.2,356.8 324.8,356.6 "/>
<polyline fill="#1C1C1B" points="959,358.2 958.7,358.8 953.5,367.5 1274.5,555.1 1280,545.8 960.3,358.9 959.4,358.4 959,358.2 "/>
<g>
</g>
<g>
</g>
<g>
</g>
<g>
</g>
<g>
</g>
<g>
</g>
</svg>