<?xml version="1.0" encoding="UTF-8"?>
<!-- Generator: Adobe Illustrator 25.0.0, SVG Export Plug-In . SVG Version: 6.00 Build 0)  -->
<svg version="1.1" id="Layer_1" xmlns="http://www.w3.org/2000/svg" xmlns:xlink="http://www.w3.org/1999/xlink" x="0px" y="0px" viewBox="0 0 1280 977.8" enable-background="new 0 0 1280 977.8" xml:space="preserve">
<rect x="273.2" y="437.5" fill="#231F20" width="121.5" height="13.8"/>
<rect x="273.2" y="437.5" fill="#231F20" width="121.5" height="13.8"/>
<rect x="566" y="437.5" fill="#231F20" width="209.9" height="13.8"/>
<rect x="566" y="437.5" fill="#231F20" width="209.9" height="13.8"/>
<rect x="930.7" y="437.5" fill="#231F20" width="209.9" height="13.8"/>
<rect x="930.7" y="437.5" fill="#231F20" width="209.9" height="13.8"/>
<rect x="847.8" y="208.2" fill="#231F20" width="13.8" height="121.5"/>
<rect x="847.8" y="208.2" fill="#231F20" width="13.8" height="121.5"/>
<rect x="472.1" y="211" fill="#231F20" width="13.8" height="121.5"/>
<rect x="472.1" y="211" fill="#231F20" width="13.8" height="121.5"/>
<rect x="847.8" y="561.9" fill="#231F20" width="13.8" height="121.5"/>
<rect x="847.8" y="561.9" fill="#231F20" width="13.8" height="121.5"/>
<rect x="474.9" y="561.9" fill="#231F20" width="13.8" height="121.5"/>
<rect x="474.9" y="561.9" fill="#231F20" width="13.8" height="121.5"/>
<path fill="#231F20" d="M212.9,359.9l0.1,75.4l-1,1l-65.3,0.1l-1-1l-0.1-75.4l-2.4-2.4l-8,0l-2.4,2.4l0.2,164.3l2.4,2.4l8,0l2.4-2.4  l-0.1-75.6l1-1l65.3-0.1l1,1l0.1,75.6l2.4,2.4l8,0l2.4-2.4l-0.2-164.3l-2.4-2.4l-8,0L212.9,359.9z M47.3,528.8  c28.5,0,47.3-18.2,47.3-46l0-2.2l-2.4-2.2l-8-0.5l-2.4,2.4l0,2.9c0,20.5-13.7,34.1-34.5,34.1c-20.5,0-34.3-13.5-34.4-34L12.8,401  c0-20.3,13.7-33.9,34.3-33.9c20.8,0,34.6,13.5,34.6,33.8l0,3.4l2.4,2.4l8-0.5l2.4-2.7l0-2.2c0-27.6-18.9-45.6-47.4-45.6  c-28.3,0-47.1,18.2-47.1,46l0.1,81C0.2,510.5,19,528.8,47.3,528.8z"/>
<path fill="#231F20" d="M303.1,559.8c-3.1-8.3-9.4-13-18.5-13l-0.3-0.7l20.6-28l0.6-1.8V510l-1.4-1.4h-46.8l-1.4,1.4v5.9l1.4,1.4  h35.1l0.3,0.7l-21.8,29.3l0.1,2l3.5,3.9l2,0.4l4.1-1c6.5,0,11,3.5,13.4,10c1.4,3.7,2.1,8.3,2.1,13.9c0,4.6-0.6,8.7-1.4,12  c-2.3,7.2-7,11-14.1,11c-7.7,0-12.8-4.8-14.5-12.5c-0.6-2.3-0.8-5.5-1-8.3l-1.4-1.4h-7.2l-1.4,1.4c0.1,3.5,0.4,7.3,1.3,10.7  c2.7,11.6,11.6,18.9,24.2,18.9c11.4,0,19.3-5.5,23-15.8c1.5-4.2,2.4-9.4,2.4-15.4C305.9,570.2,304.9,564.3,303.1,559.8z"/>
<path fill="#231F20" d="M1267,358.9l0.1,75.4l-1,1l-65.3,0.1l-1-1l-0.1-75.4l-2.4-2.4l-8,0l-2.4,2.4l0.2,164.3l2.4,2.4l8,0l2.4-2.4  l-0.1-75.6l1-1l65.3-0.1l1,1l0.1,75.6l2.4,2.4l8,0l2.4-2.4l-0.2-164.3l-2.4-2.4l-8,0L1267,358.9z M853.6,528  c28.5,0,47.3-18.2,47.3-46l0-2.2l-2.4-2.2l-8-0.5l-2.4,2.4l0,2.9c0,20.5-13.7,34.1-34.5,34.1c-20.5,0-34.3-13.5-34.4-34l-0.1-82.4  c0-20.3,13.7-33.9,34.3-33.9c20.8,0,34.6,13.5,34.6,33.8l0,3.4l2.4,2.4l8-0.5l2.4-2.7l0-2.2c0-27.6-18.9-45.6-47.4-45.6  c-28.3,0-47.1,18.2-47.1,46l0.1,81C806.5,509.7,825.4,528,853.6,528z M478,528.3c28.5,0,47.3-18.2,47.3-46l0-2.2l-2.4-2.2l-8-0.5  l-2.4,2.4l0,2.9c0,20.5-13.7,34.1-34.5,34.1c-20.5,0-34.3-13.5-34.4-34l-0.1-82.4c0-20.3,13.7-33.9,34.3-33.9  c20.8,0,34.6,13.5,34.6,33.8l0,3.4l2.4,2.4l8-0.5l2.4-2.7l0-2.2c0-27.6-18.9-45.6-47.4-45.6c-28.3,0-47.1,18.2-47.1,46l0.1,81  C430.9,510,449.7,528.4,478,528.3z"/>
<path fill="#231F20" d="M639.1,9.8v75l-1,1h-64.9l-1-1v-75l-2.4-2.4h-7.9l-2.4,2.4v163.4l2.4,2.4h7.9l2.4-2.4V98l1-1h64.9l1,1v75.2  l2.4,2.4h7.9l2.4-2.4V9.8l-2.4-2.4h-7.9L639.1,9.8z M474.2,177.6c28.4,0,47.1-18,47.1-45.7v-2.2l-2.4-2.2l-7.9-0.5l-2.4,2.4v2.9  c0,20.4-13.7,33.9-34.4,33.9c-20.4,0-34.1-13.5-34.1-33.9V50.4c0-20.2,13.7-33.6,34.1-33.6c20.7,0,34.4,13.5,34.4,33.6v3.4l2.4,2.4  l7.9-0.5l2.4-2.6v-2.2c0-27.4-18.7-45.4-47.1-45.4c-28.1,0-46.9,18-46.9,45.7v80.5C427.4,159.3,446.1,177.6,474.2,177.6z"/>
<path fill="#231F20" d="M728.5,208.6c-3.1-8.3-9.4-12.9-18.4-12.9l-0.3-0.7l20.5-27.9l0.6-1.8v-6.3l-1.4-1.4h-46.5l-1.4,1.4v5.9  l1.4,1.4h34.9l0.3,0.7l-21.7,29.2l0.1,2l3.5,3.9l2,0.4l4.1-1c6.4,0,10.9,3.5,13.3,10c1.4,3.6,2.1,8.3,2.1,13.9  c0,4.6-0.6,8.7-1.4,11.9c-2.2,7.1-7,10.9-14,10.9c-7.7,0-12.8-4.8-14.4-12.5c-0.6-2.2-0.8-5.5-1-8.3l-1.4-1.4h-7.1l-1.4,1.4  c0.1,3.5,0.4,7.3,1.3,10.7c2.7,11.5,11.5,18.8,24.1,18.8c11.4,0,19.2-5.5,22.8-15.7c1.5-4.2,2.4-9.4,2.4-15.3  C731.3,218.9,730.3,213,728.5,208.6z"/>
<path fill="#231F20" d="M1023,4.3v75l-1,1h-64.9l-1-1v-75l-2.4-2.4h-7.9l-2.4,2.4v163.4l2.4,2.4h7.9l2.4-2.4V92.5l1-1h64.9l1,1v75.2  l2.4,2.4h7.9l2.4-2.4V4.3l-2.4-2.4h-7.9L1023,4.3z M858.2,172c28.4,0,47.1-18,47.1-45.7v-2.2l-2.4-2.2l-7.9-0.5l-2.4,2.4v2.9  c0,20.4-13.7,33.9-34.4,33.9c-20.4,0-34.1-13.5-34.1-33.9V44.9c0-20.2,13.7-33.6,34.1-33.6c20.7,0,34.4,13.5,34.4,33.6v3.4l2.4,2.4  l7.9-0.5l2.4-2.6v-2.2C905.3,18,886.6,0,858.2,0c-28.1,0-46.9,18-46.9,45.7v80.5C811.3,153.8,830.1,172,858.2,172z"/>
<path fill="#231F20" d="M1112.4,203c-3.1-8.3-9.4-12.9-18.4-12.9l-0.3-0.7l20.5-27.9l0.6-1.8v-6.3l-1.4-1.4h-46.5l-1.4,1.4v5.9  l1.4,1.4h34.9l0.3,0.7l-21.7,29.2l0.1,2l3.5,3.9l2,0.4l4.1-1c6.4,0,10.9,3.5,13.3,10c1.4,3.6,2.1,8.3,2.1,13.9  c0,4.6-0.6,8.7-1.4,11.9c-2.2,7.1-7,10.9-14,10.9c-7.7,0-12.8-4.8-14.4-12.5c-0.6-2.2-0.8-5.5-1-8.3l-1.4-1.4h-7.1l-1.4,1.4  c0.1,3.5,0.4,7.3,1.3,10.7c2.7,11.5,11.5,18.8,24.1,18.8c11.4,0,19.2-5.5,22.8-15.7c1.5-4.2,2.4-9.4,2.4-15.3  C1115.2,213.4,1114.3,207.5,1112.4,203z"/>
<path fill="#231F20" d="M639.1,730.8v75l-1,1h-64.9l-1-1v-75l-2.4-2.4h-7.9l-2.4,2.4v163.4l2.4,2.4h7.9l2.4-2.4V819l1-1h64.9l1,1  v75.2l2.4,2.4h7.9l2.4-2.4V730.8l-2.4-2.4h-7.9L639.1,730.8z M474.2,898.6c28.4,0,47.1-18,47.1-45.7v-2.2l-2.4-2.2l-7.9-0.5  l-2.4,2.4v2.9c0,20.4-13.7,33.9-34.4,33.9c-20.4,0-34.1-13.5-34.1-33.9v-81.9c0-20.2,13.7-33.6,34.1-33.6  c20.7,0,34.4,13.5,34.4,33.6v3.4l2.4,2.4l7.9-0.5l2.4-2.6v-2.2c0-27.4-18.7-45.4-47.1-45.4c-28.1,0-46.9,18-46.9,45.7v80.5  C427.4,880.3,446.1,898.6,474.2,898.6z"/>
<path fill="#231F20" d="M728.5,929.5c-3.1-8.3-9.4-12.9-18.4-12.9l-0.3-0.7l20.5-27.9l0.6-1.8v-6.3l-1.4-1.4h-46.5l-1.4,1.4v5.9  l1.4,1.4h34.9l0.3,0.7l-21.7,29.2l0.1,2l3.5,3.9l2,0.4l4.1-1c6.4,0,10.9,3.5,13.3,10c1.4,3.6,2.1,8.3,2.1,13.9  c0,4.6-0.6,8.7-1.4,11.9c-2.2,7.1-7,10.9-14,10.9c-7.7,0-12.8-4.8-14.4-12.5c-0.6-2.2-0.8-5.5-1-8.3l-1.4-1.4h-7.1l-1.4,1.4  c0.1,3.5,0.4,7.3,1.3,10.7c2.7,11.5,11.5,18.8,24.1,18.8c11.4,0,19.2-5.5,22.8-15.7c1.5-4.2,2.4-9.4,2.4-15.3  C731.3,939.9,730.3,934,728.5,929.5z"/>
<path fill="#231F20" d="M1023,725.3v75l-1,1h-64.9l-1-1v-75l-2.4-2.4h-7.9l-2.4,2.4v163.4l2.4,2.4h7.9l2.4-2.4v-75.2l1-1h64.9l1,1  v75.2l2.4,2.4h7.9l2.4-2.4V725.3l-2.4-2.4h-7.9L1023,725.3z M858.2,893c28.4,0,47.1-18,47.1-45.7v-2.2l-2.4-2.2l-7.9-0.5l-2.4,2.4  v2.9c0,20.4-13.7,33.9-34.4,33.9c-20.4,0-34.1-13.5-34.1-33.9v-81.9c0-20.2,13.7-33.6,34.1-33.6c20.7,0,34.4,13.5,34.4,33.6v3.4  l2.4,2.4l7.9-0.5l2.4-2.6v-2.2c0-27.4-18.7-45.4-47.1-45.4c-28.1,0-46.9,18-46.9,45.7v80.5C811.3,874.8,830.1,893,858.2,893z"/>
<path fill="#231F20" d="M1112.4,924c-3.1-8.3-9.4-12.9-18.4-12.9l-0.3-0.7l20.5-27.9l0.6-1.8v-6.3l-1.4-1.4h-46.5l-1.4,1.4v5.9  l1.4,1.4h34.9l0.3,0.7l-21.7,29.2l0.1,2l3.5,3.9l2,0.4l4.1-1c6.4,0,10.9,3.5,13.3,10c1.4,3.6,2.1,8.3,2.1,13.9  c0,4.6-0.6,8.7-1.4,11.9c-2.2,7.1-7,10.9-14,10.9c-7.7,0-12.8-4.8-14.4-12.5c-0.6-2.2-0.8-5.5-1-8.3l-1.4-1.4h-7.1l-1.4,1.4  c0.1,3.5,0.4,7.3,1.3,10.7c2.7,11.5,11.5,18.8,24.1,18.8c11.4,0,19.2-5.5,22.8-15.7c1.5-4.2,2.4-9.4,2.4-15.3  C1115.2,934.4,1114.3,928.5,1112.4,924z"/>
<g>
</g>
<g>
</g>
<g>
</g>
<g>
</g>
<g>
</g>
<g>
</g>
</svg>