<?xml version="1.0" encoding="UTF-8"?>
<!-- Generator: Adobe Illustrator 25.0.0, SVG Export Plug-In . SVG Version: 6.00 Build 0)  -->
<svg version="1.1" id="Layer_1" xmlns="http://www.w3.org/2000/svg" xmlns:xlink="http://www.w3.org/1999/xlink" x="0px" y="0px" viewBox="0 0 1280 520.2" enable-background="new 0 0 1280 520.2" xml:space="preserve">
<rect x="234.2" y="66.5" fill="#231F20" width="104.2" height="11.8"/>
<rect x="234.2" y="66.5" fill="#231F20" width="104.2" height="11.8"/>
<rect x="596.5" y="68.8" fill="#231F20" width="104.2" height="11.8"/>
<rect x="596.5" y="68.8" fill="#231F20" width="104.2" height="11.8"/>
<rect x="951.7" y="71.2" fill="#231F20" width="104.2" height="11.8"/>
<rect x="951.7" y="71.2" fill="#231F20" width="104.2" height="11.8"/>
<path fill="#231F20" d="M182.5,4.6l0.1,64.6l-0.8,0.8l-55.9,0.1l-0.8-0.8l-0.1-64.6l-2.1-2.1l-6.8,0l-2.1,2.1l0.2,140.9l2.1,2.1  l6.8,0l2.1-2.1L125,80.8l0.8-0.8l55.9-0.1l0.8,0.8l0.1,64.8l2.1,2.1l6.8,0l2.1-2.1L193.5,4.6l-2.1-2.1l-6.8,0L182.5,4.6z   M40.6,149.4c24.4,0,40.6-15.6,40.5-39.4l0-1.9l-2.1-1.9l-6.8-0.4l-2.1,2.1l0,2.5c0,17.6-11.8,29.2-29.6,29.3  c-17.6,0-29.4-11.6-29.5-29.2L11,39.8c0-17.4,11.8-29,29.4-29c17.8,0,29.6,11.6,29.7,29l0,2.9l2.1,2.1l6.8-0.4L81,42l0-1.9  C81,16.5,64.8,1,40.3,1.1C16.1,1.1,0,16.7,0,40.5l0.1,69.4C0.1,133.7,16.3,149.4,40.6,149.4z"/>
<path fill="#231F20" d="M259.8,176c-2.7-7.1-8.1-11.1-15.8-11.1l-0.2-0.6l17.6-24l0.5-1.6v-5.4l-1.2-1.2h-40.1l-1.2,1.2v5.1l1.2,1.2  h30.1l0.2,0.6l-18.7,25.1l0.1,1.7l3,3.4l1.7,0.4l3.5-0.8c5.6,0,9.4,3,11.5,8.6c1.2,3.1,1.8,7.1,1.8,12c0,4-0.5,7.5-1.2,10.3  c-1.9,6.2-6,9.4-12.1,9.4c-6.6,0-11-4.1-12.4-10.7c-0.5-1.9-0.7-4.7-0.8-7.1L226,191h-6.2l-1.2,1.2c0.1,3,0.4,6.3,1.1,9.2  c2.3,9.9,9.9,16.2,20.8,16.2c9.8,0,16.5-4.7,19.7-13.5c1.3-3.6,2.1-8.1,2.1-13.2C262.2,185,261.4,179.9,259.8,176z"/>
<path fill="#231F20" d="M906.9,3.9l0.1,64.6l-0.8,0.8l-55.9,0.1l-0.8-0.8L849.3,4l-2.1-2.1l-6.8,0L838.3,4l0.2,140.9l2.1,2.1l6.8,0  l2.1-2.1L849.4,80l0.8-0.8l55.9-0.1L907,80l0.1,64.8l2.1,2.1l6.8,0l2.1-2.1L917.8,3.9l-2.1-2.1l-6.8,0L906.9,3.9z M764.9,148.7  c24.4,0,40.6-15.6,40.5-39.4l0-1.9l-2.1-1.9l-6.8-0.4l-2.1,2.1l0,2.5c0,17.6-11.8,29.2-29.6,29.3c-17.6,0-29.4-11.6-29.5-29.2  l-0.1-70.6c0-17.4,11.8-29,29.4-29c17.8,0,29.6,11.6,29.7,29l0,2.9l2.1,2.1l6.8-0.4l2.1-2.3l0-1.9c0-23.6-16.2-39.1-40.7-39.1  c-24.2,0-40.4,15.6-40.3,39.4l0.1,69.4C724.5,133,740.7,148.7,764.9,148.7z M551.7,4.3l0.1,64.6l-0.8,0.8L495,69.8l-0.8-0.8  l-0.1-64.6L492,2.3l-6.8,0l-2.1,2.1l0.2,140.9l2.1,2.1l6.8,0l2.1-2.1l-0.1-64.8l0.8-0.8l55.9-0.1l0.8,0.8l0.1,64.8l2.1,2.1l6.8,0  l2.1-2.1L562.7,4.3l-2.1-2.1l-6.8,0L551.7,4.3z M409.8,149c24.4,0,40.6-15.6,40.5-39.4l0-1.9l-2.1-1.9l-6.8-0.4l-2.1,2.1l0,2.5  c0,17.6-11.8,29.2-29.6,29.3c-17.6,0-29.4-11.6-29.5-29.2l-0.1-70.6c0-17.4,11.8-29,29.4-29c17.8,0,29.6,11.6,29.7,29l0,2.9l2.1,2.1  l6.8-0.4l2.1-2.3l0-1.9c0-23.6-16.2-39.1-40.7-39.1c-24.2,0-40.4,15.6-40.3,39.4l0.1,69.4C369.3,133.4,385.5,149.1,409.8,149z"/>
<path fill="#231F20" d="M945.1,215.9h43l1.2-1.2v-5.1l-1.2-1.2h-32.8l-0.4-0.6c7.5-10.4,15-20.6,22-30.9c6.5-9.5,9.9-17.7,9.9-25.1  c0-12.6-8.5-21.4-21.5-21.4c-12.6,0-21.3,8.2-21.6,20.6v4.8l1.2,1.2h6.3l1.2-1.2v-4.1c-0.1-8.3,5-13.9,12.7-13.9  c7.8,0,13.2,5.6,13.2,13.9c0,5.9-3.5,13.4-9.5,22.2c-7.7,11-15.8,22.3-24.3,33.8l-0.5,1.6v5.3L945.1,215.9z"/>
<path fill="#231F20" d="M1268.8,3.6l0.1,64.6l-0.8,0.8l-55.9,0.1l-0.8-0.8l-0.1-64.6l-2.1-2.1l-6.8,0l-2.1,2.1l0.2,140.9l2.1,2.1  l6.8,0l2.1-2.1l-0.1-64.8l0.8-0.8l55.9-0.1l0.8,0.8l0.1,64.8l2.1,2.1l6.8,0l2.1-2.1l-0.2-140.9l-2.1-2.1l-6.8,0L1268.8,3.6z   M1124.6,138.6c-17.8,0-29.9-12.4-29.9-30.6l-0.1-67.1c0-18.6,12-31.1,29.8-31.1c18.2,0,30.5,12.4,30.5,31l0.1,67.1  C1155,126.1,1142.8,138.6,1124.6,138.6z M1124.6,148.3c24.7,0,41.4-16.4,41.4-41.1l-0.1-66.3c0-24.4-16.8-41-41.5-41  c-24.4,0-40.8,16.6-40.8,41.1l0.1,66.3C1083.8,132,1100.2,148.4,1124.6,148.3z"/>
<rect x="397.6" y="175.4" fill="#231F20" width="11.8" height="104.2"/>
<rect x="397.6" y="175.4" fill="#231F20" width="11.8" height="104.2"/>
<path fill="#231F20" d="M546.2,308.5v64.3l-0.8,0.8h-55.6l-0.8-0.8v-64.3l-2.1-2.1h-6.8l-2.1,2.1v140.1l2.1,2.1h6.8l2.1-2.1v-64.5  l0.8-0.8h55.6l0.8,0.8v64.5l2.1,2.1h6.8l2.1-2.1V308.5l-2.1-2.1h-6.8L546.2,308.5z M404.9,452.3c24.3,0,40.4-15.4,40.4-39.1v-1.9  l-2.1-1.9l-6.8-0.4l-2.1,2.1v2.5c0,17.5-11.7,29-29.5,29c-17.5,0-29.2-11.5-29.2-29v-70.2c0-17.3,11.7-28.8,29.2-28.8  c17.7,0,29.5,11.5,29.5,28.8v2.9l2.1,2.1l6.8-0.4l2.1-2.3v-1.9c0-23.5-16.1-38.9-40.4-38.9c-24.1,0-40.2,15.4-40.2,39.1v69  C364.8,436.6,380.8,452.3,404.9,452.3z"/>
<path fill="#231F20" d="M622.9,478.8c-2.6-7.1-8-11.1-15.7-11.1l-0.2-0.6l17.5-23.9l0.5-1.6v-5.4l-1.2-1.2h-39.9l-1.2,1.2v5l1.2,1.2  h29.9l0.2,0.6l-18.6,25l0.1,1.7l3,3.4l1.7,0.4l3.5-0.8c5.5,0,9.4,3,11.4,8.5c1.2,3.1,1.8,7.1,1.8,11.9c0,4-0.5,7.4-1.2,10.2  c-1.9,6.1-6,9.4-12,9.4c-6.6,0-10.9-4.1-12.4-10.7c-0.5-1.9-0.7-4.7-0.8-7.1l-1.2-1.2h-6.1l-1.2,1.2c0.1,3,0.4,6.2,1.1,9.1  c2.3,9.9,9.9,16.1,20.7,16.1c9.7,0,16.5-4.7,19.6-13.5c1.3-3.6,2-8,2-13.1C625.3,487.7,624.4,482.7,622.9,478.8z"/>
<g>
</g>
<g>
</g>
<g>
</g>
<g>
</g>
<g>
</g>
<g>
</g>
</svg>