<?xml version="1.0" encoding="UTF-8"?>
<!-- Generator: Adobe Illustrator 25.0.0, SVG Export Plug-In . SVG Version: 6.00 Build 0)  -->
<svg version="1.1" id="Layer_1" xmlns="http://www.w3.org/2000/svg" xmlns:xlink="http://www.w3.org/1999/xlink" x="0px" y="0px" viewBox="0 0 1280 816.7" enable-background="new 0 0 1280 816.7" xml:space="preserve">
<rect x="105.2" y="511.7" fill="#231F20" width="335.5" height="8.9"/>
<rect x="105.2" y="511.7" fill="#3D3225" width="335.5" height="8.9"/>
<polygon fill="#231F20" points="491,208.5 401.5,487.4 409.9,490.1 499.5,211.2 "/>
<rect x="304" y="344.9" transform="matrix(0.3058 -0.9521 0.9521 0.3058 -19.833 671.403)" fill="#3D3225" width="292.9" height="8.9"/>
<rect x="52" y="192.2" transform="matrix(0.9502 -0.3117 0.3117 0.9502 -109.3962 35.5281)" fill="#231F20" width="8.9" height="335.5"/>
<polygon fill="#3D3225" points="8.4,199.2 0,201.9 104.4,520.7 112.9,518 "/>
<polygon fill="#231F20" points="538,199.3 432.6,517.8 441,520.6 546.5,202.1 "/>
<polygon fill="#3D3225" points="538,199.3 432.6,517.8 441,520.6 546.5,202.1 "/>
<polygon fill="#231F20" points="269.5,0 1.3,201.6 6.7,208.7 274.8,7.1 "/>
<polygon fill="#3D3225" points="269.5,0 1.3,201.6 6.7,208.7 274.8,7.1 "/>
<rect x="399.9" y="-63.4" transform="matrix(0.5989 -0.8008 0.8008 0.5989 78.6144 365.6417)" fill="#231F20" width="8.9" height="335.5"/>
<rect x="399.9" y="-63.4" transform="matrix(0.5989 -0.8008 0.8008 0.5989 78.6144 365.6417)" fill="#3D3225" width="8.9" height="335.5"/>
<rect x="921.7" y="119.4" fill="#231F20" width="136.7" height="8.9"/>
<rect x="921.7" y="119.4" fill="#3D3225" width="136.7" height="8.9"/>
<rect x="749.6" y="703.4" fill="#231F20" width="136.6" height="8.9"/>
<rect x="749.6" y="703.4" fill="#3D3225" width="136.6" height="8.9"/>
<polygon fill="#231F20" points="724.4,137.4 539.3,199.6 542.2,208 727.2,145.8 "/>
<polygon fill="#3D3225" points="724.4,137.4 539.3,199.6 542.2,208 727.2,145.8 "/>
<polygon fill="#231F20" points="444.4,513.4 437.3,518.7 554.2,675.1 561.3,669.8 "/>
<polygon fill="#3D3225" points="444.4,513.4 437.3,518.7 554.2,675.1 561.3,669.8 "/>
<path fill="#231F20" d="M1042.7,657.1l0.1,48.4l-0.6,0.6l-41.9,0.1l-0.6-0.6l-0.1-48.4l-1.6-1.6l-5.1,0l-1.6,1.6l0.2,105.6l1.6,1.6  l5.1,0l1.6-1.6l-0.1-48.6l0.6-0.6l41.9-0.1l0.6,0.6l0.1,48.6l1.6,1.6l5.1,0l1.6-1.6l-0.2-105.6l-1.6-1.6l-5.1,0L1042.7,657.1z   M936.4,765.6c18.3,0,30.4-11.7,30.4-29.5l0-1.4l-1.6-1.4l-5.1-0.3l-1.6,1.6l0,1.9c0,13.2-8.8,21.9-22.2,21.9  c-13.2,0-22.1-8.7-22.1-21.9l-0.1-53c0-13,8.8-21.8,22-21.8c13.4,0,22.2,8.7,22.2,21.7l0,2.2l1.6,1.6l5.1-0.3l1.6-1.7l0-1.4  c0-17.7-12.2-29.3-30.5-29.3c-18.2,0-30.3,11.7-30.2,29.5l0.1,52C906.1,753.8,918.2,765.6,936.4,765.6z"/>
<path fill="#231F20" d="M1100.7,785.6c-2-5.3-6.1-8.3-11.9-8.3l-0.2-0.5l13.2-18l0.4-1.2v-4.1l-0.9-0.9h-30l-0.9,0.9v3.8l0.9,0.9  h22.5l0.2,0.5l-14,18.8l0.1,1.3l2.3,2.5l1.3,0.3l2.6-0.6c4.2,0,7.1,2.3,8.6,6.4c0.9,2.4,1.4,5.3,1.4,9c0,3-0.4,5.6-0.9,7.7  c-1.4,4.6-4.5,7.1-9.1,7.1c-5,0-8.2-3.1-9.3-8.1c-0.4-1.4-0.5-3.5-0.6-5.3l-0.9-0.9h-4.6l-0.9,0.9c0.1,2.3,0.3,4.7,0.8,6.9  c1.7,7.4,7.4,12.1,15.6,12.1c7.3,0,12.4-3.5,14.8-10.1c1-2.7,1.5-6.1,1.5-9.9C1102.5,792.2,1101.9,788.4,1100.7,785.6z"/>
<path fill="#231F20" d="M1220.3,66l0.1,48.4l-0.6,0.6l-41.9,0.1l-0.6-0.6l-0.1-48.4l-1.6-1.6l-5.1,0l-1.6,1.6l0.2,105.6l1.6,1.6  l5.1,0l1.6-1.6l-0.1-48.6l0.6-0.6l41.9-0.1l0.6,0.6l0.1,48.6l1.6,1.6l5.1,0l1.6-1.6l-0.2-105.6l-1.6-1.6l-5.1,0L1220.3,66z   M1113.9,174.5c18.3,0,30.4-11.7,30.4-29.5l0-1.4l-1.6-1.4l-5.1-0.3l-1.6,1.6l0,1.9c0,13.2-8.8,21.9-22.2,21.9  c-13.2,0-22.1-8.7-22.1-21.9l-0.1-53c0-13,8.8-21.8,22-21.8c13.4,0,22.2,8.7,22.2,21.7l0,2.2l1.6,1.6l5.1-0.3l1.6-1.7l0-1.4  c0-17.7-12.2-29.3-30.5-29.3c-18.2,0-30.3,11.7-30.2,29.5l0.1,52C1083.6,162.7,1095.7,174.5,1113.9,174.5z"/>
<path fill="#231F20" d="M1278.2,194.5c-2-5.3-6.1-8.3-11.9-8.3l-0.2-0.5l13.2-18l0.4-1.2v-4.1l-0.9-0.9h-30l-0.9,0.9v3.8l0.9,0.9  h22.5l0.2,0.5l-14,18.8l0.1,1.3l2.3,2.5l1.3,0.3l2.6-0.6c4.2,0,7.1,2.3,8.6,6.4c0.9,2.4,1.4,5.3,1.4,9c0,3-0.4,5.6-0.9,7.7  c-1.4,4.6-4.5,7.1-9.1,7.1c-5,0-8.2-3.1-9.3-8.1c-0.4-1.4-0.5-3.5-0.6-5.3l-0.9-0.9h-4.6l-0.9,0.9c0.1,2.3,0.3,4.7,0.8,6.9  c1.7,7.4,7.4,12.1,15.6,12.1c7.3,0,12.4-3.5,14.8-10.1c1-2.7,1.5-6.1,1.5-9.9C1280,201.2,1279.4,197.4,1278.2,194.5z"/>
<path fill="#231F20" d="M879.5,66l0.1,48.4l-0.6,0.6l-41.9,0.1l-0.6-0.6l-0.1-48.4l-1.6-1.6l-5.1,0l-1.6,1.6l0.2,105.6l1.6,1.6  l5.1,0l1.6-1.6l-0.1-48.6l0.6-0.6l41.9-0.1l0.6,0.6l0.1,48.6l1.6,1.6l5.1,0l1.6-1.6L887.7,66l-1.6-1.6l-5.1,0L879.5,66z   M773.1,174.5c18.3,0,30.4-11.7,30.4-29.5l0-1.4l-1.6-1.4l-5.1-0.3l-1.6,1.6l0,1.9c0,13.2-8.8,21.9-22.2,21.9  c-13.2,0-22.1-8.7-22.1-21.9l-0.1-53c0-13,8.8-21.8,22-21.8c13.4,0,22.2,8.7,22.2,21.7l0,2.2l1.6,1.6l5.1-0.3l1.6-1.7l0-1.4  c0-17.7-12.2-29.3-30.5-29.3c-18.2,0-30.3,11.7-30.2,29.5l0.1,52C742.8,162.8,754.9,174.6,773.1,174.5z"/>
<path fill="#231F20" d="M908.1,224.9h32.2l0.9-0.9v-3.8l-0.9-0.9h-24.6l-0.3-0.5c5.6-7.8,11.2-15.5,16.5-23.2  c4.9-7.2,7.4-13.3,7.4-18.8c0-9.4-6.3-16-16.1-16c-9.4,0-15.9,6.2-16.2,15.5v3.6l0.9,0.9h4.7l0.9-0.9v-3.1  c-0.1-6.2,3.7-10.4,9.5-10.4c5.9,0,9.9,4.2,9.9,10.4c0,4.4-2.6,10-7.1,16.7c-5.8,8.2-11.9,16.7-18.2,25.3l-0.4,1.2v4L908.1,224.9z"/>
<path fill="#231F20" d="M712.6,655.3l0.1,48.4l-0.6,0.6l-41.9,0.1l-0.6-0.6l-0.1-48.4l-1.6-1.6l-5.1,0l-1.6,1.6l0.2,105.6l1.6,1.6  l5.1,0l1.6-1.6l-0.1-48.6l0.6-0.6l41.9-0.1l0.6,0.6l0.1,48.6l1.6,1.6l5.1,0l1.6-1.6l-0.2-105.6l-1.6-1.6l-5.1,0L712.6,655.3z   M606.2,763.8c18.3,0,30.4-11.7,30.4-29.5l0-1.4l-1.6-1.4l-5.1-0.3l-1.6,1.6l0,1.9c0,13.2-8.8,21.9-22.2,21.9  c-13.2,0-22.1-8.7-22.1-21.9l-0.1-53c0-13,8.8-21.8,22-21.8c13.4,0,22.2,8.7,22.2,21.7l0,2.2l1.6,1.6l5.1-0.3l1.6-1.7l0-1.4  c0-17.7-12.2-29.3-30.5-29.3c-18.2,0-30.3,11.7-30.2,29.5l0.1,52C576,752,588.1,763.8,606.2,763.8z"/>
<path fill="#231F20" d="M741.2,814.2h32.2l0.9-0.9v-3.8l-0.9-0.9h-24.6l-0.3-0.5c5.6-7.8,11.2-15.5,16.5-23.2  c4.9-7.2,7.4-13.3,7.4-18.8c0-9.4-6.3-16-16.1-16c-9.4,0-15.9,6.2-16.2,15.5v3.6l0.9,0.9h4.7l0.9-0.9v-3.1  c-0.1-6.2,3.7-10.4,9.5-10.4c5.9,0,9.9,4.2,9.9,10.4c0,4.4-2.6,10-7.2,16.7c-5.8,8.2-11.9,16.7-18.2,25.3l-0.4,1.2v4L741.2,814.2z"/>
<g>
</g>
<g>
</g>
<g>
</g>
<g>
</g>
<g>
</g>
<g>
</g>
</svg>