<?xml version="1.0" encoding="UTF-8"?>
<!-- Generator: Adobe Illustrator 25.0.0, SVG Export Plug-In . SVG Version: 6.00 Build 0)  -->
<svg version="1.1" id="Layer_1" xmlns="http://www.w3.org/2000/svg" xmlns:xlink="http://www.w3.org/1999/xlink" x="0px" y="0px" viewBox="0 0 1280 188.4" enable-background="new 0 0 1280 188.4" xml:space="preserve">
<path fill="#231F20" d="M733.6,100.9h4.3V63.4h-4.3V100.9z M716.6,100.9h4.3V63.4h-4.3V100.9z"/>
<path fill="#231F20" d="M737.9,63.4h-4.3v37.5h4.3V63.4z M720.9,63.4h-4.3v37.5h4.3V63.4z"/>
<rect x="84.2" y="134.9" fill="#231F20" width="37.5" height="4.2"/>
<rect x="84.2" y="134.9" fill="#231F20" width="37.5" height="4.2"/>
<rect x="225.5" y="134.9" fill="#231F20" width="37.5" height="4.2"/>
<rect x="225.5" y="134.9" fill="#231F20" width="37.5" height="4.2"/>
<rect x="371" y="135.8" fill="#231F20" width="37.5" height="4.2"/>
<rect x="371" y="135.8" fill="#231F20" width="37.5" height="4.2"/>
<rect x="515.7" y="135.8" fill="#231F20" width="37.4" height="4.2"/>
<rect x="515.7" y="135.8" fill="#231F20" width="37.4" height="4.2"/>
<rect x="657.9" y="134.9" fill="#231F20" width="37.4" height="4.2"/>
<rect x="657.9" y="134.9" fill="#231F20" width="37.4" height="4.2"/>
<rect x="748.1" y="135.8" fill="#231F20" width="37.5" height="4.2"/>
<rect x="748.1" y="135.8" fill="#231F20" width="37.5" height="4.2"/>
<rect x="842.6" y="135.8" fill="#231F20" width="37.4" height="4.2"/>
<rect x="842.6" y="135.8" fill="#231F20" width="37.4" height="4.2"/>
<rect x="986.4" y="136.6" fill="#231F20" width="37.5" height="4.3"/>
<rect x="986.4" y="136.6" fill="#231F20" width="37.5" height="4.3"/>
<rect x="1132.8" y="134.1" fill="#231F20" width="37.4" height="4.2"/>
<rect x="1132.8" y="134.1" fill="#231F20" width="37.4" height="4.2"/>
<path fill="#231F20" d="M65.6,111.9l0,23.2l-0.3,0.3l-20.1,0l-0.3-0.3l0-23.2l-0.7-0.7l-2.5,0l-0.7,0.7l0.1,50.6l0.7,0.7l2.5,0  l0.7-0.7l0-23.3l0.3-0.3l20.1,0l0.3,0.3l0,23.3l0.7,0.7l2.5,0l0.7-0.7l-0.1-50.6l-0.7-0.7l-2.5,0L65.6,111.9z M14.6,163.9  c8.8,0,14.6-5.6,14.6-14.2l0-0.7l-0.7-0.7l-2.5-0.1l-0.7,0.7l0,0.9c0,6.3-4.2,10.5-10.6,10.5c-6.3,0-10.6-4.2-10.6-10.5l0-25.4  c0-6.3,4.2-10.4,10.6-10.4c6.4,0,10.7,4.2,10.7,10.4l0,1l0.7,0.7l2.5-0.2l0.7-0.8l0-0.7c0-8.5-5.8-14.1-14.6-14.1  c-8.7,0-14.5,5.6-14.5,14.2l0,24.9C0,158.3,5.9,163.9,14.6,163.9z"/>
<path fill="#231F20" d="M93.4,173.5c-1-2.6-2.9-4-5.7-4l-0.1-0.2l6.3-8.6l0.2-0.6v-2l-0.4-0.4H79.3l-0.4,0.4v1.8l0.4,0.4h10.8  l0.1,0.2l-6.7,9l0,0.6l1.1,1.2l0.6,0.1l1.3-0.3c2,0,3.4,1.1,4.1,3.1c0.4,1.1,0.7,2.6,0.7,4.3c0,1.4-0.2,2.7-0.4,3.7  c-0.7,2.2-2.2,3.4-4.3,3.4c-2.4,0-3.9-1.5-4.5-3.9c-0.2-0.7-0.3-1.7-0.3-2.6l-0.4-0.4H79l-0.4,0.4c0,1.1,0.1,2.3,0.4,3.3  c0.8,3.6,3.6,5.8,7.5,5.8c3.5,0,5.9-1.7,7.1-4.9c0.5-1.3,0.7-2.9,0.7-4.7C94.3,176.7,93.9,174.9,93.4,173.5z"/>
<path fill="#231F20" d="M198.3,111.7l0,23.2l-0.3,0.3l-20.1,0l-0.3-0.3l0-23.2l-0.7-0.7l-2.5,0l-0.7,0.7l0.1,50.6l0.7,0.7l2.5,0  l0.7-0.7l0-23.3l0.3-0.3l20.1,0l0.3,0.3l0,23.3l0.7,0.7l2.5,0l0.7-0.7l-0.1-50.6l-0.7-0.7l-2.5,0L198.3,111.7z M147.3,163.8  c8.8,0,14.6-5.6,14.6-14.2l0-0.7l-0.7-0.7l-2.5-0.1l-0.7,0.7l0,0.9c0,6.3-4.2,10.5-10.6,10.5c-6.3,0-10.6-4.2-10.6-10.5l0-25.4  c0-6.3,4.2-10.4,10.6-10.4c6.4,0,10.7,4.2,10.7,10.4l0,1l0.7,0.7l2.5-0.2l0.7-0.8l0-0.7c0-8.5-5.8-14.1-14.6-14.1  c-8.7,0-14.5,5.6-14.5,14.2l0,24.9C132.8,158.1,138.6,163.8,147.3,163.8z"/>
<path fill="#231F20" d="M212,187.9h15.5l0.4-0.4v-1.8l-0.4-0.4h-11.8l-0.1-0.2c2.7-3.7,5.4-7.4,7.9-11.1c2.3-3.4,3.6-6.4,3.6-9  c0-4.5-3-7.7-7.7-7.7c-4.5,0-7.6,3-7.8,7.4v1.7l0.4,0.4h2.3l0.4-0.4v-1.5c0-3,1.8-5,4.6-5c2.8,0,4.7,2,4.7,5c0,2.1-1.3,4.8-3.4,8  c-2.8,3.9-5.7,8-8.7,12.2l-0.2,0.6v1.9L212,187.9z"/>
<path fill="#231F20" d="M346.5,111.6l0,23.2l-0.3,0.3l-20.1,0l-0.3-0.3l0-23.2l-0.7-0.7l-2.5,0l-0.7,0.7l0.1,50.6l0.7,0.7l2.5,0  l0.7-0.7l0-23.3l0.3-0.3l20.1,0l0.3,0.3l0,23.3l0.7,0.7l2.5,0l0.7-0.7l-0.1-50.6l-0.7-0.7l-2.5,0L346.5,111.6z M295.5,163.6  c8.8,0,14.6-5.6,14.6-14.2l0-0.7l-0.7-0.7l-2.5-0.1l-0.7,0.7l0,0.9c0,6.3-4.2,10.5-10.6,10.5c-6.3,0-10.6-4.2-10.6-10.5l0-25.4  c0-6.3,4.2-10.4,10.6-10.4c6.4,0,10.7,4.2,10.7,10.4l0,1l0.7,0.7l2.5-0.2l0.7-0.8l0-0.7c0-8.5-5.8-14.1-14.6-14.1  c-8.7,0-14.5,5.6-14.5,14.2l0,24.9C281,158,286.8,163.6,295.5,163.6z"/>
<path fill="#231F20" d="M360.3,187.8h15.5l0.4-0.4v-1.8l-0.4-0.4h-11.8l-0.1-0.2c2.7-3.7,5.4-7.4,7.9-11.1c2.3-3.4,3.6-6.4,3.6-9  c0-4.5-3-7.7-7.7-7.7c-4.5,0-7.6,3-7.8,7.4v1.7l0.4,0.4h2.3l0.4-0.4v-1.5c0-3,1.8-5,4.6-5c2.8,0,4.7,2,4.7,5c0,2.1-1.3,4.8-3.4,8  c-2.8,3.9-5.7,8-8.7,12.2l-0.2,0.6v1.9L360.3,187.8z"/>
<path fill="#231F20" d="M493.5,111.4l0,23.2l-0.3,0.3l-20.1,0l-0.3-0.3l0-23.2l-0.7-0.7l-2.5,0l-0.7,0.7l0.1,50.6l0.7,0.7l2.5,0  l0.7-0.7l0-23.3l0.3-0.3l20.1,0l0.3,0.3l0,23.3l0.7,0.7l2.5,0l0.7-0.7l-0.1-50.6l-0.7-0.7l-2.5,0L493.5,111.4z M442.5,163.5  c8.8,0,14.6-5.6,14.6-14.2l0-0.7l-0.7-0.7l-2.5-0.1l-0.7,0.7l0,0.9c0,6.3-4.2,10.5-10.6,10.5c-6.3,0-10.6-4.2-10.6-10.5l0-25.4  c0-6.3,4.2-10.4,10.6-10.4c6.4,0,10.7,4.2,10.7,10.4l0,1l0.7,0.7l2.5-0.2l0.7-0.8l0-0.7c0-8.5-5.8-14.1-14.6-14.1  c-8.7,0-14.5,5.6-14.5,14.2l0,24.9C427.9,157.8,433.7,163.5,442.5,163.5z"/>
<path fill="#231F20" d="M507.2,187.6h15.5l0.4-0.4v-1.8l-0.4-0.4h-11.8l-0.1-0.2c2.7-3.7,5.4-7.4,7.9-11.1c2.3-3.4,3.6-6.4,3.6-9  c0-4.5-3-7.7-7.7-7.7c-4.5,0-7.6,3-7.8,7.4v1.7l0.4,0.4h2.3l0.4-0.4v-1.5c0-3,1.8-5,4.6-5c2.8,0,4.7,2,4.7,5c0,2.1-1.3,4.8-3.4,8  c-2.8,3.9-5.7,8-8.7,12.2l-0.2,0.6v1.9L507.2,187.6z"/>
<path fill="#231F20" d="M631.5,111.3l0,23.2l-0.3,0.3l-20.1,0l-0.3-0.3l0-23.2l-0.7-0.7l-2.5,0l-0.7,0.7l0.1,50.6l0.7,0.7l2.5,0  l0.7-0.7l0-23.3l0.3-0.3l20.1,0l0.3,0.3l0,23.3l0.7,0.7l2.5,0l0.7-0.7l-0.1-50.6l-0.7-0.7l-2.5,0L631.5,111.3z M580.5,163.3  c8.8,0,14.6-5.6,14.6-14.2l0-0.7l-0.7-0.7l-2.5-0.1l-0.7,0.7l0,0.9c0,6.3-4.2,10.5-10.6,10.5c-6.3,0-10.6-4.2-10.6-10.5l0-25.4  c0-6.3,4.2-10.4,10.6-10.4c6.4,0,10.7,4.2,10.7,10.4l0,1l0.7,0.7l2.5-0.2l0.7-0.8l0-0.7c0-8.5-5.8-14.1-14.6-14.1  c-8.7,0-14.5,5.6-14.5,14.2l0,24.9C566,157.7,571.8,163.4,580.5,163.3z"/>
<path fill="#231F20" d="M645.2,187.5h15.5l0.4-0.4v-1.8l-0.4-0.4h-11.8l-0.1-0.2c2.7-3.7,5.4-7.4,7.9-11.1c2.3-3.4,3.6-6.4,3.6-9  c0-4.5-3-7.7-7.7-7.7c-4.5,0-7.6,3-7.8,7.4v1.7l0.4,0.4h2.3l0.4-0.4v-1.5c0-3,1.8-5,4.6-5c2.8,0,4.7,2,4.7,5c0,2.1-1.3,4.8-3.4,8  c-2.8,3.9-5.7,8-8.7,12.2l-0.2,0.6v1.9L645.2,187.5z"/>
<path fill="#231F20" d="M965.1,111l0,23.2l-0.3,0.3l-20.1,0l-0.3-0.3l0-23.2l-0.7-0.7l-2.5,0l-0.7,0.7l0.1,50.6l0.7,0.7l2.5,0  l0.7-0.7l0-23.3l0.3-0.3l20.1,0l0.3,0.3l0,23.3l0.7,0.7l2.5,0l0.7-0.7L969,111l-0.7-0.7l-2.5,0L965.1,111z M914.1,163  c8.8,0,14.6-5.6,14.6-14.2l0-0.7l-0.7-0.7l-2.5-0.1l-0.7,0.7l0,0.9c0,6.3-4.2,10.5-10.6,10.5c-6.3,0-10.6-4.2-10.6-10.5l0-25.4  c0-6.3,4.2-10.4,10.6-10.4c6.4,0,10.7,4.2,10.7,10.4l0,1l0.7,0.7l2.5-0.2l0.7-0.8l0-0.7c0-8.5-5.8-14.1-14.6-14.1  c-8.7,0-14.5,5.6-14.5,14.2l0,24.9C899.5,157.4,905.3,163,914.1,163z M812.8,159.6c-6.4,0-10.7-4.5-10.7-11l0-24.1  c0-6.7,4.3-11.2,10.7-11.2c6.6,0,11,4.5,11,11.2l0,24.1C823.7,155.1,819.3,159.6,812.8,159.6z M812.8,163.1  c8.9,0,14.9-5.9,14.9-14.8l0-23.8c0-8.8-6.1-14.7-14.9-14.7c-8.8,0-14.7,6-14.6,14.8l0,23.8C798.1,157.3,804,163.1,812.8,163.1z   M727.4,163.2c8.8,0,14.6-5.6,14.6-14.2l0-0.7l-0.7-0.7l-2.5-0.1l-0.7,0.7l0,0.9c0,6.3-4.2,10.5-10.6,10.5  c-6.3,0-10.6-4.2-10.6-10.5l0-25.4c0-6.3,4.2-10.4,10.6-10.4c6.4,0,10.7,4.2,10.7,10.4l0,1l0.7,0.7l2.5-0.2l0.7-0.8l0-0.7  c0-8.5-5.8-14.1-14.6-14.1c-8.7,0-14.5,5.6-14.5,14.2l0,24.9C712.9,157.6,718.7,163.2,727.4,163.2z"/>
<path fill="#231F20" d="M978.8,187.2h15.5l0.4-0.4v-1.8l-0.4-0.4h-11.8l-0.1-0.2c2.7-3.7,5.4-7.4,7.9-11.1c2.3-3.4,3.6-6.4,3.6-9  c0-4.5-3-7.7-7.7-7.7c-4.5,0-7.6,3-7.8,7.4v1.7l0.4,0.4h2.3l0.4-0.4v-1.5c0-3,1.8-5,4.6-5c2.8,0,4.7,2,4.7,5c0,2.1-1.3,4.8-3.4,8  c-2.8,3.9-5.7,8-8.7,12.2l-0.2,0.6v1.9L978.8,187.2z"/>
<path fill="#231F20" d="M1103.1,110.8l0,23.2l-0.3,0.3l-20.1,0l-0.3-0.3l0-23.2l-0.7-0.7l-2.5,0l-0.7,0.7l0.1,50.6l0.7,0.7l2.5,0  l0.7-0.7l0-23.3l0.3-0.3l20.1,0l0.3,0.3l0,23.3l0.7,0.7l2.5,0l0.7-0.7l-0.1-50.6l-0.7-0.7l-2.5,0L1103.1,110.8z M1052.1,162.9  c8.8,0,14.6-5.6,14.6-14.2l0-0.7l-0.7-0.7l-2.5-0.1l-0.7,0.7l0,0.9c0,6.3-4.2,10.5-10.6,10.5c-6.3,0-10.6-4.2-10.6-10.5l0-25.4  c0-6.3,4.2-10.4,10.6-10.4c6.4,0,10.7,4.2,10.7,10.4l0,1l0.7,0.7l2.5-0.2l0.7-0.8l0-0.7c0-8.5-5.8-14.1-14.6-14.1  c-8.7,0-14.5,5.6-14.5,14.2l0,24.9C1037.6,157.2,1043.4,162.9,1052.1,162.9z"/>
<path fill="#231F20" d="M1116.8,187h15.5l0.4-0.4v-1.8l-0.4-0.4h-11.8l-0.1-0.2c2.7-3.7,5.4-7.4,7.9-11.1c2.3-3.4,3.6-6.4,3.6-9  c0-4.5-3-7.7-7.7-7.7c-4.5,0-7.6,3-7.8,7.4v1.7l0.4,0.4h2.3l0.4-0.4V164c0-3,1.8-5,4.6-5c2.8,0,4.7,2,4.7,5c0,2.1-1.3,4.8-3.4,8  c-2.8,3.9-5.7,8-8.7,12.2l-0.2,0.6v1.9L1116.8,187z"/>
<path fill="#231F20" d="M1251.3,110.7l0,23.2l-0.3,0.3l-20.1,0l-0.3-0.3l0-23.2l-0.7-0.7l-2.5,0l-0.7,0.7l0.1,50.6l0.7,0.7l2.5,0  l0.7-0.7l0-23.3l0.3-0.3l20.1,0l0.3,0.3l0,23.3l0.7,0.7l2.5,0l0.7-0.7l-0.1-50.6l-0.7-0.7l-2.5,0L1251.3,110.7z M1200.3,162.7  c8.8,0,14.6-5.6,14.6-14.2l0-0.7l-0.7-0.7l-2.5-0.1l-0.7,0.7l0,0.9c0,6.3-4.2,10.5-10.6,10.5c-6.3,0-10.6-4.2-10.6-10.5l0-25.4  c0-6.3,4.2-10.4,10.6-10.4c6.4,0,10.7,4.2,10.7,10.4l0,1l0.7,0.7l2.5-0.2l0.7-0.8l0-0.7c0-8.5-5.8-14.1-14.6-14.1  c-8.7,0-14.5,5.6-14.5,14.2l0,24.9C1185.8,157.1,1191.6,162.7,1200.3,162.7z"/>
<path fill="#231F20" d="M1279.1,172.3c-1-2.6-2.9-4-5.7-4l-0.1-0.2l6.3-8.6l0.2-0.6v-2l-0.4-0.4H1265l-0.4,0.4v1.8l0.4,0.4h10.8  l0.1,0.2l-6.7,9l0,0.6l1.1,1.2l0.6,0.1l1.3-0.3c2,0,3.4,1.1,4.1,3.1c0.4,1.1,0.7,2.6,0.7,4.3c0,1.4-0.2,2.7-0.4,3.7  c-0.7,2.2-2.2,3.4-4.3,3.4c-2.4,0-3.9-1.5-4.5-3.9c-0.2-0.7-0.3-1.7-0.3-2.6l-0.4-0.4h-2.2l-0.4,0.4c0,1.1,0.1,2.3,0.4,3.3  c0.8,3.6,3.6,5.8,7.5,5.8c3.5,0,5.9-1.7,7.1-4.9c0.5-1.3,0.7-2.9,0.7-4.7C1280,175.5,1279.7,173.7,1279.1,172.3z"/>
<path fill="#231F20" d="M728.5,49.5c-6.4,0-10.7-4.4-10.7-11v-24c0-6.7,4.3-11.1,10.7-11.1c6.5,0,10.9,4.4,10.9,11.1v24  C739.4,45.1,735,49.5,728.5,49.5z M728.5,53c8.8,0,14.8-5.8,14.8-14.7V14.7c0-8.7-6-14.7-14.8-14.7c-8.7,0-14.6,5.9-14.6,14.7v23.7  C713.9,47.2,719.8,53,728.5,53z"/>
<g>
</g>
<g>
</g>
<g>
</g>
<g>
</g>
<g>
</g>
<g>
</g>
</svg>