<?xml version="1.0" encoding="UTF-8"?>
<!-- Generator: Adobe Illustrator 25.0.0, SVG Export Plug-In . SVG Version: 6.00 Build 0)  -->
<svg version="1.1" id="Layer_1" xmlns="http://www.w3.org/2000/svg" xmlns:xlink="http://www.w3.org/1999/xlink" x="0px" y="0px" viewBox="0 0 1280 430.2" enable-background="new 0 0 1280 430.2" xml:space="preserve">
<rect x="193.3" y="308.6" fill="#231F20" width="85.1" height="9.7"/>
<rect x="193.3" y="308.6" fill="#231F20" width="85.1" height="9.7"/>
<rect x="514.5" y="308.6" fill="#231F20" width="85.1" height="9.7"/>
<rect x="514.5" y="308.6" fill="#231F20" width="85.1" height="9.7"/>
<rect x="816.3" y="310.6" fill="#231F20" width="85.1" height="9.7"/>
<rect x="816.3" y="310.6" fill="#231F20" width="85.1" height="9.7"/>
<rect x="1011.8" y="310.6" fill="#231F20" width="85.1" height="9.7"/>
<rect x="1011.8" y="310.6" fill="#231F20" width="85.1" height="9.7"/>
<rect x="665.4" y="144.2" fill="#231F20" width="9.7" height="85.1"/>
<rect x="665.4" y="144.2" fill="#231F20" width="9.7" height="85.1"/>
<path fill="#231F20" d="M975,231.3h9.7v-85.1H975V231.3z M936.3,231.3h9.7v-85.1h-9.7V231.3z"/>
<path fill="#231F20" d="M984.7,146.1H975v85.1h9.7V146.1z M946,146.1h-9.7v85.1h9.7V146.1z"/>
<path fill="#231F20" d="M149.1,256.2l0.1,52.8l-0.7,0.7l-45.7,0.1l-0.7-0.7l-0.1-52.8l-1.7-1.7l-5.6,0l-1.7,1.7l0.2,115.1l1.7,1.7  l5.6,0l1.7-1.7l-0.1-53l0.7-0.7l45.7-0.1l0.7,0.7l0.1,53l1.7,1.7l5.6,0l1.7-1.7l-0.2-115.1l-1.7-1.7l-5.6,0L149.1,256.2z   M33.1,374.5c20,0,33.2-12.7,33.1-32.2l0-1.5l-1.7-1.5l-5.6-0.3l-1.7,1.7l0,2c0,14.4-9.6,23.9-24.2,23.9c-14.4,0-24.1-9.4-24.1-23.8  L9,285c0-14.2,9.6-23.7,24-23.7c14.6,0,24.2,9.4,24.2,23.7l0,2.4l1.7,1.7l5.6-0.3l1.7-1.9l0-1.5c0-19.3-13.2-32-33.2-31.9  c-19.8,0-33,12.7-33,32.2l0.1,56.7C0.1,361.7,13.3,374.5,33.1,374.5z"/>
<path fill="#231F20" d="M212.3,396.3c-2.2-5.8-6.6-9.1-12.9-9.1l-0.2-0.5l14.4-19.6l0.4-1.3v-4.4l-1-1h-32.8l-1,1v4.1l1,1h24.6  l0.2,0.5l-15.3,20.5l0.1,1.4l2.5,2.8l1.4,0.3l2.9-0.7c4.5,0,7.7,2.5,9.4,7c1,2.6,1.5,5.8,1.5,9.8c0,3.3-0.4,6.1-1,8.4  c-1.6,5-4.9,7.7-9.9,7.7c-5.4,0-9-3.4-10.2-8.8c-0.4-1.6-0.6-3.8-0.7-5.8l-1-1h-5l-1,1c0.1,2.5,0.3,5.1,0.9,7.5  c1.9,8.1,8.1,13.2,17,13.2c8,0,13.5-3.8,16.1-11.1c1.1-3,1.7-6.6,1.7-10.8C214.3,403.6,213.6,399.4,212.3,396.3z"/>
<path fill="#231F20" d="M450.8,255.9l0.1,52.8l-0.7,0.7l-45.7,0.1l-0.7-0.7l-0.1-52.8l-1.7-1.7l-5.6,0l-1.7,1.7l0.2,115.1l1.7,1.7  l5.6,0l1.7-1.7l-0.1-53l0.7-0.7l45.7-0.1l0.7,0.7l0.1,53l1.7,1.7l5.6,0l1.7-1.7l-0.2-115.1l-1.7-1.7l-5.6,0L450.8,255.9z   M334.8,374.2c20,0,33.2-12.7,33.1-32.2l0-1.5l-1.7-1.5l-5.6-0.3l-1.7,1.7l0,2c0,14.4-9.6,23.9-24.2,23.9  c-14.4,0-24.1-9.4-24.1-23.8l-0.1-57.7c0-14.2,9.6-23.7,24-23.7c14.6,0,24.2,9.4,24.2,23.7l0,2.4l1.7,1.7l5.6-0.3l1.7-1.9l0-1.5  c0-19.3-13.2-32-33.2-31.9c-19.8,0-33,12.7-33,32.2l0.1,56.7C301.8,361.4,315,374.2,334.8,374.2z"/>
<path fill="#231F20" d="M482,429.1h35.1l1-1V424l-1-1h-26.8l-0.3-0.5c6.1-8.5,12.2-16.9,18-25.3c5.3-7.8,8.1-14.5,8.1-20.5  c0-10.3-6.9-17.5-17.6-17.5c-10.3,0-17.4,6.7-17.7,16.9v3.9l1,1h5.1l1-1v-3.4c-0.1-6.8,4-11.3,10.4-11.3c6.4,0,10.8,4.5,10.8,11.3  c0,4.8-2.9,11-7.8,18.2c-6.3,9-12.9,18.3-19.8,27.6l-0.4,1.3v4.3L482,429.1z"/>
<path fill="#231F20" d="M787.7,255.6l0.1,52.8l-0.7,0.7l-45.7,0.1l-0.7-0.7l-0.1-52.8L739,254l-5.6,0l-1.7,1.7l0.2,115.1l1.7,1.7  l5.6,0l1.7-1.7l-0.1-53l0.7-0.7l45.7-0.1l0.7,0.7l0.1,53l1.7,1.7l5.6,0l1.7-1.7l-0.2-115.1l-1.7-1.7l-5.6,0L787.7,255.6z   M671.8,373.9c20,0,33.2-12.7,33.1-32.2l0-1.5l-1.7-1.5l-5.6-0.3l-1.7,1.7l0,2c0,14.4-9.6,23.9-24.2,23.9  c-14.4,0-24.1-9.4-24.1-23.8l-0.1-57.7c0-14.2,9.6-23.7,24-23.7c14.6,0,24.2,9.4,24.2,23.7l0,2.4l1.7,1.7l5.6-0.3l1.7-1.9l0-1.5  c0-19.3-13.2-32-33.2-31.9c-19.8,0-33,12.7-33,32.2l0.1,56.7C638.8,361.1,652,373.9,671.8,373.9z"/>
<path fill="#231F20" d="M1270.9,255.1l0.1,52.8l-0.7,0.7l-45.7,0.1l-0.7-0.7l-0.1-52.8l-1.7-1.7l-5.6,0l-1.7,1.7l0.2,115.1l1.7,1.7  l5.6,0l1.7-1.7l-0.1-53l0.7-0.7l45.7-0.1l0.7,0.7l0.1,53l1.7,1.7l5.6,0l1.7-1.7l-0.2-115.1l-1.7-1.7l-5.6,0L1270.9,255.1z   M1153,365.4c-14.6,0-24.4-10.1-24.4-25l-0.1-54.8c0-15.2,9.8-25.4,24.3-25.4c14.9,0,24.9,10.1,24.9,25.4l0.1,54.8  C1177.9,355.3,1167.9,365.4,1153,365.4z M1153,373.4c20.1,0,33.8-13.4,33.8-33.6l-0.1-54.2c0-20-13.8-33.5-33.9-33.5  c-20,0-33.3,13.6-33.3,33.6l0.1,54.2C1119.7,360.1,1133.1,373.4,1153,373.4z M959,373.6c20,0,33.2-12.7,33.1-32.2l0-1.5l-1.7-1.5  l-5.6-0.3l-1.7,1.7l0,2c0,14.4-9.6,23.9-24.2,23.9c-14.4,0-24.1-9.4-24.1-23.8l-0.1-57.7c0-14.2,9.6-23.7,24-23.7  c14.6,0,24.2,9.4,24.2,23.7l0,2.4l1.7,1.7l5.6-0.3l1.7-1.9l0-1.5c0-19.3-13.2-32-33.2-31.9c-19.8,0-33,12.7-33,32.2l0.1,56.7  C926,360.8,939.2,373.6,959,373.6z"/>
<path fill="#231F20" d="M783,5.3v52.5l-0.7,0.7h-45.4l-0.7-0.7V5.3l-1.7-1.7H729l-1.7,1.7v114.4l1.7,1.7h5.6l1.7-1.7V67.1l0.7-0.7  h45.4l0.7,0.7v52.7l1.7,1.7h5.6l1.7-1.7V5.3l-1.7-1.7h-5.6L783,5.3z M667.5,122.8c19.9,0,33-12.6,33-32v-1.5l-1.7-1.5l-5.6-0.3  l-1.7,1.7v2c0,14.3-9.6,23.7-24.1,23.7c-14.3,0-23.9-9.4-23.9-23.7V33.7c0-14.1,9.6-23.6,23.9-23.6c14.5,0,24.1,9.4,24.1,23.6v2.4  l1.7,1.7l5.6-0.3l1.7-1.9v-1.5c0-19.2-13.1-31.8-33-31.8c-19.7,0-32.8,12.6-32.8,32v56.4C634.7,110,647.8,122.8,667.5,122.8z"/>
<path fill="#231F20" d="M845.6,144.5c-2.2-5.8-6.6-9-12.9-9l-0.2-0.5l14.3-19.5l0.4-1.3v-4.4l-1-1h-32.6l-1,1v4.1l1,1h24.4l0.2,0.5  l-15.2,20.4l0.1,1.4l2.5,2.7l1.4,0.3l2.8-0.7c4.5,0,7.7,2.5,9.3,7c1,2.6,1.5,5.8,1.5,9.7c0,3.2-0.4,6.1-1,8.3  c-1.6,5-4.9,7.7-9.8,7.7c-5.4,0-8.9-3.3-10.1-8.7c-0.4-1.6-0.6-3.8-0.7-5.8l-1-1h-5l-1,1c0.1,2.5,0.3,5.1,0.9,7.5  c1.9,8.1,8.1,13.2,16.9,13.2c8,0,13.4-3.8,16-11c1.1-2.9,1.7-6.6,1.7-10.7C847.6,151.8,846.9,147.6,845.6,144.5z"/>
<path fill="#231F20" d="M961.4,112.6c-14.5,0-24.2-10.1-24.2-24.9V33.2c0-15.1,9.8-25.2,24.2-25.2c14.8,0,24.7,10.1,24.7,25.2v54.5  C986.2,102.5,976.3,112.6,961.4,112.6z M961.4,120.5c20,0,33.7-13.3,33.7-33.3V33.3c0-19.9-13.6-33.3-33.7-33.3  c-19.9,0-33.2,13.5-33.2,33.3v53.9C928.3,107.2,941.6,120.5,961.4,120.5z"/>
<g>
</g>
<g>
</g>
<g>
</g>
<g>
</g>
<g>
</g>
<g>
</g>
</svg>