<?xml version="1.0" encoding="UTF-8"?>
<!-- Generator: Adobe Illustrator 25.0.0, SVG Export Plug-In . SVG Version: 6.00 Build 0)  -->
<svg version="1.1" id="Layer_1" xmlns="http://www.w3.org/2000/svg" xmlns:xlink="http://www.w3.org/1999/xlink" x="0px" y="0px" viewBox="0 0 1280 470.9" enable-background="new 0 0 1280 470.9" xml:space="preserve">
<polyline fill="#231F20" points="395.6,161.5 395.6,254.1 386.4,254.1 386.4,161.5 "/>
<polyline fill="#231F20" points="686.3,159.4 686.3,252 677,252 677,159.4 "/>
<path fill="#231F20" d="M171.3,271.2l0.1,60.7l-0.8,0.8l-52.5,0.1l-0.8-0.8l-0.1-60.7l-1.9-1.9l-6.4,0l-1.9,1.9l0.2,132.3l1.9,1.9  l6.4,0l1.9-1.9l-0.1-60.9l0.8-0.8l52.5-0.1l0.8,0.8l0.1,60.9l1.9,1.9l6.4,0l1.9-1.9l-0.2-132.3l-1.9-1.9l-6.4,0L171.3,271.2z   M38.1,407.1c22.9,0,38.1-14.6,38.1-37l0-1.8l-1.9-1.7l-6.4-0.4l-1.9,1.9l0,2.3c0,16.5-11,27.4-27.8,27.5  c-16.5,0-27.6-10.9-27.7-27.4l-0.1-66.3c0-16.3,11-27.2,27.6-27.3c16.7,0,27.8,10.9,27.9,27.2l0,2.7l1.9,1.9l6.4-0.4l1.9-2.1l0-1.8  c0-22.2-15.2-36.7-38.2-36.7c-22.8,0-37.9,14.6-37.9,37L0.1,370C0.1,392.4,15.3,407.2,38.1,407.1z"/>
<path fill="#231F20" d="M207.2,470.2h40.4l1.1-1.1v-4.8l-1.1-1.1h-30.8l-0.3-0.6c7-9.7,14.1-19.4,20.6-29c6.1-9,9.3-16.7,9.3-23.6  c0-11.8-7.9-20.1-20.2-20.1c-11.8,0-20,7.7-20.3,19.4v4.5l1.1,1.1h5.9l1.1-1.1V410c-0.1-7.8,4.6-13,11.9-13c7.4,0,12.4,5.2,12.4,13  c0,5.6-3.3,12.6-9,20.9c-7.3,10.3-14.8,21-22.8,31.7l-0.5,1.5v5L207.2,470.2z"/>
<path fill="#231F20" d="M521.6,3.5v60.3l-0.8,0.8h-52.2l-0.8-0.8V3.5l-1.9-1.9h-6.4l-1.9,1.9V135l1.9,1.9h6.4l1.9-1.9V74.4l0.8-0.8  h52.2l0.8,0.8V135l1.9,1.9h6.4l1.9-1.9V3.5l-1.9-1.9h-6.4L521.6,3.5z M389,138.4c22.8,0,37.9-14.5,37.9-36.7V100l-1.9-1.7l-6.4-0.4  l-1.9,1.9v2.3c0,16.4-11,27.3-27.6,27.3c-16.4,0-27.5-10.8-27.5-27.3V36.2c0-16.2,11-27.1,27.5-27.1c16.6,0,27.6,10.8,27.6,27.1v2.7  l1.9,1.9l6.4-0.4l1.9-2.1v-1.7c0-22-15.1-36.5-37.9-36.5c-22.6,0-37.7,14.5-37.7,36.7v64.8C351.3,123.7,366.3,138.4,389,138.4z"/>
<path fill="#231F20" d="M593.6,163.4c-2.5-6.7-7.6-10.4-14.8-10.4l-0.2-0.6L595,130l0.5-1.5v-5.1l-1.1-1.1h-37.4l-1.1,1.1v4.7  l1.1,1.1H585l0.2,0.6l-17.5,23.5l0.1,1.6l2.8,3.2l1.6,0.3l3.3-0.8c5.2,0,8.8,2.8,10.7,8c1.1,2.9,1.7,6.7,1.7,11.2  c0,3.7-0.5,7-1.1,9.6c-1.8,5.8-5.6,8.8-11.3,8.8c-6.2,0-10.3-3.8-11.6-10c-0.5-1.8-0.7-4.4-0.8-6.7l-1.1-1.1h-5.8l-1.1,1.1  c0.1,2.8,0.3,5.9,1,8.6c2.1,9.2,9.2,15.1,19.4,15.1c9.1,0,15.5-4.4,18.4-12.6c1.2-3.4,1.9-7.6,1.9-12.3  C595.8,171.7,595,167,593.6,163.4z"/>
<path fill="#231F20" d="M1201.8,6.5v60.3l-0.8,0.8h-52.2l-0.8-0.8V6.5l-1.9-1.9h-6.4l-1.9,1.9V138l1.9,1.9h6.4l1.9-1.9V77.5l0.8-0.8  h52.2l0.8,0.8V138l1.9,1.9h6.4l1.9-1.9V6.5l-1.9-1.9h-6.4L1201.8,6.5z M1069.2,141.5c22.8,0,37.9-14.5,37.9-36.7V103l-1.9-1.7  l-6.4-0.4l-1.9,1.9v2.3c0,16.4-11,27.3-27.6,27.3c-16.4,0-27.5-10.8-27.5-27.3V39.2c0-16.2,11-27.1,27.5-27.1  c16.6,0,27.6,10.8,27.6,27.1v2.7l1.9,1.9l6.4-0.4l1.9-2.1v-1.7c0-22-15.1-36.5-37.9-36.5c-22.6,0-37.7,14.5-37.7,36.7v64.8  C1031.5,126.8,1046.5,141.5,1069.2,141.5z"/>
<path fill="#231F20" d="M1273.8,166.5c-2.5-6.7-7.6-10.4-14.8-10.4l-0.2-0.6l16.5-22.4l0.5-1.5v-5.1l-1.1-1.1h-37.4l-1.1,1.1v4.7  l1.1,1.1h28.1l0.2,0.6l-17.5,23.5l0.1,1.6l2.8,3.2l1.6,0.3l3.3-0.8c5.2,0,8.8,2.8,10.7,8c1.1,2.9,1.7,6.7,1.7,11.2  c0,3.7-0.5,7-1.1,9.6c-1.8,5.8-5.6,8.8-11.3,8.8c-6.2,0-10.3-3.8-11.6-10c-0.5-1.8-0.7-4.4-0.8-6.7l-1.1-1.1h-5.8l-1.1,1.1  c0.1,2.8,0.3,5.9,1,8.6c2.1,9.2,9.2,15.1,19.4,15.1c9.1,0,15.5-4.4,18.4-12.6c1.2-3.4,1.9-7.6,1.9-12.3  C1276,174.8,1275.2,170.1,1273.8,166.5z"/>
<path fill="#231F20" d="M811.2,5.5v60.3l-0.8,0.8h-52.2l-0.8-0.8V5.5l-1.9-1.9h-6.4l-1.9,1.9V137l1.9,1.9h6.4l1.9-1.9V76.5l0.8-0.8  h52.2l0.8,0.8V137l1.9,1.9h6.4l1.9-1.9V5.5l-1.9-1.9h-6.4L811.2,5.5z M678.6,140.5c22.8,0,37.9-14.5,37.9-36.7V102l-1.9-1.7  l-6.4-0.4l-1.9,1.9v2.3c0,16.4-11,27.3-27.6,27.3c-16.4,0-27.5-10.8-27.5-27.3V38.2c0-16.2,11-27.1,27.5-27.1  c16.6,0,27.6,10.8,27.6,27.1v2.7l1.9,1.9l6.4-0.4l1.9-2.1v-1.7c0-22-15.1-36.5-37.9-36.5c-22.6,0-37.7,14.5-37.7,36.7v64.8  C640.9,125.8,656,140.5,678.6,140.5z"/>
<path fill="#231F20" d="M846.6,203.3h40.2l1.1-1.1v-4.7l-1.1-1.1h-30.7l-0.3-0.6c7-9.7,14-19.3,20.5-28.9c6.1-8.9,9.2-16.6,9.2-23.5  c0-11.7-7.9-20-20.1-20c-11.7,0-19.9,7.7-20.2,19.3v4.5l1.1,1.1h5.9l1.1-1.1v-3.8c-0.1-7.8,4.6-13,11.8-13c7.3,0,12.3,5.2,12.3,13  c0,5.5-3.3,12.5-8.9,20.8c-7.2,10.3-14.8,20.9-22.7,31.6l-0.5,1.5v5L846.6,203.3z"/>
<polyline fill="#231F20" points="901.2,71.2 989.9,71.2 989.9,80.4 901.2,80.4 "/>
<path fill="#231F20" d="M810.2,272.2v60.3l-0.8,0.8h-52.2l-0.8-0.8v-60.3l-1.9-1.9h-6.4l-1.9,1.9v131.5l1.9,1.9h6.4l1.9-1.9v-60.5  l0.8-0.8h52.2l0.8,0.8v60.5l1.9,1.9h6.4l1.9-1.9V272.2l-1.9-1.9h-6.4L810.2,272.2z M677.6,407.2c22.8,0,37.9-14.5,37.9-36.7v-1.7  l-1.9-1.7l-6.4-0.4l-1.9,1.9v2.3c0,16.4-11,27.3-27.6,27.3c-16.4,0-27.5-10.8-27.5-27.3v-65.9c0-16.2,11-27.1,27.5-27.1  c16.6,0,27.6,10.8,27.6,27.1v2.7l1.9,1.9l6.4-0.4l1.9-2.1v-1.7c0-22-15.1-36.5-37.9-36.5c-22.6,0-37.7,14.5-37.7,36.7v64.8  C639.9,392.5,654.9,407.2,677.6,407.2z"/>
<path fill="#231F20" d="M398.1,408.7c22.8,0,37.9-14.5,37.9-36.7v-1.7l-1.9-1.7l-6.4-0.4l-1.9,1.9v2.3c0,16.4-11,27.3-27.7,27.3  c-16.4,0-27.5-10.8-27.5-27.3v-65.9c0-16.2,11-27.1,27.5-27.1c16.6,0,27.7,10.8,27.7,27.1v2.7l1.9,1.9l6.4-0.4l1.9-2.1v-1.7  c0-22-15.1-36.5-37.9-36.5c-22.6,0-37.7,14.5-37.7,36.7v64.8C360.4,394,375.5,408.7,398.1,408.7z"/>
<path fill="#231F20" d="M810.4,272.2v60.3l-0.8,0.8h-52.2l-0.8-0.8v-60.3l-1.9-1.9h-6.4l-1.9,1.9v131.5l1.9,1.9h6.4l1.9-1.9v-60.5  l0.8-0.8h52.2l0.8,0.8v60.5l1.9,1.9h6.4l1.9-1.9V272.2l-1.9-1.9h-6.4L810.4,272.2z M677.8,407.2c22.8,0,37.9-14.5,37.9-36.7v-1.7  l-1.9-1.7l-6.4-0.4l-1.9,1.9v2.3c0,16.4-11,27.3-27.6,27.3c-16.4,0-27.5-10.8-27.5-27.3v-65.9c0-16.2,11-27.1,27.5-27.1  c16.6,0,27.6,10.8,27.6,27.1v2.7l1.9,1.9l6.4-0.4l1.9-2.1v-1.7c0-22-15.1-36.5-37.9-36.5c-22.6,0-37.7,14.5-37.7,36.7v64.8  C640.1,392.5,655.1,407.2,677.8,407.2z"/>
<path fill="#231F20" d="M882.3,432.1c-2.5-6.7-7.6-10.4-14.8-10.4l-0.2-0.6l16.5-22.4l0.5-1.5v-5.1l-1.1-1.1h-37.4l-1.1,1.1v4.7  l1.1,1.1h28.1l0.2,0.6l-17.5,23.5l0.1,1.6l2.8,3.2l1.6,0.3l3.3-0.8c5.2,0,8.8,2.8,10.7,8c1.1,2.9,1.7,6.7,1.7,11.2  c0,3.7-0.5,7-1.1,9.6c-1.8,5.8-5.6,8.8-11.3,8.8c-6.2,0-10.3-3.8-11.6-10c-0.5-1.8-0.7-4.4-0.8-6.7l-1.1-1.1H845l-1.1,1.1  c0.1,2.8,0.3,5.9,1,8.6c2.1,9.2,9.2,15.1,19.4,15.1c9.1,0,15.5-4.4,18.4-12.6c1.2-3.4,1.9-7.6,1.9-12.3  C884.6,440.5,883.8,435.7,882.3,432.1z"/>
<polyline fill="#231F20" points="485.7,325.1 589,325.1 589,334.3 485.7,334.3 "/>
<polyline fill="#231F20" points="233.8,303.7 328.7,303.7 328.7,312.9 233.8,312.9 "/>
<polyline fill="#231F20" points="233.8,349.6 328.7,349.6 328.7,358.8 233.8,358.8 "/>
<polyline fill="#231F20" points="875.9,325.1 979.2,325.1 979.2,334.3 875.9,334.3 "/>
<path fill="#231F20" d="M1205.8,272.2v60.3l-0.8,0.8h-52.2l-0.8-0.8v-60.3l-1.9-1.9h-6.4l-1.9,1.9v131.5l1.9,1.9h6.4l1.9-1.9v-60.5  l0.8-0.8h52.2l0.8,0.8v60.5l1.9,1.9h6.4l1.9-1.9V272.2l-1.9-1.9h-6.4L1205.8,272.2z M1073.1,407.2c22.8,0,37.9-14.5,37.9-36.7v-1.7  l-1.9-1.7l-6.4-0.4l-1.9,1.9v2.3c0,16.4-11,27.3-27.7,27.3c-16.4,0-27.5-10.8-27.5-27.3v-65.9c0-16.2,11-27.1,27.5-27.1  c16.6,0,27.7,10.8,27.7,27.1v2.7l1.9,1.9l6.4-0.4l1.9-2.1v-1.7c0-22-15.1-36.5-37.9-36.5c-22.6,0-37.7,14.5-37.7,36.7v64.8  C1035.4,392.5,1050.5,407.2,1073.1,407.2z"/>
<path fill="#231F20" d="M1277.7,432.1c-2.5-6.7-7.6-10.4-14.8-10.4l-0.2-0.6l16.5-22.4l0.5-1.5v-5.1l-1.1-1.1h-37.4l-1.1,1.1v4.7  l1.1,1.1h28.1l0.2,0.6l-17.5,23.5l0.1,1.6l2.8,3.2l1.6,0.3l3.3-0.8c5.2,0,8.8,2.8,10.7,8c1.1,2.9,1.7,6.7,1.7,11.2  c0,3.7-0.5,7-1.1,9.6c-1.8,5.8-5.6,8.8-11.3,8.8c-6.2,0-10.3-3.8-11.6-10c-0.5-1.8-0.7-4.4-0.8-6.7l-1.1-1.1h-5.8l-1.1,1.1  c0.1,2.8,0.3,5.9,1,8.6c2.1,9.2,9.2,15.1,19.4,15.1c9.1,0,15.5-4.4,18.4-12.6c1.2-3.4,1.9-7.6,1.9-12.3  C1280,440.5,1279.2,435.8,1277.7,432.1z"/>
<g>
</g>
<g>
</g>
<g>
</g>
<g>
</g>
<g>
</g>
<g>
</g>
</svg>