<?xml version="1.0" encoding="UTF-8"?>
<!-- Generator: Adobe Illustrator 25.0.0, SVG Export Plug-In . SVG Version: 6.00 Build 0)  -->
<svg version="1.1" id="Layer_1" xmlns="http://www.w3.org/2000/svg" xmlns:xlink="http://www.w3.org/1999/xlink" x="0px" y="0px" viewBox="0 0 1280 328.3" enable-background="new 0 0 1280 328.3" xml:space="preserve">
<path fill="#231F20" d="M192.4,328.3h15c2.8,0,4.7-1.9,4.7-4.7V59.6l2.3-0.9l135.1,266.4l5.6,3.3h15.9c2.8,0,4.7-1.9,4.7-4.7V4.7  c0-2.8-1.9-4.7-4.7-4.7h-15c-2.8,0-4.7,1.9-4.7,4.7v264.5l-2.3,0.5L213.5,3.3L207.9,0h-15.5c-2.8,0-4.7,1.9-4.7,4.7v319  C187.7,326.5,189.6,328.3,192.4,328.3z"/>
<path fill="#231F20" d="M913,328.3h15c2.8,0,4.7-1.9,4.7-4.7V59.6l2.3-0.9l135.1,266.4l5.6,3.3h15.9c2.8,0,4.7-1.9,4.7-4.7V4.7  c0-2.8-1.9-4.7-4.7-4.7h-15c-2.8,0-4.7,1.9-4.7,4.7v264.5l-2.3,0.5L934.1,3.3L928.5,0H913c-2.8,0-4.7,1.9-4.7,4.7v319  C908.3,326.5,910.2,328.3,913,328.3z"/>
<rect x="485.3" y="271.3" fill="#231F20" width="313" height="24.6"/>
<rect x="485.3" y="271.3" fill="#231F20" width="313" height="24.6"/>
<rect x="485.3" y="165.8" fill="#231F20" width="313" height="24.6"/>
<rect x="485.3" y="165.8" fill="#231F20" width="313" height="24.6"/>
<rect x="485.3" y="60.3" fill="#231F20" width="313" height="24.6"/>
<rect x="485.3" y="60.3" fill="#231F20" width="313" height="24.6"/>
<g>
	<path fill-rule="evenodd" clip-rule="evenodd" fill="#231F20" d="M36.9,137.7c20.4,0,36.9-16.5,36.9-37c0-20.4-16.5-36.9-36.9-36.9   C16.5,63.8,0,80.4,0,100.7C0,121.2,16.5,137.7,36.9,137.7 M36.9,218.6C16.5,218.6,0,235.1,0,255.5c0,20.4,16.5,36.9,36.9,36.9   c20.4,0,36.9-16.5,36.9-36.9C73.8,235.1,57.3,218.6,36.9,218.6"/>
	<path fill="#231F20" d="M36.9,63.8C16.5,63.8,0,80.4,0,100.8s16.5,36.9,36.9,36.9c20.4,0,36.9-16.5,36.9-36.9S57.3,63.8,36.9,63.8    M36.9,218.6C16.5,218.6,0,235.1,0,255.5c0,20.4,16.5,36.9,36.9,36.9c20.4,0,36.9-16.5,36.9-36.9C73.8,235.1,57.3,218.6,36.9,218.6   "/>
	<path fill-rule="evenodd" clip-rule="evenodd" fill="#231F20" d="M1243,141.2c20.4,0,37-16.5,37-37c0-20.4-16.6-36.9-37-36.9   c-20.4,0-36.9,16.5-36.9,36.9C1206.1,124.7,1222.7,141.2,1243,141.2 M1243,222.1c-20.4,0-36.9,16.5-36.9,36.9   c0,20.4,16.6,36.9,36.9,36.9c20.4,0,37-16.6,37-36.9C1280,238.6,1263.4,222.1,1243,222.1"/>
	<path fill="#231F20" d="M1243,67.4c-20.4,0-36.9,16.5-36.9,36.9c0,20.4,16.6,37,36.9,37c20.4,0,37-16.5,37-37   C1280,83.9,1263.4,67.4,1243,67.4 M1243,222.1c-20.4,0-36.9,16.5-36.9,36.9c0,20.4,16.6,36.9,36.9,36.9c20.4,0,37-16.6,37-36.9   C1280,238.6,1263.4,222.1,1243,222.1"/>
</g>
<g>
</g>
<g>
</g>
<g>
</g>
<g>
</g>
<g>
</g>
<g>
</g>
</svg>