<?xml version="1.0" encoding="UTF-8"?>
<!-- Generator: Adobe Illustrator 25.0.0, SVG Export Plug-In . SVG Version: 6.00 Build 0)  -->
<svg version="1.1" id="Layer_1" xmlns="http://www.w3.org/2000/svg" xmlns:xlink="http://www.w3.org/1999/xlink" x="0px" y="0px" viewBox="0 0 1280 406.5" enable-background="new 0 0 1280 406.5" xml:space="preserve">
<rect x="182.8" y="52.2" fill="#231F20" width="81.4" height="9.2"/>
<rect x="182.8" y="52.2" fill="#231F20" width="81.4" height="9.2"/>
<rect x="465.8" y="54" fill="#231F20" width="81.3" height="9.2"/>
<rect x="465.8" y="54" fill="#231F20" width="81.3" height="9.2"/>
<rect x="743.1" y="55.9" fill="#231F20" width="81.4" height="9.2"/>
<rect x="743.1" y="55.9" fill="#231F20" width="81.4" height="9.2"/>
<rect x="1027.9" y="57.7" fill="#231F20" width="81.4" height="9.2"/>
<rect x="1027.9" y="57.7" fill="#231F20" width="81.4" height="9.2"/>
<path fill="#231F20" d="M142.5,3.9l0.1,50.5l-0.6,0.6l-43.7,0.1l-0.6-0.6L97.5,4l-1.6-1.6l-5.3,0L88.9,4l0.2,110l1.6,1.6l5.3,0  l1.6-1.6l-0.1-50.6l0.6-0.6l43.7-0.1l0.6,0.6l0.1,50.6l1.6,1.6l5.3,0l1.6-1.6l-0.2-110l-1.6-1.6l-5.3,0L142.5,3.9z M31.7,116.9  c19.1,0,31.7-12.2,31.7-30.8l0-1.5l-1.6-1.5l-5.3-0.3l-1.6,1.6l0,1.9c0,13.8-9.2,22.8-23.1,22.8c-13.8,0-23-9-23-22.8L8.6,31.4  c0-13.6,9.2-22.7,22.9-22.7c13.9,0,23.1,9,23.2,22.6l0,2.3l1.6,1.6l5.3-0.3l1.6-1.8l0-1.5c0-18.4-12.7-30.6-31.8-30.5  C12.6,1.1,0,13.3,0,31.9l0.1,54.2C0.1,104.7,12.7,117,31.7,116.9z"/>
<path fill="#231F20" d="M202.9,137.7c-2.1-5.6-6.3-8.7-12.4-8.7l-0.2-0.5l13.8-18.8l0.4-1.2v-4.2l-0.9-0.9h-31.3l-0.9,0.9v4l0.9,0.9  h23.5l0.2,0.5l-14.6,19.6l0.1,1.3l2.4,2.6l1.3,0.3l2.7-0.7c4.3,0,7.4,2.4,9,6.7c0.9,2.5,1.4,5.6,1.4,9.3c0,3.1-0.4,5.8-0.9,8  c-1.5,4.8-4.7,7.4-9.4,7.4c-5.2,0-8.6-3.2-9.7-8.4c-0.4-1.5-0.6-3.7-0.7-5.6l-0.9-0.9h-4.8l-0.9,0.9c0.1,2.4,0.3,4.9,0.8,7.2  c1.8,7.7,7.7,12.6,16.2,12.6c7.6,0,12.9-3.7,15.4-10.6c1-2.8,1.6-6.3,1.6-10.3C204.8,144.7,204.1,140.7,202.9,137.7z"/>
<path fill="#231F20" d="M708.1,3.3l0.1,50.5l-0.6,0.6l-43.7,0.1l-0.6-0.6l-0.1-50.5l-1.6-1.6l-5.3,0l-1.6,1.6l0.2,110l1.6,1.6l5.3,0  l1.6-1.6l-0.1-50.6l0.6-0.6l43.7-0.1l0.6,0.6l0.1,50.6l1.6,1.6l5.3,0l1.6-1.6l-0.2-110l-1.6-1.6l-5.3,0L708.1,3.3z M597.3,116.4  c19.1,0,31.7-12.2,31.7-30.8l0-1.5l-1.6-1.5l-5.3-0.3l-1.6,1.6l0,1.9c0,13.8-9.2,22.8-23.1,22.8c-13.8,0-23-9-23-22.8l-0.1-55.2  c0-13.6,9.2-22.7,22.9-22.7c13.9,0,23.1,9,23.2,22.6l0,2.3l1.6,1.6l5.3-0.3l1.6-1.8l0-1.5c0-18.4-12.7-30.6-31.8-30.5  c-18.9,0-31.5,12.2-31.5,30.8l0.1,54.2C565.7,104.1,578.4,116.4,597.3,116.4z M430.8,3.6l0.1,50.5l-0.6,0.6l-43.7,0.1l-0.6-0.6  l-0.1-50.5l-1.6-1.6l-5.3,0l-1.6,1.6l0.2,110l1.6,1.6l5.3,0l1.6-1.6L385.9,63l0.6-0.6l43.7-0.1l0.6,0.6l0.1,50.6l1.6,1.6l5.3,0  l1.6-1.6l-0.2-110L437.7,2l-5.3,0L430.8,3.6z M320,116.6c19.1,0,31.7-12.2,31.7-30.8l0-1.5L350,83l-5.3-0.3l-1.6,1.6l0,1.9  c0,13.8-9.2,22.8-23.1,22.8c-13.8,0-23-9-23-22.8l-0.1-55.2c0-13.6,9.2-22.7,22.9-22.7c13.9,0,23.1,9,23.2,22.6l0,2.3l1.6,1.6  l5.3-0.3l1.6-1.8l0-1.5c0-18.4-12.7-30.6-31.8-30.5c-18.9,0-31.5,12.2-31.5,30.8l0.1,54.2C288.4,104.4,301,116.7,320,116.6z"/>
<path fill="#231F20" d="M737.9,168.8h33.6l0.9-0.9v-4l-0.9-0.9h-25.6l-0.3-0.5c5.8-8.1,11.7-16.1,17.2-24.1  c5.1-7.4,7.7-13.9,7.7-19.6c0-9.8-6.6-16.7-16.8-16.7c-9.8,0-16.6,6.4-16.9,16.1v3.8l0.9,0.9h4.9l0.9-0.9v-3.2  c-0.1-6.5,3.9-10.8,9.9-10.8c6.1,0,10.3,4.3,10.3,10.8c0,4.6-2.7,10.5-7.4,17.3c-6,8.6-12.4,17.4-19,26.4l-0.4,1.2v4.1L737.9,168.8z  "/>
<path fill="#231F20" d="M988.6,3.1l0.1,50.5l-0.6,0.6l-43.7,0.1l-0.6-0.6l-0.1-50.5L942,1.5l-5.3,0l-1.6,1.6l0.2,110l1.6,1.6l5.3,0  l1.6-1.6l-0.1-50.6l0.6-0.6l43.7-0.1l0.6,0.6l0.1,50.6l1.6,1.6l5.3,0l1.6-1.6l-0.2-110l-1.6-1.6l-5.3,0L988.6,3.1z M877.8,116.1  c19.1,0,31.7-12.2,31.7-30.8l0-1.5l-1.6-1.5l-5.3-0.3l-1.6,1.6l0,1.9c0,13.8-9.2,22.8-23.1,22.8c-13.8,0-23-9-23-22.8l-0.1-55.2  c0-13.6,9.2-22.7,22.9-22.7c13.9,0,23.1,9,23.2,22.6l0,2.3l1.6,1.6l5.3-0.3l1.6-1.8l0-1.5c0-18.4-12.7-30.6-31.8-30.5  c-18.9,0-31.5,12.2-31.5,30.8l0.1,54.2C846.2,103.9,858.9,116.1,877.8,116.1z"/>
<path fill="#231F20" d="M1018.4,168.6h33.6l0.9-0.9v-4l-0.9-0.9h-25.6l-0.3-0.5c5.8-8.1,11.7-16.1,17.2-24.1  c5.1-7.4,7.7-13.9,7.7-19.6c0-9.8-6.6-16.7-16.8-16.7c-9.8,0-16.6,6.4-16.9,16.1v3.8l0.9,0.9h4.9l0.9-0.9v-3.2  c-0.1-6.5,3.9-10.8,9.9-10.8c6.1,0,10.3,4.3,10.3,10.8c0,4.6-2.7,10.5-7.4,17.3c-6,8.6-12.4,17.4-19,26.4l-0.4,1.2v4.1L1018.4,168.6  z"/>
<path fill="#231F20" d="M1271.3,2.8l0.1,50.5l-0.6,0.6L1227,54l-0.6-0.6l-0.1-50.5l-1.6-1.6l-5.3,0l-1.6,1.6l0.2,110l1.6,1.6l5.3,0  l1.6-1.6l-0.1-50.6l0.6-0.6l43.7-0.1l0.6,0.6l0.1,50.6l1.6,1.6l5.3,0l1.6-1.6l-0.2-110l-1.6-1.6l-5.3,0L1271.3,2.8z M1158.7,108.2  c-13.9,0-23.3-9.7-23.3-23.9l-0.1-52.4c0-14.6,9.3-24.3,23.3-24.3c14.2,0,23.8,9.7,23.8,24.2l0.1,52.4  C1182.4,98.5,1172.9,108.2,1158.7,108.2z M1158.7,115.8c19.3,0,32.3-12.8,32.3-32.1l-0.1-51.8c0-19.1-13.1-32-32.4-32  c-19.1,0-31.8,13-31.8,32.1l0.1,51.8C1126.8,103.1,1139.6,115.9,1158.7,115.8z"/>
<rect x="310.4" y="137.2" fill="#231F20" width="9.2" height="81.4"/>
<rect x="310.4" y="137.2" fill="#231F20" width="9.2" height="81.4"/>
<path fill="#231F20" d="M426.5,241.2v50.2l-0.6,0.6h-43.4l-0.6-0.6v-50.2l-1.6-1.6h-5.3l-1.6,1.6v109.4l1.6,1.6h5.3l1.6-1.6v-50.3  l0.6-0.6h43.4l0.6,0.6v50.3l1.6,1.6h5.3l1.6-1.6V241.2l-1.6-1.6h-5.3L426.5,241.2z M316.2,353.4c19,0,31.5-12.1,31.5-30.6v-1.4  l-1.6-1.4l-5.3-0.3l-1.6,1.6v1.9c0,13.7-9.2,22.7-23,22.7c-13.7,0-22.8-9-22.8-22.7v-54.8c0-13.5,9.2-22.5,22.8-22.5  c13.8,0,23,9,23,22.5v2.3l1.6,1.6l5.3-0.3l1.6-1.8v-1.4c0-18.3-12.5-30.4-31.5-30.4c-18.8,0-31.4,12.1-31.4,30.6v53.9  C284.8,341.2,297.4,353.4,316.2,353.4z"/>
<path fill="#231F20" d="M486.4,374.2c-2.1-5.5-6.3-8.6-12.3-8.6l-0.2-0.5l13.7-18.7l0.4-1.2V341L487,340h-31.1l-0.9,0.9v3.9l0.9,0.9  h23.4l0.2,0.5l-14.5,19.5l0.1,1.3l2.3,2.6l1.3,0.3l2.7-0.7c4.3,0,7.3,2.3,8.9,6.7c0.9,2.4,1.4,5.5,1.4,9.3c0,3.1-0.4,5.8-0.9,8  c-1.5,4.8-4.7,7.3-9.4,7.3c-5.2,0-8.5-3.2-9.7-8.3c-0.4-1.5-0.6-3.7-0.7-5.5l-0.9-0.9h-4.8l-0.9,0.9c0.1,2.3,0.3,4.9,0.8,7.1  c1.8,7.7,7.7,12.6,16.1,12.6c7.6,0,12.9-3.7,15.3-10.5c1-2.8,1.6-6.3,1.6-10.2C488.2,381.1,487.6,377.2,486.4,374.2z"/>
<g>
</g>
<g>
</g>
<g>
</g>
<g>
</g>
<g>
</g>
<g>
</g>
</svg>