<?xml version="1.0" encoding="UTF-8"?>
<!-- Generator: Adobe Illustrator 25.0.0, SVG Export Plug-In . SVG Version: 6.00 Build 0)  -->
<svg version="1.1" id="Layer_1" xmlns="http://www.w3.org/2000/svg" xmlns:xlink="http://www.w3.org/1999/xlink" x="0px" y="0px" viewBox="0 0 1280 783.4" enable-background="new 0 0 1280 783.4" xml:space="preserve">
<path fill="#231F20" d="M181.2,286.6l0.1,64.2l-0.8,0.8l-55.5,0.1l-0.8-0.8l-0.1-64.2l-2.1-2.1l-6.8,0l-2.1,2.1l0.2,139.9l2.1,2.1  l6.8,0l2.1-2.1l-0.1-64.4l0.8-0.8l55.5-0.1l0.8,0.8l0.1,64.4l2.1,2.1l6.8,0l2.1-2.1l-0.2-139.9l-2.1-2.1l-6.8,0L181.2,286.6z   M40.3,430.3c24.3,0,40.3-15.5,40.3-39.1l0-1.9l-2.1-1.8l-6.8-0.4l-2.1,2.1l0,2.5c0,17.5-11.7,29-29.4,29c-17.5,0-29.2-11.5-29.2-29  l-0.1-70.1c0-17.3,11.7-28.8,29.2-28.8c17.7,0,29.4,11.5,29.5,28.8l0,2.9l2.1,2.1l6.8-0.4l2.1-2.3l0-1.9c0-23.4-16.1-38.9-40.4-38.8  C16,283.1,0,298.5,0,322.2l0.1,68.9C0.1,414.7,16.2,430.4,40.3,430.3z"/>
<path fill="#231F20" d="M257.9,456.8c-2.6-7.1-8-11-15.7-11l-0.2-0.6l17.5-23.9l0.5-1.6v-5.4l-1.2-1.2H219l-1.2,1.2v5l1.2,1.2h29.8  l0.2,0.6l-18.6,24.9l0.1,1.7l3,3.4l1.7,0.4l3.5-0.8c5.5,0,9.4,3,11.4,8.5c1.2,3.1,1.8,7.1,1.8,11.9c0,4-0.5,7.4-1.2,10.2  c-1.9,6.1-6,9.4-12,9.4c-6.6,0-10.9-4.1-12.3-10.7c-0.5-1.9-0.7-4.7-0.8-7.1l-1.2-1.2h-6.1l-1.2,1.2c0.1,3,0.4,6.2,1.1,9.1  c2.3,9.8,9.8,16.1,20.6,16.1c9.7,0,16.4-4.7,19.5-13.4c1.3-3.6,2-8,2-13.1C260.3,465.6,259.5,460.6,257.9,456.8z"/>
<path fill="#231F20" d="M410.8,430.3c24.3,0,40.3-15.5,40.3-39.1l0-1.9l-2.1-1.8l-6.8-0.4l-2.1,2.1l0,2.5c0,17.5-11.7,29-29.4,29  c-17.5,0-29.2-11.5-29.2-29l-0.1-70.1c0-17.3,11.7-28.8,29.2-28.8c17.7,0,29.4,11.5,29.5,28.8l0,2.9l2.1,2.1l6.8-0.4l2.1-2.3l0-1.9  c0-23.4-16.1-38.9-40.4-38.8c-24.1,0-40.1,15.5-40.1,39.1l0.1,68.9C370.6,414.8,386.7,430.4,410.8,430.3z"/>
<path fill="#231F20" d="M845.2,286.5l0.1,64.2l-0.8,0.8l-55.5,0.1l-0.8-0.8l-0.1-64.2l-2.1-2.1l-6.8,0l-2.1,2.1l0.2,139.9l2.1,2.1  l6.8,0l2.1-2.1l-0.1-64.4l0.8-0.8l55.5-0.1l0.8,0.8l0.1,64.4l2.1,2.1l6.8,0l2.1-2.1l-0.2-139.9l-2.1-2.1l-6.8,0L845.2,286.5z   M704.3,430.3c24.3,0,40.3-15.5,40.3-39.1l0-1.9l-2.1-1.8l-6.8-0.4l-2.1,2.1l0,2.5c0,17.5-11.7,29-29.4,29  c-17.5,0-29.2-11.5-29.2-29l-0.1-70.1c0-17.3,11.7-28.8,29.2-28.8c17.7,0,29.4,11.5,29.5,28.8l0,2.9l2.1,2.1l6.8-0.4l2.1-2.3l0-1.9  c0-23.4-16.1-38.9-40.4-38.8c-24.1,0-40.1,15.5-40.1,39.1l0.1,68.9C664.2,414.7,680.3,430.3,704.3,430.3z"/>
<path fill="#231F20" d="M1200.9,286.6l0.1,64.2l-0.8,0.8l-55.5,0.1l-0.8-0.8l-0.1-64.2l-2.1-2.1l-6.8,0l-2.1,2.1l0.2,139.9l2.1,2.1  l6.8,0l2.1-2.1l-0.1-64.4l0.8-0.8l55.5-0.1l0.8,0.8l0.1,64.4l2.1,2.1l6.8,0l2.1-2.1l-0.2-139.9l-2.1-2.1l-6.8,0L1200.9,286.6z   M1060,430.3c24.3,0,40.3-15.5,40.3-39.1l0-1.9l-2.1-1.8l-6.8-0.4l-2.1,2.1l0,2.5c0,17.5-11.7,29-29.4,29c-17.5,0-29.2-11.5-29.2-29  l-0.1-70.1c0-17.3,11.7-28.8,29.2-28.8c17.7,0,29.4,11.5,29.5,28.8l0,2.9l2.1,2.1l6.8-0.4l2.1-2.3l0-1.9c0-23.4-16.1-38.9-40.4-38.8  c-24.1,0-40.1,15.5-40.1,39.1l0.1,68.9C1019.9,414.7,1035.9,430.4,1060,430.3z"/>
<path fill="#231F20" d="M1277.6,456.8c-2.6-7.1-8-11-15.7-11l-0.2-0.6l17.5-23.9l0.5-1.6v-5.4l-1.2-1.2h-39.8l-1.2,1.2v5l1.2,1.2  h29.9l0.2,0.6l-18.6,24.9l0.1,1.7l3,3.4l1.7,0.4l3.5-0.8c5.5,0,9.4,3,11.4,8.5c1.2,3.1,1.8,7.1,1.8,11.9c0,4-0.5,7.4-1.2,10.2  c-1.9,6.1-6,9.4-12,9.4c-6.6,0-10.9-4.1-12.3-10.7c-0.5-1.9-0.7-4.7-0.8-7.1l-1.2-1.2h-6.1l-1.2,1.2c0.1,3,0.4,6.2,1.1,9.1  c2.3,9.8,9.8,16.1,20.6,16.1c9.7,0,16.4-4.7,19.5-13.4c1.3-3.6,2-8,2-13.1C1280,465.6,1279.2,460.6,1277.6,456.8z"/>
<path fill="#231F20" d="M551.7,572l0.1,64.2l-0.8,0.8l-55.5,0.1l-0.8-0.8l-0.1-64.2l-2.1-2.1l-6.8,0l-2.1,2.1l0.2,139.9l2.1,2.1  l6.8,0l2.1-2.1l-0.1-64.4l0.8-0.8l55.5-0.1l0.8,0.8l0.1,64.4l2.1,2.1l6.8,0l2.1-2.1L562.6,572l-2.1-2.1l-6.8,0L551.7,572z   M410.8,715.8c24.3,0,40.3-15.5,40.3-39.1l0-1.9l-2.1-1.8l-6.8-0.4l-2.1,2.1l0,2.5c0,17.5-11.7,29-29.4,29  c-17.5,0-29.2-11.5-29.2-29l-0.1-70.1c0-17.3,11.7-28.8,29.2-28.8c17.7,0,29.4,11.5,29.5,28.8l0,2.9l2.1,2.1l6.8-0.4l2.1-2.3l0-1.9  c0-23.4-16.1-38.9-40.4-38.8c-24.1,0-40.1,15.5-40.1,39.1l0.1,68.9C370.6,700.2,386.7,715.8,410.8,715.8z"/>
<path fill="#231F20" d="M628.4,742.2c-2.6-7.1-8-11-15.7-11l-0.2-0.6l17.5-23.9l0.5-1.6v-5.4l-1.2-1.2h-39.8l-1.2,1.2v5l1.2,1.2  h29.9l0.2,0.6L601,731.5l0.1,1.7l3,3.4l1.7,0.4l3.5-0.8c5.5,0,9.4,3,11.4,8.5c1.2,3.1,1.8,7.1,1.8,11.9c0,4-0.5,7.4-1.2,10.2  c-1.9,6.1-6,9.4-12,9.4c-6.6,0-10.9-4.1-12.3-10.7c-0.5-1.9-0.7-4.7-0.8-7.1l-1.2-1.2h-6.1l-1.2,1.2c0.1,3,0.4,6.2,1.1,9.1  c2.3,9.8,9.8,16.1,20.6,16.1c9.7,0,16.4-4.7,19.5-13.4c1.3-3.6,2-8,2-13.1C630.8,751.1,630,746,628.4,742.2z"/>
<path fill="#231F20" d="M551.7,3.5l0.1,64.2l-0.8,0.8l-55.5,0.1l-0.8-0.8l-0.1-64.2l-2.1-2.1l-6.8,0l-2.1,2.1l0.2,139.9l2.1,2.1  l6.8,0l2.1-2.1l-0.1-64.4l0.8-0.8l55.5-0.1l0.8,0.8l0.1,64.4l2.1,2.1l6.8,0l2.1-2.1L562.6,3.5l-2.1-2.1l-6.8,0L551.7,3.5z   M410.7,147.3c24.3,0,40.3-15.5,40.3-39.1l0-1.9l-2.1-1.8l-6.8-0.4l-2.1,2.1l0,2.5c0,17.5-11.7,29-29.4,29  c-17.5,0-29.2-11.5-29.2-29l-0.1-70.1c0-17.3,11.7-28.8,29.2-28.8c17.7,0,29.4,11.5,29.5,28.8l0,2.9l2.1,2.1l6.8-0.4l2.1-2.3l0-1.9  c0-23.4-16.1-38.9-40.4-38.8c-24.1,0-40.1,15.5-40.1,39.1l0.1,68.9C370.6,131.7,386.7,147.3,410.7,147.3z"/>
<path fill="#231F20" d="M628.4,173.7c-2.6-7.1-8-11-15.7-11l-0.2-0.6l17.5-23.9l0.5-1.6v-5.4l-1.2-1.2h-39.8l-1.2,1.2v5l1.2,1.2  h29.9l0.2,0.6L601,163l0.1,1.7l3,3.4l1.7,0.4l3.5-0.8c5.5,0,9.4,3,11.4,8.5c1.2,3.1,1.8,7.1,1.8,11.9c0,4-0.5,7.4-1.2,10.2  c-1.9,6.1-6,9.4-12,9.4c-6.6,0-10.9-4.1-12.3-10.7c-0.5-1.9-0.7-4.7-0.8-7.1l-1.2-1.2h-6.1l-1.2,1.2c0.1,3,0.4,6.2,1.1,9.1  c2.3,9.8,9.8,16.1,20.6,16.1c9.7,0,16.4-4.7,19.5-13.4c1.3-3.6,2-8,2-13.1C630.8,182.6,630,177.5,628.4,173.7z"/>
<path fill="#231F20" d="M845.1,3.6l0.1,64.2l-0.8,0.8l-55.5,0.1l-0.8-0.8L788,3.7l-2.1-2.1l-6.8,0L777,3.7l0.2,139.9l2.1,2.1l6.8,0  l2.1-2.1l-0.1-64.4l0.8-0.8l55.5-0.1l0.8,0.8l0.1,64.4l2.1,2.1l6.8,0l2.1-2.1L856,3.6L854,1.5l-6.8,0L845.1,3.6z M704.2,147.3  c24.3,0,40.3-15.5,40.3-39.1l0-1.9l-2.1-1.8l-6.8-0.4l-2.1,2.1l0,2.5c0,17.5-11.7,29-29.4,29c-17.5,0-29.2-11.5-29.2-29l-0.1-70.1  c0-17.3,11.7-28.8,29.2-28.8c17.7,0,29.4,11.5,29.5,28.8l0,2.9l2.1,2.1l6.8-0.4l2.1-2.3l0-1.9C744.3,15.4,728.3,0,704,0  c-24.1,0-40.1,15.5-40.1,39.1l0.1,68.9C664.1,131.7,680.2,147.3,704.2,147.3z"/>
<path fill="#231F20" d="M921.9,173.7c-2.6-7.1-8-11-15.7-11l-0.2-0.6l17.5-23.9l0.5-1.6v-5.4l-1.2-1.2h-39.8l-1.2,1.2v5l1.2,1.2  h29.9l0.2,0.6L894.4,163l0.1,1.7l3,3.4l1.7,0.4l3.5-0.8c5.5,0,9.4,3,11.4,8.5c1.2,3.1,1.8,7.1,1.8,11.9c0,4-0.5,7.4-1.2,10.2  c-1.9,6.1-6,9.4-12,9.4c-6.6,0-10.9-4.1-12.3-10.7c-0.5-1.9-0.7-4.7-0.8-7.1l-1.2-1.2h-6.1l-1.2,1.2c0.1,3,0.4,6.2,1.1,9.1  c2.3,9.8,9.8,16.1,20.6,16.1c9.7,0,16.4-4.7,19.5-13.4c1.3-3.6,2-8,2-13.1C924.3,182.6,923.5,177.6,921.9,173.7z"/>
<polyline points="241.1,344.3 336.6,344.3 336.6,354.1 241.1,354.1 "/>
<polyline points="504.2,344.3 608.7,344.3 608.7,354.1 504.2,354.1 "/>
<polyline points="892.2,344.3 989.2,344.3 989.2,354.1 892.2,354.1 "/>
<polyline points="414.5,447.5 414.5,550.1 404.7,550.1 404.7,447.5 "/>
<polyline points="414.5,167.6 414.5,270.2 404.7,270.2 404.7,167.6 "/>
<polyline points="714.7,167.6 714.7,270.2 704.9,270.2 704.9,167.6 "/>
<g>
</g>
<g>
</g>
<g>
</g>
<g>
</g>
<g>
</g>
<g>
</g>
</svg>