<?xml version="1.0" encoding="UTF-8"?>
<!-- Generator: Adobe Illustrator 25.0.0, SVG Export Plug-In . SVG Version: 6.00 Build 0)  -->
<svg version="1.1" id="Layer_1" xmlns="http://www.w3.org/2000/svg" xmlns:xlink="http://www.w3.org/1999/xlink" x="0px" y="0px" viewBox="0 0 1277.5 1000" enable-background="new 0 0 1277.5 1000" xml:space="preserve">
<rect x="383.8" y="314.4" fill="#231F20" width="140" height="7.5"/>
<rect x="383.8" y="314.4" fill="#3D3225" width="140" height="7.5"/>
<rect x="310.1" y="622.9" fill="#231F20" width="210.7" height="7.5"/>
<rect x="310.1" y="622.9" fill="#3D3225" width="210.7" height="7.5"/>
<rect x="267.9" y="374.6" fill="#231F20" width="7.5" height="194.1"/>
<rect x="267.9" y="374.6" fill="#3D3225" width="7.5" height="194.1"/>
<rect x="559.9" y="374.6" fill="#231F20" width="7.5" height="194.1"/>
<rect x="559.9" y="374.6" fill="#3D3225" width="7.5" height="194.1"/>
<polygon fill="#231F20" points="769.4,255.7 610.2,301.1 612.3,308.3 771.4,263 "/>
<polygon fill="#3D3225" points="769.4,255.7 610.2,301.1 612.3,308.3 771.4,263 "/>
<polygon fill="#231F20" points="226.1,633.5 66.9,678.8 69,686.1 228.2,640.7 "/>
<polygon fill="#3D3225" points="226.1,633.5 66.9,678.8 69,686.1 228.2,640.7 "/>
<rect x="153.6" y="762.9" transform="matrix(0.2587 -0.966 0.966 0.2587 -565.3237 796.5854)" fill="#231F20" width="165.5" height="7.5"/>
<rect x="153.6" y="762.9" transform="matrix(0.2587 -0.966 0.966 0.2587 -565.3237 796.5854)" fill="#3D3225" width="165.5" height="7.5"/>
<rect x="517.8" y="172.9" transform="matrix(0.2587 -0.966 0.966 0.2587 274.4833 711.0662)" fill="#231F20" width="165.5" height="7.5"/>
<rect x="517.8" y="172.9" transform="matrix(0.2587 -0.966 0.966 0.2587 274.4833 711.0662)" fill="#3D3225" width="165.5" height="7.5"/>
<rect x="931.6" y="243.7" fill="#231F20" width="156.5" height="7.5"/>
<rect x="931.6" y="243.7" fill="#3D3225" width="156.5" height="7.5"/>
<path fill="#231F20" d="M363,272.1l0.1,41.1l-0.5,0.5l-35.5,0.1l-0.5-0.5l-0.1-41.1l-1.3-1.3l-4.3,0l-1.3,1.3l0.1,89.5l1.3,1.3  l4.3,0l1.3-1.3l-0.1-41.2l0.5-0.5l35.5-0.1l0.5,0.5l0.1,41.2l1.3,1.3l4.3,0l1.3-1.3l-0.1-89.5l-1.3-1.3l-4.3,0L363,272.1z   M272.8,364.1c15.5,0,25.8-9.9,25.8-25.1l0-1.2l-1.3-1.2l-4.3-0.3l-1.3,1.3l0,1.6c0,11.2-7.5,18.6-18.8,18.6  c-11.2,0-18.7-7.3-18.7-18.5l-0.1-44.9c0-11.1,7.5-18.4,18.7-18.5c11.3,0,18.8,7.3,18.9,18.4l0,1.8l1.3,1.3l4.3-0.3l1.3-1.4l0-1.2  c0-15-10.3-24.9-25.8-24.8c-15.4,0-25.7,9.9-25.6,25.1l0.1,44.1C247.1,354.1,257.4,364.1,272.8,364.1z"/>
<path fill="#231F20" d="M387.3,406.8h27.3l0.8-0.8v-3.2l-0.8-0.8h-20.9l-0.2-0.4c4.8-6.6,9.5-13.1,14-19.6c4.1-6.1,6.3-11.3,6.3-16  c0-8-5.4-13.6-13.7-13.6c-8,0-13.5,5.2-13.7,13.1v3.1l0.8,0.8h4l0.8-0.8v-2.6c-0.1-5.3,3.1-8.8,8.1-8.8c5,0,8.4,3.5,8.4,8.8  c0,3.8-2.2,8.5-6.1,14.1c-4.9,7-10.1,14.2-15.4,21.5l-0.3,1v3.4L387.3,406.8z"/>
<path fill="#231F20" d="M1226.8,202.9l0.1,41.1l-0.5,0.5l-35.5,0.1l-0.5-0.5l-0.1-41.1l-1.3-1.3l-4.3,0l-1.3,1.3l0.1,89.5l1.3,1.3  l4.3,0l1.3-1.3l-0.1-41.2l0.5-0.5l35.5-0.1l0.5,0.5l0.1,41.2l1.3,1.3l4.3,0l1.3-1.3l-0.1-89.5l-1.3-1.3l-4.3,0L1226.8,202.9z   M1136.6,294.9c15.5,0,25.8-9.9,25.8-25.1l0-1.2l-1.3-1.2l-4.3-0.3l-1.3,1.3l0,1.6c0,11.2-7.5,18.6-18.8,18.6  c-11.2,0-18.7-7.3-18.7-18.5l-0.1-44.9c0-11.1,7.5-18.4,18.7-18.5c11.3,0,18.8,7.3,18.9,18.4l0,1.8l1.3,1.3l4.3-0.3l1.3-1.5l0-1.2  c0-15-10.3-24.9-25.8-24.8c-15.4,0-25.7,9.9-25.6,25.1l0.1,44.1C1110.9,285,1121.2,294.9,1136.6,294.9z"/>
<path fill="#231F20" d="M1275.9,311.8c-1.7-4.5-5.1-7.1-10.1-7.1l-0.2-0.4l11.2-15.3l0.3-1v-3.5l-0.8-0.8H1251l-0.8,0.8v3.2l0.8,0.8  h19.1l0.2,0.4l-11.9,16l0.1,1.1l1.9,2.1l1.1,0.2l2.2-0.5c3.5,0,6,1.9,7.3,5.4c0.8,2,1.2,4.5,1.2,7.6c0,2.5-0.3,4.8-0.8,6.5  c-1.2,3.9-3.8,6-7.7,6c-4.2,0-7-2.6-7.9-6.8c-0.3-1.2-0.5-3-0.5-4.5l-0.8-0.8h-3.9l-0.8,0.8c0.1,1.9,0.2,4,0.7,5.8  c1.5,6.3,6.3,10.3,13.2,10.3c6.2,0,10.5-3,12.5-8.6c0.8-2.3,1.3-5.1,1.3-8.4C1277.5,317.5,1276.9,314.3,1275.9,311.8z"/>
<path fill="#231F20" d="M653.4,585.2l0.1,41.1l-0.5,0.5l-35.5,0.1l-0.5-0.5l-0.1-41.1l-1.3-1.3l-4.3,0l-1.3,1.3l0.1,89.5l1.3,1.3  l4.3,0l1.3-1.3l-0.1-41.2l0.5-0.5L653,633l0.5,0.5l0.1,41.2l1.3,1.3l4.3,0l1.3-1.3l-0.1-89.5l-1.3-1.3l-4.3,0L653.4,585.2z   M563.2,677.2c15.5,0,25.8-9.9,25.8-25.1l0-1.2l-1.3-1.2l-4.3-0.3l-1.3,1.3l0,1.6c0,11.2-7.5,18.6-18.8,18.6  c-11.2,0-18.7-7.3-18.7-18.5l-0.1-44.9c0-11.1,7.5-18.4,18.7-18.5c11.3,0,18.8,7.3,18.9,18.4l0,1.8l1.3,1.3l4.3-0.3l1.3-1.4l0-1.2  c0-15-10.3-24.9-25.8-24.8c-15.4,0-25.7,9.9-25.6,25.1l0.1,44.1C537.6,667.2,547.8,677.2,563.2,677.2z"/>
<path fill="#231F20" d="M677.7,719.8H705l0.8-0.8v-3.2l-0.8-0.8h-20.9l-0.2-0.4c4.8-6.6,9.5-13.1,14-19.6c4.1-6.1,6.3-11.3,6.3-16  c0-8-5.4-13.6-13.7-13.6c-8,0-13.5,5.2-13.7,13.1v3.1l0.8,0.8h4l0.8-0.8v-2.6c-0.1-5.3,3.1-8.8,8.1-8.8c5,0,8.4,3.5,8.4,8.8  c0,3.8-2.2,8.5-6.1,14.1c-4.9,7-10.1,14.2-15.4,21.5l-0.3,1v3.4L677.7,719.8z"/>
<path fill="#231F20" d="M900.3,202.9l0.1,41.1l-0.5,0.5l-35.5,0.1l-0.5-0.5l-0.1-41.1l-1.3-1.3l-4.3,0l-1.3,1.3l0.1,89.5l1.3,1.3  l4.3,0l1.3-1.3l-0.1-41.2l0.5-0.5l35.5-0.1l0.5,0.5l0.1,41.2l1.3,1.3l4.3,0l1.3-1.3l-0.1-89.5l-1.3-1.3l-4.3,0L900.3,202.9z   M810.1,294.9c15.5,0,25.8-9.9,25.8-25.1l0-1.2l-1.3-1.2l-4.3-0.3l-1.3,1.3l0,1.6c0,11.2-7.5,18.6-18.8,18.6  c-11.2,0-18.7-7.3-18.7-18.5l-0.1-44.9c0-11.1,7.5-18.4,18.7-18.5c11.3,0,18.8,7.3,18.9,18.4l0,1.8l1.3,1.3l4.3-0.3l1.3-1.4l0-1.2  c0-15-10.3-24.9-25.8-24.8c-15.4,0-25.7,9.9-25.6,25.1l0.1,44.1C784.4,284.9,794.7,294.9,810.1,294.9z"/>
<path fill="#231F20" d="M924.5,337.6h27.3l0.8-0.8v-3.2l-0.8-0.8H931l-0.2-0.4c4.8-6.6,9.5-13.1,14-19.6c4.1-6.1,6.3-11.3,6.3-16  c0-8-5.4-13.6-13.7-13.6c-8,0-13.5,5.2-13.7,13.1v3.1l0.8,0.8h4l0.8-0.8v-2.6c-0.1-5.3,3.1-8.8,8.1-8.8c5,0,8.4,3.5,8.4,8.8  c0,3.8-2.2,8.5-6.1,14.1c-4.9,7-10.1,14.2-15.4,21.5l-0.3,1v3.4L924.5,337.6z"/>
<path fill="#231F20" d="M292.3,864.6l0.1,41.1l-0.5,0.5l-35.5,0.1l-0.5-0.5l-0.1-41.1l-1.3-1.3l-4.3,0l-1.3,1.3l0.1,89.5l1.3,1.3  l4.3,0l1.3-1.3l-0.1-41.2l0.5-0.5l35.5-0.1l0.5,0.5l0.1,41.2l1.3,1.3l4.3,0l1.3-1.3l-0.1-89.5l-1.3-1.3l-4.3,0L292.3,864.6z   M202.1,956.6c15.5,0,25.8-9.9,25.8-25.1l0-1.2l-1.3-1.2l-4.3-0.3l-1.3,1.3l0,1.6c0,11.2-7.5,18.6-18.8,18.6  c-11.2,0-18.7-7.3-18.7-18.5l-0.1-44.9c0-11.1,7.5-18.4,18.7-18.5c11.3,0,18.8,7.3,18.9,18.4l0,1.8l1.3,1.3l4.3-0.3l1.3-1.4l0-1.2  c0-15-10.3-24.9-25.8-24.8c-15.4,0-25.7,9.9-25.6,25.1l0.1,44.1C176.4,946.7,186.7,956.7,202.1,956.6z"/>
<g>
	<path fill="#231F20" d="M341.4,973.6c-1.7-4.5-5.1-7.1-10.1-7.1l-0.2-0.4l11.2-15.3l0.3-1v-3.5l-0.8-0.8h-25.5l-0.8,0.8v3.2   l0.8,0.8h19.1l0.2,0.4l-11.9,16l0.1,1.1l1.9,2.1l1.1,0.2l2.2-0.5c3.5,0,6,1.9,7.3,5.4c0.8,2,1.2,4.5,1.2,7.6c0,2.5-0.3,4.8-0.8,6.5   c-1.2,3.9-3.8,6-7.7,6c-4.2,0-7-2.6-7.9-6.8c-0.3-1.2-0.5-3-0.5-4.5l-0.8-0.8H316l-0.8,0.8c0.1,1.9,0.2,4,0.7,5.8   c1.5,6.3,6.3,10.3,13.2,10.3c6.2,0,10.5-3,12.5-8.6c0.8-2.3,1.3-5.1,1.3-8.4C342.9,979.3,342.4,976.1,341.4,973.6z"/>
</g>
<polygon fill="#231F20" points="43.6,663.5 43.6,704.5 43.1,705.1 7.6,705.1 7,704.6 7,663.5 5.7,662.2 1.3,662.2 0,663.5   0.1,753.1 1.4,754.4 5.8,754.4 7.1,753 7,711.8 7.6,711.3 43.1,711.3 43.6,711.8 43.7,753 45,754.3 49.4,754.3 50.7,753 50.6,663.5   49.2,662.1 44.9,662.2 "/>
<g>
	<polygon fill="#231F20" points="647.1,1.3 647.1,42.4 646.6,42.9 611.1,43 610.5,42.5 610.5,1.4 609.1,0.1 604.8,0.1 603.5,1.4    603.6,90.9 604.9,92.2 609.3,92.2 610.6,90.9 610.5,49.7 611.1,49.2 646.6,49.1 647.1,49.6 647.2,90.8 648.5,92.2 652.9,92.2    654.2,90.8 654,1.3 652.7,0 648.4,0  "/>
</g>
<path fill="#231F20" d="M272.9,675.6c15.5,0,25.8-9.9,25.8-25.1l0-1.2l-1.3-1.2l-4.3-0.3l-1.3,1.3l0,1.6c0,11.2-7.5,18.6-18.8,18.6  c-11.2,0-18.7-7.3-18.7-18.5l-0.1-44.9c0-11.1,7.5-18.4,18.7-18.5c11.3,0,18.8,7.3,18.9,18.4l0,1.8l1.3,1.3l4.3-0.3l1.3-1.4l0-1.2  c0-15-10.3-24.9-25.8-24.8c-15.4,0-25.7,9.9-25.6,25.1l0.1,44.1C247.2,665.6,257.5,675.6,272.9,675.6z"/>
<path fill="#231F20" d="M564.8,365.6c15.5,0,25.8-9.9,25.8-25.1l0-1.2l-1.3-1.2l-4.3-0.3l-1.3,1.3l0,1.6c0,11.2-7.5,18.6-18.8,18.6  c-11.2,0-18.7-7.3-18.7-18.5L546,296c0-11.1,7.5-18.4,18.7-18.5c11.3,0,18.8,7.3,18.9,18.4l0,1.8l1.3,1.3l4.3-0.3l1.3-1.5l0-1.2  c0-15-10.3-24.9-25.8-24.8c-15.4,0-25.7,9.9-25.6,25.1l0.1,44.1C539.1,355.7,549.4,365.6,564.8,365.6z"/>
<g>
</g>
<g>
</g>
<g>
</g>
<g>
</g>
<g>
</g>
<g>
</g>
</svg>