<?xml version="1.0" encoding="UTF-8"?>
<!-- Generator: Adobe Illustrator 25.0.0, SVG Export Plug-In . SVG Version: 6.00 Build 0)  -->
<svg version="1.1" id="Layer_1" xmlns="http://www.w3.org/2000/svg" xmlns:xlink="http://www.w3.org/1999/xlink" x="0px" y="0px" viewBox="0 0 1280 382.4" enable-background="new 0 0 1280 382.4" xml:space="preserve">
<rect x="166.6" y="56.6" fill="#231F20" width="77.3" height="8.8"/>
<rect x="166.6" y="56.6" fill="#231F20" width="77.3" height="8.8"/>
<rect x="435.3" y="56.6" fill="#231F20" width="77.3" height="8.8"/>
<rect x="435.3" y="56.6" fill="#231F20" width="77.3" height="8.8"/>
<rect x="712.7" y="56.6" fill="#231F20" width="77.3" height="8.8"/>
<rect x="712.7" y="56.6" fill="#231F20" width="77.3" height="8.8"/>
<rect x="988.4" y="58.3" fill="#231F20" width="77.3" height="8.8"/>
<rect x="988.4" y="58.3" fill="#231F20" width="77.3" height="8.8"/>
<rect x="294.8" y="126.8" fill="#231F20" width="8.8" height="77.3"/>
<rect x="294.8" y="126.8" fill="#231F20" width="8.8" height="77.3"/>
<path fill="#231F20" d="M135.3,3.7l0.1,47.9l-0.6,0.6l-41.5,0.1l-0.6-0.6L92.6,3.8l-1.5-1.5l-5.1,0l-1.5,1.5l0.2,104.5l1.5,1.5  l5.1,0l1.5-1.5l-0.1-48.1l0.6-0.6l41.5-0.1l0.6,0.6l0.1,48.1l1.5,1.5l5.1,0l1.5-1.5L143.5,3.7l-1.5-1.5l-5.1,0L135.3,3.7z   M30.1,111.1c18.1,0,30.1-11.6,30.1-29.2l0-1.4l-1.5-1.4l-5.1-0.3L52,80.3l0,1.8c0,13.1-8.7,21.7-21.9,21.7  c-13.1,0-21.8-8.6-21.8-21.6L8.1,29.8c0-12.9,8.7-21.5,21.8-21.5c13.2,0,22,8.6,22,21.5l0,2.2l1.5,1.5l5.1-0.3l1.5-1.7l0-1.4  c0-17.5-12-29-30.2-29C11.9,1.1,0,12.6,0,30.3l0.1,51.5C0.1,99.4,12.1,111.1,30.1,111.1z"/>
<path fill="#231F20" d="M192.6,130.8c-2-5.3-6-8.2-11.7-8.2l-0.2-0.4l13.1-17.8l0.4-1.2v-4l-0.9-0.9h-29.7l-0.9,0.9v3.8l0.9,0.9  h22.3l0.2,0.4l-13.9,18.6l0.1,1.3l2.2,2.5l1.3,0.3l2.6-0.6c4.1,0,7,2.2,8.5,6.4c0.9,2.3,1.3,5.3,1.3,8.9c0,3-0.4,5.6-0.9,7.6  c-1.4,4.6-4.5,7-9,7c-4.9,0-8.1-3-9.2-8c-0.4-1.4-0.5-3.5-0.6-5.3l-0.9-0.9H163l-0.9,0.9c0.1,2.2,0.3,4.7,0.8,6.8  c1.7,7.3,7.3,12,15.4,12c7.3,0,12.3-3.5,14.6-10c1-2.7,1.5-6,1.5-9.8C194.4,137.4,193.8,133.7,192.6,130.8z"/>
<path fill="#231F20" d="M409.1,3.4l0.1,47.9l-0.6,0.6l-41.5,0.1l-0.6-0.6l-0.1-47.9L364.8,2l-5.1,0l-1.5,1.5l0.2,104.5l1.5,1.5  l5.1,0l1.5-1.5l-0.1-48.1l0.6-0.6l41.5-0.1l0.6,0.6l0.1,48.1l1.5,1.5l5.1,0l1.5-1.5L417.2,3.4l-1.5-1.5l-5.1,0L409.1,3.4z   M303.8,110.8c18.1,0,30.1-11.6,30.1-29.2l0-1.4l-1.5-1.4l-5.1-0.3l-1.5,1.5l0,1.8c0,13.1-8.7,21.7-21.9,21.7  c-13.1,0-21.8-8.6-21.8-21.6l-0.1-52.4c0-12.9,8.7-21.5,21.8-21.5c13.2,0,22,8.6,22,21.5l0,2.2l1.5,1.5l5.1-0.3l1.5-1.7l0-1.4  c0-17.5-12-29-30.2-29c-18,0-29.9,11.6-29.9,29.2l0.1,51.5C273.9,99.2,285.9,110.8,303.8,110.8z"/>
<path fill="#231F20" d="M669.7,3.2l0.1,47.9l-0.6,0.6l-41.5,0.1l-0.6-0.6L627,3.3l-1.5-1.5l-5.1,0l-1.5,1.5l0.2,104.5l1.5,1.5l5.1,0  l1.5-1.5l-0.1-48.1l0.6-0.6l41.5-0.1l0.6,0.6l0.1,48.1l1.5,1.5l5.1,0l1.5-1.5L677.9,3.2l-1.5-1.5l-5.1,0L669.7,3.2z M564.5,110.5  c18.1,0,30.1-11.6,30.1-29.2l0-1.4l-1.5-1.4l-5.1-0.3l-1.5,1.5l0,1.8c0,13.1-8.7,21.7-21.9,21.7c-13.1,0-21.8-8.6-21.8-21.6  l-0.1-52.4c0-12.9,8.7-21.5,21.8-21.5c13.2,0,22,8.6,22,21.5l0,2.2l1.5,1.5l5.1-0.3l1.5-1.7l0-1.4c0-17.5-12-29-30.2-29  c-18,0-29.9,11.6-29.9,29.2l0.1,51.5C534.5,98.9,546.5,110.6,564.5,110.5z"/>
<path fill="#231F20" d="M698.1,160.3h31.9l0.9-0.9v-3.8l-0.9-0.9h-24.4l-0.3-0.4c5.6-7.7,11.1-15.3,16.3-22.9  c4.8-7.1,7.3-13.2,7.3-18.6c0-9.3-6.3-15.8-15.9-15.8c-9.3,0-15.8,6.1-16,15.3v3.6l0.9,0.9h4.7l0.9-0.9v-3  c-0.1-6.2,3.7-10.3,9.4-10.3c5.8,0,9.8,4.1,9.8,10.3c0,4.4-2.6,9.9-7.1,16.5c-5.7,8.1-11.7,16.6-18,25.1l-0.4,1.2v3.9L698.1,160.3z"/>
<path fill="#231F20" d="M954.5,2.9l0.1,47.9l-0.6,0.6l-41.5,0.1l-0.6-0.6L911.8,3l-1.5-1.5l-5.1,0L903.6,3l0.2,104.5l1.5,1.5l5.1,0  l1.5-1.5l-0.1-48.1l0.6-0.6l41.5-0.1l0.6,0.6l0.1,48.1l1.5,1.5l5.1,0l1.5-1.5L962.6,2.9l-1.5-1.5l-5.1,0L954.5,2.9z M849.2,110.2  c18.1,0,30.1-11.6,30.1-29.2l0-1.4l-1.5-1.4l-5.1-0.3l-1.5,1.5l0,1.8c0,13.1-8.7,21.7-21.9,21.7c-13.1,0-21.8-8.6-21.8-21.6  L827.3,29c0-12.9,8.7-21.5,21.8-21.5c13.2,0,22,8.6,22,21.5l0,2.2l1.5,1.5l5.1-0.3l1.5-1.7l0-1.4c0-17.5-12-29-30.2-29  c-18,0-29.9,11.6-29.9,29.2l0.1,51.5C819.3,98.6,831.3,110.3,849.2,110.2z"/>
<path fill="#231F20" d="M982.8,160.1h31.9l0.9-0.9v-3.8l-0.9-0.9h-24.4l-0.3-0.4c5.6-7.7,11.1-15.3,16.3-22.9  c4.8-7.1,7.3-13.2,7.3-18.6c0-9.3-6.3-15.8-15.9-15.8c-9.3,0-15.8,6.1-16,15.3v3.6l0.9,0.9h4.7l0.9-0.9v-3  c-0.1-6.2,3.7-10.3,9.4-10.3c5.8,0,9.8,4.1,9.8,10.3c0,4.4-2.6,9.9-7.1,16.5c-5.7,8.1-11.7,16.6-18,25.1l-0.4,1.2v3.9L982.8,160.1z"/>
<path fill="#231F20" d="M1220.9,2.6l0.1,47.9l-0.6,0.6l-41.5,0.1l-0.6-0.6l-0.1-47.9l-1.5-1.5l-5.1,0l-1.5,1.5l0.2,104.5l1.5,1.5  l5.1,0l1.5-1.5l-0.1-48.1l0.6-0.6l41.5-0.1l0.6,0.6l0.1,48.1l1.5,1.5l5.1,0l1.5-1.5L1229,2.6l-1.5-1.5l-5.1,0L1220.9,2.6z   M1115.6,110c18.1,0,30.1-11.6,30.1-29.2l0-1.4l-1.5-1.4l-5.1-0.3l-1.5,1.5l0,1.8c0,13.1-8.7,21.7-21.9,21.7  c-13.1,0-21.8-8.6-21.8-21.6l-0.1-52.4c0-12.9,8.7-21.5,21.8-21.5c13.2,0,22,8.6,22,21.5l0,2.2l1.5,1.5l5.1-0.3l1.5-1.7l0-1.4  c0-17.5-12-29-30.2-29c-18,0-29.9,11.6-29.9,29.2l0.1,51.5C1085.7,98.4,1097.7,110,1115.6,110z"/>
<path fill="#231F20" d="M1278.2,129.7c-2-5.3-6-8.2-11.7-8.2l-0.2-0.4l13.1-17.8l0.4-1.2v-4l-0.9-0.9h-29.7l-0.9,0.9v3.8l0.9,0.9  h22.3l0.2,0.4l-13.9,18.6l0.1,1.3l2.2,2.5l1.3,0.3l2.6-0.6c4.1,0,7,2.2,8.5,6.4c0.9,2.3,1.3,5.3,1.3,8.9c0,3-0.4,5.6-0.9,7.6  c-1.4,4.6-4.5,7-9,7c-4.9,0-8.1-3-9.2-8c-0.4-1.4-0.5-3.5-0.6-5.3l-0.9-0.9h-4.6l-0.9,0.9c0.1,2.2,0.3,4.7,0.8,6.8  c1.7,7.3,7.3,12,15.4,12c7.3,0,12.3-3.5,14.6-10c1-2.7,1.5-6,1.5-9.8C1280,136.4,1279.4,132.6,1278.2,129.7z"/>
<path fill="#231F20" d="M404.5,225.5v47.6l-0.6,0.6h-41.2l-0.6-0.6v-47.6l-1.5-1.5h-5l-1.5,1.5v103.8l1.5,1.5h5l1.5-1.5v-47.8  l0.6-0.6h41.2l0.6,0.6v47.8l1.5,1.5h5l1.5-1.5V225.5l-1.5-1.5h-5L404.5,225.5z M299.7,332.1c18,0,29.9-11.5,29.9-29v-1.4l-1.5-1.4  l-5-0.3l-1.5,1.5v1.8c0,13-8.7,21.5-21.8,21.5c-13,0-21.7-8.6-21.7-21.5v-52.1c0-12.8,8.7-21.4,21.7-21.4c13.1,0,21.8,8.6,21.8,21.4  v2.1l1.5,1.5l5-0.3l1.5-1.7v-1.4c0-17.4-11.9-28.9-29.9-28.9c-17.9,0-29.8,11.5-29.8,29v51.2C269.9,320.5,281.8,332.1,299.7,332.1z"/>
<path fill="#231F20" d="M461.3,351.8c-2-5.3-6-8.2-11.7-8.2l-0.2-0.4l13-17.7l0.4-1.2v-4l-0.9-0.9h-29.6l-0.9,0.9v3.7l0.9,0.9h22.2  l0.2,0.4l-13.8,18.5l0.1,1.2l2.2,2.5l1.2,0.3l2.6-0.6c4.1,0,6.9,2.2,8.5,6.3c0.9,2.3,1.3,5.3,1.3,8.8c0,2.9-0.4,5.5-0.9,7.6  c-1.4,4.5-4.5,6.9-8.9,6.9c-4.9,0-8.1-3-9.2-7.9c-0.4-1.4-0.5-3.5-0.6-5.3l-0.9-0.9h-4.5l-0.9,0.9c0.1,2.2,0.3,4.6,0.8,6.8  c1.7,7.3,7.3,11.9,15.3,11.9c7.2,0,12.2-3.5,14.5-10c1-2.7,1.5-6,1.5-9.7C463.1,358.4,462.4,354.6,461.3,351.8z"/>
<g>
</g>
<g>
</g>
<g>
</g>
<g>
</g>
<g>
</g>
<g>
</g>
</svg>